G04 #@! TF.FileFunction,Soldermask,Bot*
%FSLAX46Y46*%
G04 Gerber Fmt 4.6, Leading zero omitted, Abs format (unit mm)*
G04 Created by KiCad (PCBNEW 4.0.5) date 12/18/17 06:03:11*
%MOMM*%
%LPD*%
G01*
G04 APERTURE LIST*
%ADD10C,0.100000*%
%ADD11R,2.100000X2.100000*%
%ADD12O,2.100000X2.100000*%
G04 APERTURE END LIST*
D10*
D11*
X180975000Y-119380000D03*
D12*
X180975000Y-116840000D03*
X180975000Y-114300000D03*
X180975000Y-111760000D03*
X180975000Y-109220000D03*
X180975000Y-106680000D03*
X180975000Y-104140000D03*
X180975000Y-101600000D03*
X180975000Y-99060000D03*
X180975000Y-96520000D03*
X180975000Y-93980000D03*
X180975000Y-91440000D03*
X180975000Y-88900000D03*
X180975000Y-86360000D03*
D11*
X160020000Y-78740000D03*
D12*
X157480000Y-78740000D03*
X154940000Y-78740000D03*
X152400000Y-78740000D03*
X149860000Y-78740000D03*
X147320000Y-78740000D03*
X144780000Y-78740000D03*
X142240000Y-78740000D03*
X139700000Y-78740000D03*
X137160000Y-78740000D03*
D11*
X121920000Y-83820000D03*
D12*
X121920000Y-86360000D03*
X121920000Y-88900000D03*
X121920000Y-91440000D03*
X121920000Y-93980000D03*
X121920000Y-96520000D03*
X121920000Y-99060000D03*
X121920000Y-101600000D03*
X121920000Y-104140000D03*
X121920000Y-106680000D03*
X121920000Y-109220000D03*
X121920000Y-111760000D03*
X121920000Y-114300000D03*
X121920000Y-116840000D03*
X121920000Y-119380000D03*
M02*
