M48
;DRILL file {KiCad 4.0.5} date 12/17/17 15:33:39
;FORMAT={-:-/ absolute / inch / decimal}
FMAT,2
INCH,TZ
T1C0.016
T2C0.039
%
G90
G05
M72
T1
X5.35Y-4.625
X5.85Y-4.2
T2
X4.8Y-3.3
X4.8Y-3.4
X4.8Y-3.5
X4.8Y-3.6
X4.8Y-3.7
X4.8Y-3.8
X4.8Y-3.9
X4.8Y-4.
X4.8Y-4.1
X4.8Y-4.2
X4.8Y-4.3
X4.8Y-4.4
X4.8Y-4.5
X4.8Y-4.6
X4.8Y-4.7
X5.4Y-3.1
X5.5Y-3.1
X5.6Y-3.1
X5.7Y-3.1
X5.8Y-3.1
X5.9Y-3.1
X6.Y-3.1
X6.1Y-3.1
X6.2Y-3.1
X6.3Y-3.1
X7.125Y-3.4
X7.125Y-3.5
X7.125Y-3.6
X7.125Y-3.7
X7.125Y-3.8
X7.125Y-3.9
X7.125Y-4.
X7.125Y-4.1
X7.125Y-4.2
X7.125Y-4.3
X7.125Y-4.4
X7.125Y-4.5
X7.125Y-4.6
X7.125Y-4.7
T0
M30
