EESchema Schematic File Version 2
LIBS:power
LIBS:device
LIBS:transistors
LIBS:conn
LIBS:linear
LIBS:regul
LIBS:74xx
LIBS:cmos4000
LIBS:adc-dac
LIBS:memory
LIBS:xilinx
LIBS:microcontrollers
LIBS:dsp
LIBS:microchip
LIBS:analog_switches
LIBS:motorola
LIBS:texas
LIBS:intel
LIBS:audio
LIBS:interface
LIBS:digital-audio
LIBS:philips
LIBS:display
LIBS:cypress
LIBS:siliconi
LIBS:opto
LIBS:atmel
LIBS:contrib
LIBS:valves
LIBS:tps73633dbv
LIBS:switch
LIBS:tp4056
LIBS:8205
LIBS:dw01
LIBS:power-cache
EELAYER 25 0
EELAYER END
$Descr A4 11693 8268
encoding utf-8
Sheet 1 1
Title ""
Date ""
Rev ""
Comp ""
Comment1 ""
Comment2 ""
Comment3 ""
Comment4 ""
$EndDescr
$Comp
L TPS73633DBV U1
U 1 1 5A40CC35
P 2500 1600
F 0 "U1" H 2500 1800 60  0000 C CNN
F 1 "TPS73633DBV" H 2600 1350 60  0000 C CNN
F 2 "TO_SOT_Packages_SMD:SOT-23-5" H 2500 1600 60  0001 C CNN
F 3 "" H 2500 1600 60  0001 C CNN
	1    2500 1600
	1    0    0    -1  
$EndComp
$Comp
L Switch S1
U 1 1 5A40CDE3
P 1350 1450
F 0 "S1" H 1450 1650 60  0000 C CNN
F 1 "Switch" H 1450 1350 60  0000 C CNN
F 2 "Pin_Headers:Pin_Header_Angled_1x02_Pitch2.54mm" H 1350 1450 60  0001 C CNN
F 3 "" H 1350 1450 60  0001 C CNN
	1    1350 1450
	-1   0    0    1   
$EndComp
$Comp
L +BATT #PWR01
U 1 1 5A40CE42
P 850 1450
F 0 "#PWR01" H 850 1300 50  0001 C CNN
F 1 "+BATT" H 850 1590 50  0000 C CNN
F 2 "" H 850 1450 50  0000 C CNN
F 3 "" H 850 1450 50  0000 C CNN
	1    850  1450
	1    0    0    -1  
$EndComp
$Comp
L GND #PWR02
U 1 1 5A40CE5A
P 2100 1550
F 0 "#PWR02" H 2100 1300 50  0001 C CNN
F 1 "GND" H 2100 1400 50  0000 C CNN
F 2 "" H 2100 1550 50  0000 C CNN
F 3 "" H 2100 1550 50  0000 C CNN
	1    2100 1550
	0    1    1    0   
$EndComp
$Comp
L +3.3V #PWR03
U 1 1 5A40CE79
P 3050 1000
F 0 "#PWR03" H 3050 850 50  0001 C CNN
F 1 "+3.3V" H 3050 1140 50  0000 C CNN
F 2 "" H 3050 1000 50  0000 C CNN
F 3 "" H 3050 1000 50  0000 C CNN
	1    3050 1000
	1    0    0    -1  
$EndComp
$Comp
L C C2
U 1 1 5A40CE91
P 3200 1600
F 0 "C2" H 3225 1700 50  0000 L CNN
F 1 "C" H 3225 1500 50  0000 L CNN
F 2 "Capacitors_SMD:C_0603" H 3238 1450 50  0001 C CNN
F 3 "" H 3200 1600 50  0000 C CNN
	1    3200 1600
	0    -1   -1   0   
$EndComp
$Comp
L GND #PWR04
U 1 1 5A40D87B
P 3350 1600
F 0 "#PWR04" H 3350 1350 50  0001 C CNN
F 1 "GND" H 3350 1450 50  0000 C CNN
F 2 "" H 3350 1600 50  0000 C CNN
F 3 "" H 3350 1600 50  0000 C CNN
	1    3350 1600
	1    0    0    -1  
$EndComp
$Comp
L GND #PWR05
U 1 1 5A40D8AA
P 2750 1200
F 0 "#PWR05" H 2750 950 50  0001 C CNN
F 1 "GND" H 2750 1050 50  0000 C CNN
F 2 "" H 2750 1200 50  0000 C CNN
F 3 "" H 2750 1200 50  0000 C CNN
	1    2750 1200
	-1   0    0    1   
$EndComp
$Comp
L C C1
U 1 1 5A40D8C4
P 2900 1200
F 0 "C1" H 2925 1300 50  0000 L CNN
F 1 "C" H 2925 1100 50  0000 L CNN
F 2 "Capacitors_SMD:C_0603" H 2938 1050 50  0001 C CNN
F 3 "" H 2900 1200 50  0000 C CNN
	1    2900 1200
	0    1    1    0   
$EndComp
Text Notes 1250 2150 0    138  ~ 0
Conversion UBatt vers 3.3V
$Comp
L Battery_Cell BT1
U 1 1 5A40D9A8
P 2900 4450
F 0 "BT1" H 3000 4550 50  0000 L CNN
F 1 "Battery_Cell" H 3000 4450 50  0000 L CNN
F 2 "Pin_Headers:Pin_Header_Angled_2x01_Pitch2.54mm" V 2900 4510 50  0001 C CNN
F 3 "" V 2900 4510 50  0000 C CNN
	1    2900 4450
	0    -1   -1   0   
$EndComp
$Comp
L 8205 U2
U 1 1 5A40DAF9
P 4000 4450
F 0 "U2" H 4000 4450 60  0000 C CNN
F 1 "8205" H 4000 4750 60  0000 C CNN
F 2 "Housings_SSOP:TSSOP-8_4.4x3mm_Pitch0.65mm" H 4000 4450 60  0001 C CNN
F 3 "" H 4000 4450 60  0001 C CNN
	1    4000 4450
	1    0    0    -1  
$EndComp
$Comp
L R R1
U 1 1 5A40DC23
P 4700 4500
F 0 "R1" V 4600 4500 50  0000 C CNN
F 1 "1K" V 4700 4500 50  0000 C CNN
F 2 "Resistors_SMD:R_1206_HandSoldering" V 4630 4500 50  0001 C CNN
F 3 "" H 4700 4500 50  0000 C CNN
	1    4700 4500
	0    1    1    0   
$EndComp
NoConn ~ 5900 4600
$Comp
L USB_OTG P1
U 1 1 5A40DDE8
P 7250 750
F 0 "P1" H 7575 625 50  0000 C CNN
F 1 "USB_OTG" H 7250 950 50  0000 C CNN
F 2 "Connectors:USB_Micro-B" V 7200 650 50  0001 C CNN
F 3 "" V 7200 650 50  0000 C CNN
	1    7250 750 
	1    0    0    -1  
$EndComp
$Comp
L R R2
U 1 1 5A40DE7A
P 6400 4500
F 0 "R2" V 6480 4500 50  0000 C CNN
F 1 "100" V 6400 4500 50  0000 C CNN
F 2 "Resistors_SMD:R_1206_HandSoldering" V 6330 4500 50  0001 C CNN
F 3 "" H 6400 4500 50  0000 C CNN
	1    6400 4500
	0    1    1    0   
$EndComp
$Comp
L +BATT #PWR06
U 1 1 5A40DED9
P 6700 4500
F 0 "#PWR06" H 6700 4350 50  0001 C CNN
F 1 "+BATT" H 6700 4640 50  0000 C CNN
F 2 "" H 6700 4500 50  0000 C CNN
F 3 "" H 6700 4500 50  0000 C CNN
	1    6700 4500
	1    0    0    -1  
$EndComp
$Comp
L C C3
U 1 1 5A40DFBA
P 6050 4350
F 0 "C3" H 6075 4450 50  0000 L CNN
F 1 "0.1u" H 6075 4250 50  0000 L CNN
F 2 "Capacitors_SMD:C_0603" H 6088 4200 50  0001 C CNN
F 3 "" H 6050 4350 50  0000 C CNN
	1    6050 4350
	1    0    0    -1  
$EndComp
$Comp
L +BATT #PWR07
U 1 1 5A40E0F0
P 2550 4450
F 0 "#PWR07" H 2550 4300 50  0001 C CNN
F 1 "+BATT" H 2550 4590 50  0000 C CNN
F 2 "" H 2550 4450 50  0000 C CNN
F 3 "" H 2550 4450 50  0000 C CNN
	1    2550 4450
	1    0    0    -1  
$EndComp
$Comp
L dw01 U3
U 1 1 5A40E17C
P 5500 4550
F 0 "U3" H 5500 4800 60  0000 C CNN
F 1 "dw01" H 5500 4400 60  0000 C CNN
F 2 "TO_SOT_Packages_SMD:SOT-23-6" H 5500 4550 60  0001 C CNN
F 3 "" H 5500 4550 60  0001 C CNN
	1    5500 4550
	1    0    0    -1  
$EndComp
$Comp
L GND #PWR08
U 1 1 5A40E3D4
P 4600 4200
F 0 "#PWR08" H 4600 3950 50  0001 C CNN
F 1 "GND" H 4600 4050 50  0000 C CNN
F 2 "" H 4600 4200 50  0000 C CNN
F 3 "" H 4600 4200 50  0000 C CNN
	1    4600 4200
	-1   0    0    1   
$EndComp
$Comp
L TP4056 U4
U 1 1 5A40E498
P 9200 1550
F 0 "U4" H 9150 1250 60  0000 C CNN
F 1 "TP4056" H 9150 1850 60  0000 C CNN
F 2 "Housings_SOIC:SOIC-8_3.9x4.9mm_Pitch1.27mm" H 9150 1850 60  0001 C CNN
F 3 "" H 9150 1850 60  0001 C CNN
	1    9200 1550
	1    0    0    -1  
$EndComp
$Comp
L +5V #PWR09
U 1 1 5A40E618
P 7050 1250
F 0 "#PWR09" H 7050 1100 50  0001 C CNN
F 1 "+5V" H 7050 1390 50  0000 C CNN
F 2 "" H 7050 1250 50  0000 C CNN
F 3 "" H 7050 1250 50  0000 C CNN
	1    7050 1250
	-1   0    0    1   
$EndComp
$Comp
L C C4
U 1 1 5A40E730
P 7250 1200
F 0 "C4" H 7275 1300 50  0000 L CNN
F 1 "0.1u" V 7400 1100 50  0000 L CNN
F 2 "Capacitors_SMD:C_0603" H 7288 1050 50  0001 C CNN
F 3 "" H 7250 1200 50  0000 C CNN
	1    7250 1200
	0    1    1    0   
$EndComp
Text Notes 3200 5450 0    138  ~ 0
Circuit de protection
Text Notes 7050 2400 0    138  ~ 0
Circuit de charge
$Comp
L +5V #PWR010
U 1 1 5A40EBA3
P 8600 1700
F 0 "#PWR010" H 8600 1550 50  0001 C CNN
F 1 "+5V" H 8600 1840 50  0000 C CNN
F 2 "" H 8600 1700 50  0000 C CNN
F 3 "" H 8600 1700 50  0000 C CNN
	1    8600 1700
	-1   0    0    1   
$EndComp
$Comp
L R R3
U 1 1 5A40EBD1
P 8450 1500
F 0 "R3" V 8530 1500 50  0000 C CNN
F 1 "1333" V 8450 1500 50  0000 C CNN
F 2 "Resistors_SMD:R_1206" V 8380 1500 50  0001 C CNN
F 3 "" H 8450 1500 50  0000 C CNN
	1    8450 1500
	0    1    1    0   
$EndComp
Wire Wire Line
	2100 1650 1800 1650
Wire Wire Line
	1800 1650 1800 1450
Wire Wire Line
	1700 1450 2100 1450
Connection ~ 1800 1450
Wire Wire Line
	3050 1000 3050 1500
Connection ~ 3050 1200
Wire Wire Line
	4450 4300 4450 4100
Wire Wire Line
	4450 4100 3550 4100
Wire Wire Line
	3550 4100 3550 4300
Wire Wire Line
	4450 4600 5100 4600
Wire Wire Line
	3550 4600 3550 4900
Wire Wire Line
	3550 4900 5000 4900
Wire Wire Line
	5000 4900 5000 4400
Wire Wire Line
	5000 4400 5100 4400
Wire Wire Line
	4850 4500 5100 4500
Wire Wire Line
	4450 4500 4550 4500
Wire Wire Line
	4450 4400 4600 4400
Connection ~ 4500 4500
Wire Wire Line
	3550 4400 3550 4500
Wire Wire Line
	3000 4450 3550 4450
Connection ~ 3550 4450
Connection ~ 3100 4450
Wire Wire Line
	5900 3900 5900 4400
Wire Wire Line
	5900 3900 3100 3900
Wire Wire Line
	5900 4500 6250 4500
Wire Wire Line
	6550 4500 6700 4500
Wire Wire Line
	6050 4100 6050 4200
Wire Wire Line
	5900 4100 6050 4100
Connection ~ 5900 4100
Connection ~ 6050 4500
Wire Wire Line
	2550 4450 2700 4450
Connection ~ 4500 4400
Wire Wire Line
	4500 4400 4500 4500
Wire Wire Line
	4600 4400 4600 4200
Wire Wire Line
	3100 3900 3100 4450
Wire Wire Line
	7050 1050 7050 1250
Wire Wire Line
	7450 1050 7450 1250
Wire Wire Line
	7400 1200 7450 1200
Connection ~ 7450 1200
Wire Wire Line
	7100 1200 7050 1200
Connection ~ 7050 1200
Wire Wire Line
	8200 1500 8300 1500
Wire Wire Line
	8250 1500 8250 1650
Wire Wire Line
	8250 1650 8600 1650
Wire Wire Line
	8600 1650 8600 1600
Connection ~ 8250 1500
$Comp
L +BATT #PWR011
U 1 1 5A461907
P 9650 1700
F 0 "#PWR011" H 9650 1550 50  0001 C CNN
F 1 "+BATT" H 9650 1840 50  0000 C CNN
F 2 "" H 9650 1700 50  0000 C CNN
F 3 "" H 9650 1700 50  0000 C CNN
	1    9650 1700
	-1   0    0    1   
$EndComp
$Comp
L +5V #PWR012
U 1 1 5A461C07
P 9650 1400
F 0 "#PWR012" H 9650 1250 50  0001 C CNN
F 1 "+5V" H 9650 1540 50  0000 C CNN
F 2 "" H 9650 1400 50  0000 C CNN
F 3 "" H 9650 1400 50  0000 C CNN
	1    9650 1400
	1    0    0    -1  
$EndComp
$Comp
L LED D1
U 1 1 5A461C6B
P 10000 1400
F 0 "D1" H 10000 1500 50  0000 C CNN
F 1 "LED" H 10000 1300 50  0000 C CNN
F 2 "LEDs:LED_0603_HandSoldering" H 10000 1400 50  0001 C CNN
F 3 "" H 10000 1400 50  0000 C CNN
	1    10000 1400
	1    0    0    -1  
$EndComp
$Comp
L LED D2
U 1 1 5A461CAA
P 10000 1700
F 0 "D2" H 10000 1800 50  0000 C CNN
F 1 "LED" H 10000 1600 50  0000 C CNN
F 2 "LEDs:LED_0603_HandSoldering" H 10000 1700 50  0001 C CNN
F 3 "" H 10000 1700 50  0000 C CNN
	1    10000 1700
	1    0    0    -1  
$EndComp
Wire Wire Line
	9650 1500 9750 1500
Wire Wire Line
	9750 1500 9750 1400
Wire Wire Line
	9750 1400 9850 1400
Wire Wire Line
	9650 1600 9750 1600
Wire Wire Line
	9750 1600 9750 1700
Wire Wire Line
	9750 1700 9850 1700
$Comp
L R R5
U 1 1 5A461D68
P 10300 1700
F 0 "R5" V 10380 1700 50  0000 C CNN
F 1 "220R" V 10300 1700 50  0000 C CNN
F 2 "Resistors_SMD:R_1206" V 10230 1700 50  0001 C CNN
F 3 "" H 10300 1700 50  0000 C CNN
	1    10300 1700
	0    1    1    0   
$EndComp
$Comp
L R R4
U 1 1 5A461DA5
P 10300 1400
F 0 "R4" V 10380 1400 50  0000 C CNN
F 1 "220R" V 10300 1400 50  0000 C CNN
F 2 "Resistors_SMD:R_1206" V 10230 1400 50  0001 C CNN
F 3 "" H 10300 1400 50  0000 C CNN
	1    10300 1400
	0    1    1    0   
$EndComp
$Comp
L +5V #PWR013
U 1 1 5A461E08
P 10500 1400
F 0 "#PWR013" H 10500 1250 50  0001 C CNN
F 1 "+5V" H 10500 1540 50  0000 C CNN
F 2 "" H 10500 1400 50  0000 C CNN
F 3 "" H 10500 1400 50  0000 C CNN
	1    10500 1400
	1    0    0    -1  
$EndComp
$Comp
L +5V #PWR014
U 1 1 5A461E8E
P 10500 1700
F 0 "#PWR014" H 10500 1550 50  0001 C CNN
F 1 "+5V" H 10500 1840 50  0000 C CNN
F 2 "" H 10500 1700 50  0000 C CNN
F 3 "" H 10500 1700 50  0000 C CNN
	1    10500 1700
	1    0    0    -1  
$EndComp
Wire Wire Line
	10450 1400 10500 1400
Wire Wire Line
	10450 1700 10500 1700
Text Label 8200 1500 2    60   ~ 0
-BATT
Text Label 7450 1250 3    60   ~ 0
-BATT
Text Label 8600 1400 1    60   ~ 0
-BATT
Text Label 3200 4550 3    60   ~ 0
-BATT
Connection ~ 3200 4450
Wire Wire Line
	3200 4450 3200 4550
Text Label 7650 650  0    60   ~ 0
-BATT
Connection ~ 8600 1500
Connection ~ 11500 2650
$EndSCHEMATC
