(module smd_4x4_push (layer F.Cu) (tedit 5AD26D0A)
  (fp_text reference REF** (at 0 3.81) (layer F.SilkS)
    (effects (font (size 1 1) (thickness 0.15)))
  )
  (fp_text value smd_4x4_push (at -0.254 -5.588) (layer F.Fab)
    (effects (font (size 1 1) (thickness 0.15)))
  )
  (fp_line (start -2 2) (end -2 -2) (layer F.SilkS) (width 0.15))
  (fp_line (start 2 2) (end -2 2) (layer F.SilkS) (width 0.15))
  (fp_line (start 2 -2) (end 2 2) (layer F.SilkS) (width 0.15))
  (fp_line (start -2 -2) (end 2 -2) (layer F.SilkS) (width 0.15))
  (pad 1 smd rect (at 2.54 -1.016) (size 3 1.5) (layers F.Cu F.Paste F.Mask))
  (pad 3 smd rect (at -2.54 -1.016) (size 3 1.5) (layers F.Cu F.Paste F.Mask))
  (pad 4 smd rect (at 2.54 1.016) (size 3 1.5) (layers F.Cu F.Paste F.Mask))
  (pad 2 smd rect (at -2.54 1.016) (size 3 1.5) (layers F.Cu F.Paste F.Mask))
)
