EESchema Schematic File Version 2
LIBS:drone-rescue
LIBS:power
LIBS:device
LIBS:transistors
LIBS:conn
LIBS:linear
LIBS:regul
LIBS:74xx
LIBS:cmos4000
LIBS:adc-dac
LIBS:memory
LIBS:xilinx
LIBS:microcontrollers
LIBS:dsp
LIBS:microchip
LIBS:analog_switches
LIBS:motorola
LIBS:texas
LIBS:intel
LIBS:audio
LIBS:interface
LIBS:digital-audio
LIBS:philips
LIBS:display
LIBS:cypress
LIBS:siliconi
LIBS:opto
LIBS:atmel
LIBS:contrib
LIBS:valves
LIBS:MPU-6050
LIBS:TP4056
LIBS:ESP-12E
LIBS:8205
LIBS:dw01
LIBS:tps73633dbv
LIBS:switches
LIBS:74hc4051
LIBS:drone-cache
EELAYER 25 0
EELAYER END
$Descr A4 11693 8268
encoding utf-8
Sheet 1 1
Title ""
Date ""
Rev ""
Comp ""
Comment1 ""
Comment2 ""
Comment3 ""
Comment4 ""
$EndDescr
$Comp
L MPU-6050 U2
U 1 1 5B5AF38B
P 8200 1600
F 0 "U2" H 7698 2554 50  0000 L BNN
F 1 "MPU-6050" H 7697 594 50  0000 L BNN
F 2 "Housings_DFN_QFN:QFN-24_4x4mm_Pitch0.5mm" H 8200 1600 50  0001 L BNN
F 3 "3-axis gyroscope, 3-axis accelerometer in a 4x4x0.9 housing" H 8200 1600 50  0001 L BNN
F 4 "1428-1007-1-ND" H 8200 1600 50  0001 L BNN "Champ4"
F 5 "https://www.digikey.nl/product-detail/en/tdk-invensense/MPU-6050/1428-1007-1-ND/4038010?utm_source=snapeda&utm_medium=aggregator&utm_campaign=symbol" H 8200 1600 50  0001 L BNN "Champ5"
F 6 "MPU-6050" H 8200 1600 50  0001 L BNN "Champ6"
F 7 "TDK" H 8200 1600 50  0001 L BNN "Champ7"
F 8 "QFN-24 InvenSense" H 8200 1600 50  0001 L BNN "Champ8"
	1    8200 1600
	1    0    0    -1  
$EndComp
$Comp
L ESP-12F U1
U 1 1 5B5AF5D5
P 2250 1550
F 0 "U1" H 2250 1450 50  0000 C CNN
F 1 "ESP-12F" H 2250 1650 50  0000 C CNN
F 2 "RF_Modules:ESP-12E" H 2250 1550 50  0001 C CNN
F 3 "" H 2250 1550 50  0001 C CNN
	1    2250 1550
	1    0    0    -1  
$EndComp
$Comp
L LED D3
U 1 1 5B5AF6DE
P 8350 4150
F 0 "D3" H 8350 4250 50  0000 C CNN
F 1 "LED" H 8350 4050 50  0000 C CNN
F 2 "LEDs:LED_0805_HandSoldering" H 8350 4150 50  0001 C CNN
F 3 "" H 8350 4150 50  0000 C CNN
	1    8350 4150
	-1   0    0    1   
$EndComp
$Comp
L LED D4
U 1 1 5B5AF75F
P 8400 4950
F 0 "D4" H 8400 5050 50  0000 C CNN
F 1 "LED" H 8400 4850 50  0000 C CNN
F 2 "LEDs:LED_0805_HandSoldering" H 8400 4950 50  0001 C CNN
F 3 "" H 8400 4950 50  0000 C CNN
	1    8400 4950
	-1   0    0    1   
$EndComp
$Comp
L USB_OTG P6
U 1 1 5B5B06DD
P 1350 7500
F 0 "P6" H 1675 7375 50  0000 C CNN
F 1 "USB_OTG" H 1350 7700 50  0000 C CNN
F 2 "USB-MICRO-MK5P-2:USB-MICRO-B" V 1300 7400 50  0001 C CNN
F 3 "" V 1300 7400 50  0000 C CNN
	1    1350 7500
	-1   0    0    1   
$EndComp
$Comp
L Laserdiode_1C2A LD1
U 1 1 5B5B08B5
P 8400 3600
F 0 "LD1" H 8350 3775 50  0000 C CNN
F 1 "Laserdiode_1C2A" H 8350 3500 50  0000 C CNN
F 2 "Capacitors_SMD:C_1812_HandSoldering" H 8300 3575 50  0001 C CNN
F 3 "" H 8430 3400 50  0000 C CNN
	1    8400 3600
	-1   0    0    1   
$EndComp
$Comp
L Laserdiode_1C2A LD2
U 1 1 5B5B08E6
P 9800 5100
F 0 "LD2" H 9750 5275 50  0000 C CNN
F 1 "Laserdiode_1C2A" H 9750 5000 50  0000 C CNN
F 2 "Capacitors_SMD:C_1812_HandSoldering" H 9700 5075 50  0001 C CNN
F 3 "" H 9830 4900 50  0000 C CNN
	1    9800 5100
	1    0    0    -1  
$EndComp
$Comp
L R_PHOTO R8
U 1 1 5B5B094E
P 3350 3050
F 0 "R8" H 3400 3100 50  0000 L CNN
F 1 "R_PHOTO" H 3400 3050 50  0000 L TNN
F 2 "Capacitors_THT:C_Disc_D4.7mm_W2.5mm_P5.00mm" V 3400 2800 50  0001 L CNN
F 3 "" H 3350 3000 50  0000 C CNN
	1    3350 3050
	1    0    0    -1  
$EndComp
$Comp
L R_PHOTO R10
U 1 1 5B5B0989
P 4550 3050
F 0 "R10" H 4600 3100 50  0000 L CNN
F 1 "R_PHOTO" H 4600 3050 50  0000 L TNN
F 2 "Capacitors_THT:C_Disc_D4.7mm_W2.5mm_P5.00mm" V 4600 2800 50  0001 L CNN
F 3 "" H 4550 3000 50  0000 C CNN
	1    4550 3050
	1    0    0    -1  
$EndComp
$Comp
L R_PHOTO R11
U 1 1 5B5B09C2
P 5150 3050
F 0 "R11" H 5200 3100 50  0000 L CNN
F 1 "R_PHOTO" H 5200 3050 50  0000 L TNN
F 2 "Capacitors_THT:C_Disc_D4.7mm_W2.5mm_P5.00mm" V 5200 2800 50  0001 L CNN
F 3 "" H 5150 3000 50  0000 C CNN
	1    5150 3050
	1    0    0    -1  
$EndComp
$Comp
L 74hc4051 U3
U 1 1 5B5B1511
P 2150 4450
F 0 "U3" H 2300 4750 60  0000 C CNN
F 1 "74hc4051" H 1950 4200 60  0000 C CNN
F 2 "Housings_SOIC:SOIC-16_3.9x9.9mm_Pitch1.27mm" H 2150 4450 60  0001 C CNN
F 3 "" H 2150 4450 60  0001 C CNN
	1    2150 4450
	1    0    0    -1  
$EndComp
$Comp
L SW_Push SW3
U 1 1 5B5B1874
P 3850 4500
F 0 "SW3" H 3900 4600 50  0000 L CNN
F 1 "SW_Push" H 3850 4440 50  0000 C CNN
F 2 "push_smd:smd_4x4_push" H 3850 4700 50  0001 C CNN
F 3 "" H 3850 4700 50  0000 C CNN
	1    3850 4500
	1    0    0    -1  
$EndComp
$Comp
L BSS138 Q1
U 1 1 5B5B22AF
P 7800 4000
F 0 "Q1" H 8000 4075 50  0000 L CNN
F 1 "BSS138" H 8000 4000 50  0000 L CNN
F 2 "TO_SOT_Packages_SMD:SOT-23" H 8000 3925 50  0001 L CIN
F 3 "" H 7800 4000 50  0000 L CNN
	1    7800 4000
	0    -1   -1   0   
$EndComp
$Comp
L BSS138 Q2
U 1 1 5B5B2324
P 10400 4200
F 0 "Q2" H 10600 4275 50  0000 L CNN
F 1 "BSS138" H 10600 4200 50  0000 L CNN
F 2 "TO_SOT_Packages_SMD:SOT-23" H 10600 4125 50  0001 L CIN
F 3 "" H 10400 4200 50  0000 L CNN
	1    10400 4200
	1    0    0    -1  
$EndComp
$Comp
L BSS138 Q4
U 1 1 5B5B237D
P 8050 5300
F 0 "Q4" H 8250 5375 50  0000 L CNN
F 1 "BSS138" H 8250 5300 50  0000 L CNN
F 2 "TO_SOT_Packages_SMD:SOT-23" H 8250 5225 50  0001 L CIN
F 3 "" H 8050 5300 50  0000 L CNN
	1    8050 5300
	0    1    1    0   
$EndComp
$Comp
L BSS138 Q3
U 1 1 5B5B23C0
P 10400 5000
F 0 "Q3" H 10600 5075 50  0000 L CNN
F 1 "BSS138" H 10600 5000 50  0000 L CNN
F 2 "TO_SOT_Packages_SMD:SOT-23" H 10600 4925 50  0001 L CIN
F 3 "" H 10400 5000 50  0000 L CNN
	1    10400 5000
	1    0    0    1   
$EndComp
Text GLabel 4400 1750 2    60   BiDi ~ 0
SDA
$Comp
L GND #PWR17
U 1 1 5B5B293D
P 3150 1950
F 0 "#PWR17" H 3150 1700 50  0001 C CNN
F 1 "GND" H 3150 1800 50  0000 C CNN
F 2 "" H 3150 1950 50  0000 C CNN
F 3 "" H 3150 1950 50  0000 C CNN
	1    3150 1950
	1    0    0    -1  
$EndComp
$Comp
L +3.3V #PWR16
U 1 1 5B5B2981
P 1350 1950
F 0 "#PWR16" H 1350 1800 50  0001 C CNN
F 1 "+3.3V" H 1350 2090 50  0000 C CNN
F 2 "" H 1350 1950 50  0000 C CNN
F 3 "" H 1350 1950 50  0000 C CNN
	1    1350 1950
	-1   0    0    1   
$EndComp
$Comp
L +3.3V #PWR4
U 1 1 5B5B2A55
P 8800 800
F 0 "#PWR4" H 8800 650 50  0001 C CNN
F 1 "+3.3V" H 8800 940 50  0000 C CNN
F 2 "" H 8800 800 50  0000 C CNN
F 3 "" H 8800 800 50  0000 C CNN
	1    8800 800 
	0    1    1    0   
$EndComp
$Comp
L GND #PWR23
U 1 1 5B5B2ACF
P 8800 2400
F 0 "#PWR23" H 8800 2150 50  0001 C CNN
F 1 "GND" H 8800 2250 50  0000 C CNN
F 2 "" H 8800 2400 50  0000 C CNN
F 3 "" H 8800 2400 50  0000 C CNN
	1    8800 2400
	1    0    0    -1  
$EndComp
Text GLabel 6950 1800 0    60   BiDi ~ 0
SCL
Text GLabel 6950 1950 0    60   BiDi ~ 0
SDA
$Comp
L SW_Push SW1
U 1 1 5B5B2D3F
P 1000 1050
F 0 "SW1" H 1050 1150 50  0000 L CNN
F 1 "Reset" H 1000 990 50  0000 C CNN
F 2 "push_smd:smd_4x4_push" H 1000 1250 50  0001 C CNN
F 3 "" H 1000 1250 50  0000 C CNN
	1    1000 1050
	1    0    0    -1  
$EndComp
$Comp
L +3.3V #PWR11
U 1 1 5B5B2DD4
P 900 1450
F 0 "#PWR11" H 900 1300 50  0001 C CNN
F 1 "+3.3V" H 900 1590 50  0000 C CNN
F 2 "" H 900 1450 50  0000 C CNN
F 3 "" H 900 1450 50  0000 C CNN
	1    900  1450
	0    -1   -1   0   
$EndComp
Text GLabel 3750 1850 2    60   BiDi ~ 0
RTS
Text GLabel 3200 1150 2    60   Output ~ 0
ESP_TX
Text GLabel 3300 1350 2    60   Input ~ 0
ESP_RX
$Comp
L R R1
U 1 1 5B5B30A6
P 1350 900
F 0 "R1" V 1430 900 50  0000 C CNN
F 1 "10k" V 1350 900 50  0000 C CNN
F 2 "Resistors_SMD:R_1206_HandSoldering" V 1280 900 50  0001 C CNN
F 3 "" H 1350 900 50  0000 C CNN
	1    1350 900 
	1    0    0    -1  
$EndComp
$Comp
L Battery_Cell BT1
U 1 1 5B5B378F
P 850 4900
F 0 "BT1" H 950 5000 50  0000 L CNN
F 1 "Battery_Cell" H 950 4900 50  0000 L CNN
F 2 "Pin_Headers:Pin_Header_Straight_1x02_Pitch2.54mm" V 850 4960 50  0001 C CNN
F 3 "" V 850 4960 50  0000 C CNN
	1    850  4900
	0    1    1    0   
$EndComp
$Comp
L 74HC595 U4
U 1 1 5B5B3DDC
P 7150 4650
F 0 "U4" H 7300 5250 50  0000 C CNN
F 1 "74HC595" H 7150 4050 50  0000 C CNN
F 2 "Housings_SOIC:SOIC-16_3.9x9.9mm_Pitch1.27mm" H 7150 4650 50  0001 C CNN
F 3 "" H 7150 4650 50  0000 C CNN
	1    7150 4650
	1    0    0    -1  
$EndComp
$Comp
L GND #PWR42
U 1 1 5B5B64A0
P 8600 4050
F 0 "#PWR42" H 8600 3800 50  0001 C CNN
F 1 "GND" H 8600 3900 50  0000 C CNN
F 2 "" H 8600 4050 50  0000 C CNN
F 3 "" H 8600 4050 50  0000 C CNN
	1    8600 4050
	-1   0    0    1   
$EndComp
$Comp
L GND #PWR55
U 1 1 5B5B64EC
P 9100 5100
F 0 "#PWR55" H 9100 4850 50  0001 C CNN
F 1 "GND" H 9100 4950 50  0000 C CNN
F 2 "" H 9100 5100 50  0000 C CNN
F 3 "" H 9100 5100 50  0000 C CNN
	1    9100 5100
	0    1    1    0   
$EndComp
$Comp
L GND #PWR54
U 1 1 5B5B6538
P 8650 4950
F 0 "#PWR54" H 8650 4700 50  0001 C CNN
F 1 "GND" H 8650 4800 50  0000 C CNN
F 2 "" H 8650 4950 50  0000 C CNN
F 3 "" H 8650 4950 50  0000 C CNN
	1    8650 4950
	1    0    0    -1  
$EndComp
$Comp
L GND #PWR38
U 1 1 5B5B6684
P 9100 3600
F 0 "#PWR38" H 9100 3350 50  0001 C CNN
F 1 "GND" H 9100 3450 50  0000 C CNN
F 2 "" H 9100 3600 50  0000 C CNN
F 3 "" H 9100 3600 50  0000 C CNN
	1    9100 3600
	0    -1   -1   0   
$EndComp
$Comp
L CONN_01X02 P3
U 1 1 5B5B6B15
P 10700 3800
F 0 "P3" H 10700 3950 50  0000 C CNN
F 1 "motor" V 10800 3800 50  0000 C CNN
F 2 "Capacitors_SMD:C_1812_HandSoldering" H 10700 3800 50  0001 C CNN
F 3 "" H 10700 3800 50  0000 C CNN
	1    10700 3800
	1    0    0    -1  
$EndComp
$Comp
L CONN_01X02 P4
U 1 1 5B5B6BDB
P 10700 5450
F 0 "P4" H 10700 5600 50  0000 C CNN
F 1 "motor" V 10800 5450 50  0000 C CNN
F 2 "Capacitors_SMD:C_1812_HandSoldering" H 10700 5450 50  0001 C CNN
F 3 "" H 10700 5450 50  0000 C CNN
	1    10700 5450
	1    0    0    -1  
$EndComp
$Comp
L CONN_01X02 P5
U 1 1 5B5B6CF5
P 8550 5600
F 0 "P5" H 8550 5750 50  0000 C CNN
F 1 "motor" V 8650 5600 50  0000 C CNN
F 2 "Capacitors_SMD:C_1812_HandSoldering" H 8550 5600 50  0001 C CNN
F 3 "" H 8550 5600 50  0000 C CNN
	1    8550 5600
	0    1    1    0   
$EndComp
$Comp
L CONN_01X02 P2
U 1 1 5B5B6D6A
P 7450 3700
F 0 "P2" H 7450 3850 50  0000 C CNN
F 1 "motor" V 7550 3700 50  0000 C CNN
F 2 "Capacitors_SMD:C_1812_HandSoldering" H 7450 3700 50  0001 C CNN
F 3 "" H 7450 3700 50  0000 C CNN
	1    7450 3700
	0    -1   -1   0   
$EndComp
$Comp
L R_PHOTO R7
U 1 1 5B5C58AD
P 2750 3050
F 0 "R7" H 2800 3100 50  0000 L CNN
F 1 "R_PHOTO" H 2800 3050 50  0000 L TNN
F 2 "Capacitors_THT:C_Disc_D4.7mm_W2.5mm_P5.00mm" V 2800 2800 50  0001 L CNN
F 3 "" H 2750 3000 50  0000 C CNN
	1    2750 3050
	1    0    0    -1  
$EndComp
$Comp
L R_PHOTO R9
U 1 1 5B5C5904
P 3950 3050
F 0 "R9" H 4000 3100 50  0000 L CNN
F 1 "R_PHOTO" H 4000 3050 50  0000 L TNN
F 2 "Capacitors_THT:C_Disc_D4.7mm_W2.5mm_P5.00mm" V 4000 2800 50  0001 L CNN
F 3 "" H 3950 3000 50  0000 C CNN
	1    3950 3050
	1    0    0    -1  
$EndComp
$Comp
L +3.3V #PWR35
U 1 1 5B5C677E
P 2300 3550
F 0 "#PWR35" H 2300 3400 50  0001 C CNN
F 1 "+3.3V" H 2300 3690 50  0000 C CNN
F 2 "" H 2300 3550 50  0000 C CNN
F 3 "" H 2300 3550 50  0000 C CNN
	1    2300 3550
	1    0    0    -1  
$EndComp
$Comp
L GND #PWR34
U 1 1 5B5C67D6
P 2200 3550
F 0 "#PWR34" H 2200 3300 50  0001 C CNN
F 1 "GND" H 2200 3400 50  0000 C CNN
F 2 "" H 2200 3550 50  0000 C CNN
F 3 "" H 2200 3550 50  0000 C CNN
	1    2200 3550
	0    1    1    0   
$EndComp
$Comp
L R R12
U 1 1 5B5C6B8A
P 2750 3350
F 0 "R12" V 2830 3350 50  0000 C CNN
F 1 "70k" V 2750 3350 50  0000 C CNN
F 2 "Resistors_SMD:R_1206_HandSoldering" V 2680 3350 50  0001 C CNN
F 3 "" H 2750 3350 50  0000 C CNN
	1    2750 3350
	1    0    0    -1  
$EndComp
$Comp
L GND #PWR29
U 1 1 5B5C6C36
P 2750 3500
F 0 "#PWR29" H 2750 3250 50  0001 C CNN
F 1 "GND" H 2750 3350 50  0000 C CNN
F 2 "" H 2750 3500 50  0000 C CNN
F 3 "" H 2750 3500 50  0000 C CNN
	1    2750 3500
	1    0    0    -1  
$EndComp
$Comp
L +3.3V #PWR24
U 1 1 5B5C6C90
P 2750 2900
F 0 "#PWR24" H 2750 2750 50  0001 C CNN
F 1 "+3.3V" H 2750 3040 50  0000 C CNN
F 2 "" H 2750 2900 50  0000 C CNN
F 3 "" H 2750 2900 50  0000 C CNN
	1    2750 2900
	1    0    0    -1  
$EndComp
$Comp
L +3.3V #PWR25
U 1 1 5B5C7051
P 3350 2900
F 0 "#PWR25" H 3350 2750 50  0001 C CNN
F 1 "+3.3V" H 3350 3040 50  0000 C CNN
F 2 "" H 3350 2900 50  0000 C CNN
F 3 "" H 3350 2900 50  0000 C CNN
	1    3350 2900
	1    0    0    -1  
$EndComp
$Comp
L GND #PWR30
U 1 1 5B5C70AB
P 3350 3500
F 0 "#PWR30" H 3350 3250 50  0001 C CNN
F 1 "GND" H 3350 3350 50  0000 C CNN
F 2 "" H 3350 3500 50  0000 C CNN
F 3 "" H 3350 3500 50  0000 C CNN
	1    3350 3500
	1    0    0    -1  
$EndComp
$Comp
L R R13
U 1 1 5B5C7105
P 3350 3350
F 0 "R13" V 3430 3350 50  0000 C CNN
F 1 "70k" V 3350 3350 50  0000 C CNN
F 2 "Resistors_SMD:R_1206_HandSoldering" V 3280 3350 50  0001 C CNN
F 3 "" H 3350 3350 50  0000 C CNN
	1    3350 3350
	1    0    0    -1  
$EndComp
$Comp
L R R14
U 1 1 5B5C7204
P 3950 3350
F 0 "R14" V 4030 3350 50  0000 C CNN
F 1 "70k" V 3950 3350 50  0000 C CNN
F 2 "Resistors_SMD:R_1206_HandSoldering" V 3880 3350 50  0001 C CNN
F 3 "" H 3950 3350 50  0000 C CNN
	1    3950 3350
	1    0    0    -1  
$EndComp
$Comp
L R R15
U 1 1 5B5C72FC
P 4550 3350
F 0 "R15" V 4630 3350 50  0000 C CNN
F 1 "70k" V 4550 3350 50  0000 C CNN
F 2 "Resistors_SMD:R_1206_HandSoldering" V 4480 3350 50  0001 C CNN
F 3 "" H 4550 3350 50  0000 C CNN
	1    4550 3350
	1    0    0    -1  
$EndComp
$Comp
L +3.3V #PWR27
U 1 1 5B5C7361
P 4550 2900
F 0 "#PWR27" H 4550 2750 50  0001 C CNN
F 1 "+3.3V" H 4550 3040 50  0000 C CNN
F 2 "" H 4550 2900 50  0000 C CNN
F 3 "" H 4550 2900 50  0000 C CNN
	1    4550 2900
	1    0    0    -1  
$EndComp
$Comp
L +3.3V #PWR26
U 1 1 5B5C73C1
P 3950 2900
F 0 "#PWR26" H 3950 2750 50  0001 C CNN
F 1 "+3.3V" H 3950 3040 50  0000 C CNN
F 2 "" H 3950 2900 50  0000 C CNN
F 3 "" H 3950 2900 50  0000 C CNN
	1    3950 2900
	1    0    0    -1  
$EndComp
$Comp
L R R16
U 1 1 5B5C74C7
P 5150 3350
F 0 "R16" V 5230 3350 50  0000 C CNN
F 1 "70k" V 5150 3350 50  0000 C CNN
F 2 "Resistors_SMD:R_1206_HandSoldering" V 5080 3350 50  0001 C CNN
F 3 "" H 5150 3350 50  0000 C CNN
	1    5150 3350
	1    0    0    -1  
$EndComp
$Comp
L GND #PWR33
U 1 1 5B5C752A
P 5150 3500
F 0 "#PWR33" H 5150 3250 50  0001 C CNN
F 1 "GND" H 5150 3350 50  0000 C CNN
F 2 "" H 5150 3500 50  0000 C CNN
F 3 "" H 5150 3500 50  0000 C CNN
	1    5150 3500
	1    0    0    -1  
$EndComp
$Comp
L GND #PWR32
U 1 1 5B5C758C
P 4550 3500
F 0 "#PWR32" H 4550 3250 50  0001 C CNN
F 1 "GND" H 4550 3350 50  0000 C CNN
F 2 "" H 4550 3500 50  0000 C CNN
F 3 "" H 4550 3500 50  0000 C CNN
	1    4550 3500
	1    0    0    -1  
$EndComp
$Comp
L GND #PWR31
U 1 1 5B5C75EE
P 3950 3500
F 0 "#PWR31" H 3950 3250 50  0001 C CNN
F 1 "GND" H 3950 3350 50  0000 C CNN
F 2 "" H 3950 3500 50  0000 C CNN
F 3 "" H 3950 3500 50  0000 C CNN
	1    3950 3500
	1    0    0    -1  
$EndComp
$Comp
L +3.3V #PWR46
U 1 1 5B5C7A3B
P 4050 4500
F 0 "#PWR46" H 4050 4350 50  0001 C CNN
F 1 "+3.3V" H 4050 4640 50  0000 C CNN
F 2 "" H 4050 4500 50  0000 C CNN
F 3 "" H 4050 4500 50  0000 C CNN
	1    4050 4500
	0    1    1    0   
$EndComp
$Comp
L R R17
U 1 1 5B5C7A9D
P 3650 4750
F 0 "R17" V 3730 4750 50  0000 C CNN
F 1 "10k" V 3650 4750 50  0000 C CNN
F 2 "Resistors_SMD:R_1206_HandSoldering" V 3580 4750 50  0001 C CNN
F 3 "" H 3650 4750 50  0000 C CNN
	1    3650 4750
	1    0    0    -1  
$EndComp
$Comp
L GND #PWR52
U 1 1 5B5C7B08
P 3650 4900
F 0 "#PWR52" H 3650 4650 50  0001 C CNN
F 1 "GND" H 3650 4750 50  0000 C CNN
F 2 "" H 3650 4900 50  0000 C CNN
F 3 "" H 3650 4900 50  0000 C CNN
	1    3650 4900
	1    0    0    -1  
$EndComp
$Comp
L +3.3V #PWR28
U 1 1 5B5C81FE
P 5150 2900
F 0 "#PWR28" H 5150 2750 50  0001 C CNN
F 1 "+3.3V" H 5150 3040 50  0000 C CNN
F 2 "" H 5150 2900 50  0000 C CNN
F 3 "" H 5150 2900 50  0000 C CNN
	1    5150 2900
	1    0    0    -1  
$EndComp
$Comp
L C C1
U 1 1 5B5C9529
P 4200 700
F 0 "C1" H 4225 800 50  0000 L CNN
F 1 "10uF" H 4225 600 50  0000 L CNN
F 2 "Capacitors_SMD:C_1210_HandSoldering" H 4238 550 50  0001 C CNN
F 3 "" H 4200 700 50  0000 C CNN
	1    4200 700 
	0    1    1    0   
$EndComp
$Comp
L +3.3V #PWR1
U 1 1 5B5C959A
P 4050 700
F 0 "#PWR1" H 4050 550 50  0001 C CNN
F 1 "+3.3V" H 4050 840 50  0000 C CNN
F 2 "" H 4050 700 50  0000 C CNN
F 3 "" H 4050 700 50  0000 C CNN
	1    4050 700 
	1    0    0    -1  
$EndComp
$Comp
L GND #PWR2
U 1 1 5B5C9600
P 4450 700
F 0 "#PWR2" H 4450 450 50  0001 C CNN
F 1 "GND" H 4450 550 50  0000 C CNN
F 2 "" H 4450 700 50  0000 C CNN
F 3 "" H 4450 700 50  0000 C CNN
	1    4450 700 
	1    0    0    -1  
$EndComp
$Comp
L GND #PWR7
U 1 1 5B5C9767
P 800 1050
F 0 "#PWR7" H 800 800 50  0001 C CNN
F 1 "GND" H 800 900 50  0000 C CNN
F 2 "" H 800 1050 50  0000 C CNN
F 3 "" H 800 1050 50  0000 C CNN
	1    800  1050
	0    1    1    0   
$EndComp
Text GLabel 5150 1050 3    60   Input ~ 0
ESP_TX
Text GLabel 5300 1050 3    60   Output ~ 0
ESP_RX
$Comp
L GND #PWR9
U 1 1 5B5C9E7E
P 5800 1150
F 0 "#PWR9" H 5800 900 50  0001 C CNN
F 1 "GND" H 5800 1000 50  0000 C CNN
F 2 "" H 5800 1150 50  0000 C CNN
F 3 "" H 5800 1150 50  0000 C CNN
	1    5800 1150
	1    0    0    -1  
$EndComp
$Comp
L +3.3V #PWR5
U 1 1 5B5C9EE6
P 5800 850
F 0 "#PWR5" H 5800 700 50  0001 C CNN
F 1 "+3.3V" H 5800 990 50  0000 C CNN
F 2 "" H 5800 850 50  0000 C CNN
F 3 "" H 5800 850 50  0000 C CNN
	1    5800 850 
	0    1    1    0   
$EndComp
$Comp
L SW_Push SW2
U 1 1 5B5CA30C
P 5100 1650
F 0 "SW2" H 5150 1750 50  0000 L CNN
F 1 "Flash" H 5100 1590 50  0000 C CNN
F 2 "push_smd:smd_4x4_push" H 5100 1850 50  0001 C CNN
F 3 "" H 5100 1850 50  0000 C CNN
	1    5100 1650
	1    0    0    -1  
$EndComp
$Comp
L GND #PWR14
U 1 1 5B5CA3E8
P 5300 1650
F 0 "#PWR14" H 5300 1400 50  0001 C CNN
F 1 "GND" H 5300 1500 50  0000 C CNN
F 2 "" H 5300 1650 50  0000 C CNN
F 3 "" H 5300 1650 50  0000 C CNN
	1    5300 1650
	0    -1   -1   0   
$EndComp
$Comp
L +3.3V #PWR3
U 1 1 5B5CA563
P 1350 750
F 0 "#PWR3" H 1350 600 50  0001 C CNN
F 1 "+3.3V" H 1350 890 50  0000 C CNN
F 2 "" H 1350 750 50  0000 C CNN
F 3 "" H 1350 750 50  0000 C CNN
	1    1350 750 
	1    0    0    -1  
$EndComp
Text GLabel 900  1850 0    60   BiDi ~ 0
CTS
Text GLabel 1350 1650 0    60   BiDi ~ 0
SCL
$Comp
L CONN_01X06 P1
U 1 1 5B5CA72E
P 5400 650
F 0 "P1" H 5400 1000 50  0000 C CNN
F 1 "CONN_01X06" V 5500 650 50  0000 C CNN
F 2 "Pin_Headers:Pin_Header_Straight_1x06_Pitch2.54mm" H 5400 650 50  0001 C CNN
F 3 "" H 5400 650 50  0000 C CNN
	1    5400 650 
	0    -1   -1   0   
$EndComp
Text GLabel 5600 1100 3    60   BiDi ~ 0
CTS
Text GLabel 5450 1100 3    60   BiDi ~ 0
RTS
$Comp
L R R3
U 1 1 5B5CB248
P 4800 1800
F 0 "R3" V 4880 1800 50  0000 C CNN
F 1 "10k" V 4800 1800 50  0000 C CNN
F 2 "Resistors_SMD:R_1206_HandSoldering" V 4730 1800 50  0001 C CNN
F 3 "" H 4800 1800 50  0000 C CNN
	1    4800 1800
	1    0    0    -1  
$EndComp
$Comp
L +3.3V #PWR18
U 1 1 5B5CB31F
P 4800 1950
F 0 "#PWR18" H 4800 1800 50  0001 C CNN
F 1 "+3.3V" H 4800 2090 50  0000 C CNN
F 2 "" H 4800 1950 50  0000 C CNN
F 3 "" H 4800 1950 50  0000 C CNN
	1    4800 1950
	-1   0    0    1   
$EndComp
$Comp
L R R4
U 1 1 5B5CB7D8
P 4200 1900
F 0 "R4" V 4280 1900 50  0000 C CNN
F 1 "10k" V 4200 1900 50  0000 C CNN
F 2 "Resistors_SMD:R_1206_HandSoldering" V 4130 1900 50  0001 C CNN
F 3 "" H 4200 1900 50  0000 C CNN
	1    4200 1900
	1    0    0    -1  
$EndComp
$Comp
L +3.3V #PWR19
U 1 1 5B5CBBE0
P 4200 2050
F 0 "#PWR19" H 4200 1900 50  0001 C CNN
F 1 "+3.3V" H 4200 2190 50  0000 C CNN
F 2 "" H 4200 2050 50  0000 C CNN
F 3 "" H 4200 2050 50  0000 C CNN
	1    4200 2050
	-1   0    0    1   
$EndComp
$Comp
L R R5
U 1 1 5B5CBE48
P 3400 2050
F 0 "R5" V 3480 2050 50  0000 C CNN
F 1 "10k" V 3400 2050 50  0000 C CNN
F 2 "Resistors_SMD:R_1206_HandSoldering" V 3330 2050 50  0001 C CNN
F 3 "" H 3400 2050 50  0000 C CNN
	1    3400 2050
	1    0    0    -1  
$EndComp
$Comp
L GND #PWR21
U 1 1 5B5CBFAF
P 3400 2200
F 0 "#PWR21" H 3400 1950 50  0001 C CNN
F 1 "GND" H 3400 2050 50  0000 C CNN
F 2 "" H 3400 2200 50  0000 C CNN
F 3 "" H 3400 2200 50  0000 C CNN
	1    3400 2200
	1    0    0    -1  
$EndComp
NoConn ~ 2100 2450
NoConn ~ 2400 2450
NoConn ~ 2500 2450
$Comp
L GND #PWR36
U 1 1 5B5D969B
P 2400 3550
F 0 "#PWR36" H 2400 3300 50  0001 C CNN
F 1 "GND" H 2400 3400 50  0000 C CNN
F 2 "" H 2400 3550 50  0000 C CNN
F 3 "" H 2400 3550 50  0000 C CNN
	1    2400 3550
	0    -1   -1   0   
$EndComp
$Comp
L GND #PWR44
U 1 1 5B5D9BE7
P 1800 4350
F 0 "#PWR44" H 1800 4100 50  0001 C CNN
F 1 "GND" H 1800 4200 50  0000 C CNN
F 2 "" H 1800 4350 50  0000 C CNN
F 3 "" H 1800 4350 50  0000 C CNN
	1    1800 4350
	1    0    0    -1  
$EndComp
Text Label 2300 4800 3    60   ~ 0
Analog
Text Label 1300 1300 2    60   ~ 0
Analog
Text Label 1800 4050 2    60   ~ 0
4051_S0
Text Label 1800 4150 2    60   ~ 0
4051_S2
Text Label 1800 4250 2    60   ~ 0
4051_S1
Text Label 2800 4750 3    60   ~ 0
batt_level
Text Label 1350 1550 2    60   ~ 0
4051_S0
Text Label 3650 1850 3    60   ~ 0
4051_S1
Text Label 1050 1900 3    60   ~ 0
4051_S2
Text Label 6450 4200 2    60   ~ 0
DS
Text Label 6450 4400 2    60   ~ 0
SH_CP
Text Label 6450 4700 2    60   ~ 0
ST_CP
$Comp
L GND #PWR49
U 1 1 5B5DB26C
P 6450 4800
F 0 "#PWR49" H 6450 4550 50  0001 C CNN
F 1 "GND" H 6450 4650 50  0000 C CNN
F 2 "" H 6450 4800 50  0000 C CNN
F 3 "" H 6450 4800 50  0000 C CNN
	1    6450 4800
	1    0    0    -1  
$EndComp
$Comp
L +3.3V #PWR47
U 1 1 5B5DB2DC
P 6200 4500
F 0 "#PWR47" H 6200 4350 50  0001 C CNN
F 1 "+3.3V" H 6200 4640 50  0000 C CNN
F 2 "" H 6200 4500 50  0000 C CNN
F 3 "" H 6200 4500 50  0000 C CNN
	1    6200 4500
	0    -1   -1   0   
$EndComp
Text Label 1050 1750 2    60   ~ 0
DS
Text Label 3150 1550 0    60   ~ 0
ST_CP
Text Label 3850 1450 0    60   ~ 0
SH_CP
$Comp
L GND #PWR10
U 1 1 5B5DC06E
P 7550 1300
F 0 "#PWR10" H 7550 1050 50  0001 C CNN
F 1 "GND" H 7550 1150 50  0000 C CNN
F 2 "" H 7550 1300 50  0000 C CNN
F 3 "" H 7550 1300 50  0000 C CNN
	1    7550 1300
	1    0    0    -1  
$EndComp
$Comp
L C C2
U 1 1 5B5DC159
P 9100 1800
F 0 "C2" H 9125 1900 50  0000 L CNN
F 1 "2.2nF" H 9125 1700 50  0000 L CNN
F 2 "Capacitors_SMD:C_1206_HandSoldering" H 9138 1650 50  0001 C CNN
F 3 "" H 9100 1800 50  0000 C CNN
	1    9100 1800
	0    1    1    0   
$EndComp
$Comp
L C C3
U 1 1 5B5DC246
P 9250 2150
F 0 "C3" H 9275 2250 50  0000 L CNN
F 1 "0.1uF" H 9275 2050 50  0000 L CNN
F 2 "Capacitors_SMD:C_1206_HandSoldering" H 9288 2000 50  0001 C CNN
F 3 "" H 9250 2150 50  0000 C CNN
	1    9250 2150
	0    1    1    0   
$EndComp
$Comp
L GND #PWR8
U 1 1 5B5DC3BE
P 7600 1100
F 0 "#PWR8" H 7600 850 50  0001 C CNN
F 1 "GND" H 7600 950 50  0000 C CNN
F 2 "" H 7600 1100 50  0000 C CNN
F 3 "" H 7600 1100 50  0000 C CNN
	1    7600 1100
	0    1    1    0   
$EndComp
$Comp
L GND #PWR13
U 1 1 5B5DC432
P 7600 1600
F 0 "#PWR13" H 7600 1350 50  0001 C CNN
F 1 "GND" H 7600 1450 50  0000 C CNN
F 2 "" H 7600 1600 50  0000 C CNN
F 3 "" H 7600 1600 50  0000 C CNN
	1    7600 1600
	0    1    1    0   
$EndComp
$Comp
L +3.3V #PWR12
U 1 1 5B5DC5CA
P 7250 1500
F 0 "#PWR12" H 7250 1350 50  0001 C CNN
F 1 "+3.3V" H 7250 1640 50  0000 C CNN
F 2 "" H 7250 1500 50  0000 C CNN
F 3 "" H 7250 1500 50  0000 C CNN
	1    7250 1500
	1    0    0    -1  
$EndComp
$Comp
L +3.3V #PWR22
U 1 1 5B5DC6E3
P 7250 2300
F 0 "#PWR22" H 7250 2150 50  0001 C CNN
F 1 "+3.3V" H 7250 2440 50  0000 C CNN
F 2 "" H 7250 2300 50  0000 C CNN
F 3 "" H 7250 2300 50  0000 C CNN
	1    7250 2300
	-1   0    0    1   
$EndComp
$Comp
L R R2
U 1 1 5B5DC7F1
P 7250 1650
F 0 "R2" V 7330 1650 50  0000 C CNN
F 1 "10k" V 7250 1650 50  0000 C CNN
F 2 "Resistors_SMD:R_1206_HandSoldering" V 7180 1650 50  0001 C CNN
F 3 "" H 7250 1650 50  0000 C CNN
	1    7250 1650
	1    0    0    -1  
$EndComp
$Comp
L R R6
U 1 1 5B5DC905
P 7250 2150
F 0 "R6" V 7330 2150 50  0000 C CNN
F 1 "10k" V 7250 2150 50  0000 C CNN
F 2 "Resistors_SMD:R_1206_HandSoldering" V 7180 2150 50  0001 C CNN
F 3 "" H 7250 2150 50  0000 C CNN
	1    7250 2150
	1    0    0    -1  
$EndComp
$Comp
L +3.3V #PWR6
U 1 1 5B5DCD12
P 8850 950
F 0 "#PWR6" H 8850 800 50  0001 C CNN
F 1 "+3.3V" H 8850 1090 50  0000 C CNN
F 2 "" H 8850 950 50  0000 C CNN
F 3 "" H 8850 950 50  0000 C CNN
	1    8850 950 
	-1   0    0    1   
$EndComp
$Comp
L GND #PWR15
U 1 1 5B5DD171
P 9250 1800
F 0 "#PWR15" H 9250 1550 50  0001 C CNN
F 1 "GND" H 9250 1650 50  0000 C CNN
F 2 "" H 9250 1800 50  0000 C CNN
F 3 "" H 9250 1800 50  0000 C CNN
	1    9250 1800
	0    -1   -1   0   
$EndComp
$Comp
L GND #PWR20
U 1 1 5B5DD1E9
P 9400 2150
F 0 "#PWR20" H 9400 1900 50  0001 C CNN
F 1 "GND" H 9400 2000 50  0000 C CNN
F 2 "" H 9400 2150 50  0000 C CNN
F 3 "" H 9400 2150 50  0000 C CNN
	1    9400 2150
	0    -1   -1   0   
$EndComp
NoConn ~ 8800 1600
NoConn ~ 8800 1500
NoConn ~ 7600 1200
NoConn ~ 7600 2100
NoConn ~ 8800 1400
NoConn ~ 8800 1300
Text Notes 8950 1300 0    60   ~ 0
Interrupt (MPU6050's output)
$Comp
L D D1
U 1 1 5B5DE4E1
P 7400 3400
F 0 "D1" H 7400 3500 50  0000 C CNN
F 1 "1N4937" H 7400 3300 50  0000 C CNN
F 2 "Diodes_SMD:D_SMA_Handsoldering" H 7400 3400 50  0001 C CNN
F 3 "" H 7400 3400 50  0000 C CNN
	1    7400 3400
	1    0    0    -1  
$EndComp
$Comp
L GND #PWR41
U 1 1 5B5DED51
P 8000 3900
F 0 "#PWR41" H 8000 3650 50  0001 C CNN
F 1 "GND" H 8000 3750 50  0000 C CNN
F 2 "" H 8000 3900 50  0000 C CNN
F 3 "" H 8000 3900 50  0000 C CNN
	1    8000 3900
	0    -1   -1   0   
$EndComp
$Comp
L C C4
U 1 1 5B5DEDCB
P 7400 3100
F 0 "C4" H 7425 3200 50  0000 L CNN
F 1 "0.1uF" H 7425 3000 50  0000 L CNN
F 2 "Capacitors_SMD:C_1206_HandSoldering" H 7438 2950 50  0001 C CNN
F 3 "" H 7400 3100 50  0000 C CNN
	1    7400 3100
	0    1    1    0   
$EndComp
$Comp
L D D7
U 1 1 5B5DF2A8
P 8550 5900
F 0 "D7" H 8550 6000 50  0000 C CNN
F 1 "1N4937" H 8550 5800 50  0000 C CNN
F 2 "Diodes_SMD:D_SMA_Handsoldering" H 8550 5900 50  0001 C CNN
F 3 "" H 8550 5900 50  0000 C CNN
	1    8550 5900
	-1   0    0    1   
$EndComp
$Comp
L C C8
U 1 1 5B5DF46F
P 8550 6150
F 0 "C8" H 8575 6250 50  0000 L CNN
F 1 "0.1uF" H 8575 6050 50  0000 L CNN
F 2 "Capacitors_SMD:C_1206_HandSoldering" H 8588 6000 50  0001 C CNN
F 3 "" H 8550 6150 50  0000 C CNN
	1    8550 6150
	0    1    1    0   
$EndComp
$Comp
L GND #PWR59
U 1 1 5B5DF6DD
P 7850 5400
F 0 "#PWR59" H 7850 5150 50  0001 C CNN
F 1 "GND" H 7850 5250 50  0000 C CNN
F 2 "" H 7850 5400 50  0000 C CNN
F 3 "" H 7850 5400 50  0000 C CNN
	1    7850 5400
	0    1    1    0   
$EndComp
NoConn ~ 7850 5100
$Comp
L D D5
U 1 1 5B5DFBEF
P 10300 5500
F 0 "D5" H 10300 5600 50  0000 C CNN
F 1 "1N4937" H 10300 5400 50  0000 C CNN
F 2 "Diodes_SMD:D_SMA_Handsoldering" H 10300 5500 50  0001 C CNN
F 3 "" H 10300 5500 50  0000 C CNN
	1    10300 5500
	0    -1   -1   0   
$EndComp
$Comp
L C C6
U 1 1 5B5DFC7E
P 10000 5500
F 0 "C6" H 10025 5600 50  0000 L CNN
F 1 "0.1uF" H 10025 5400 50  0000 L CNN
F 2 "Capacitors_SMD:C_1206_HandSoldering" H 10038 5350 50  0001 C CNN
F 3 "" H 10000 5500 50  0000 C CNN
	1    10000 5500
	1    0    0    -1  
$EndComp
$Comp
L GND #PWR50
U 1 1 5B5E01FE
P 10500 4800
F 0 "#PWR50" H 10500 4550 50  0001 C CNN
F 1 "GND" H 10500 4650 50  0000 C CNN
F 2 "" H 10500 4800 50  0000 C CNN
F 3 "" H 10500 4800 50  0000 C CNN
	1    10500 4800
	-1   0    0    1   
$EndComp
$Comp
L GND #PWR45
U 1 1 5B5E0282
P 10500 4400
F 0 "#PWR45" H 10500 4150 50  0001 C CNN
F 1 "GND" H 10500 4250 50  0000 C CNN
F 2 "" H 10500 4400 50  0000 C CNN
F 3 "" H 10500 4400 50  0000 C CNN
	1    10500 4400
	1    0    0    -1  
$EndComp
$Comp
L D D2
U 1 1 5B5E09B4
P 10300 3800
F 0 "D2" H 10300 3900 50  0000 C CNN
F 1 "1N4937" H 10300 3700 50  0000 C CNN
F 2 "Diodes_SMD:D_SMA_Handsoldering" H 10300 3800 50  0001 C CNN
F 3 "" H 10300 3800 50  0000 C CNN
	1    10300 3800
	0    1    1    0   
$EndComp
$Comp
L C C5
U 1 1 5B5E0A3F
P 10000 3800
F 0 "C5" H 10025 3900 50  0000 L CNN
F 1 "0.1uF" H 10025 3700 50  0000 L CNN
F 2 "Capacitors_SMD:C_1206_HandSoldering" H 10038 3650 50  0001 C CNN
F 3 "" H 10000 3800 50  0000 C CNN
	1    10000 3800
	1    0    0    -1  
$EndComp
$Comp
L TPS73633DBV U5
U 1 1 5B5FB803
P 5350 6000
F 0 "U5" H 5350 6200 60  0000 C CNN
F 1 "TPS73633DBV" H 5450 5750 60  0000 C CNN
F 2 "TO_SOT_Packages_SMD:SOT-23-5_HandSoldering" H 5350 6000 60  0001 C CNN
F 3 "" H 5350 6000 60  0001 C CNN
	1    5350 6000
	1    0    0    -1  
$EndComp
$Comp
L +BATT #PWR51
U 1 1 5B5FB8B4
P 1050 4900
F 0 "#PWR51" H 1050 4750 50  0001 C CNN
F 1 "+BATT" H 1050 5040 50  0000 C CNN
F 2 "" H 1050 4900 50  0000 C CNN
F 3 "" H 1050 4900 50  0000 C CNN
	1    1050 4900
	1    0    0    -1  
$EndComp
$Comp
L GND #PWR57
U 1 1 5B5FBD33
P 6850 5200
F 0 "#PWR57" H 6850 4950 50  0001 C CNN
F 1 "GND" H 6850 5050 50  0000 C CNN
F 2 "" H 6850 5200 50  0000 C CNN
F 3 "" H 6850 5200 50  0000 C CNN
	1    6850 5200
	1    0    0    -1  
$EndComp
$Comp
L +3.3V #PWR43
U 1 1 5B5FBF95
P 6850 4100
F 0 "#PWR43" H 6850 3950 50  0001 C CNN
F 1 "+3.3V" H 6850 4240 50  0000 C CNN
F 2 "" H 6850 4100 50  0000 C CNN
F 3 "" H 6850 4100 50  0000 C CNN
	1    6850 4100
	1    0    0    -1  
$EndComp
$Comp
L +BATT #PWR65
U 1 1 5B5FC359
P 4150 5950
F 0 "#PWR65" H 4150 5800 50  0001 C CNN
F 1 "+BATT" H 4150 6090 50  0000 C CNN
F 2 "" H 4150 5950 50  0000 C CNN
F 3 "" H 4150 5950 50  0000 C CNN
	1    4150 5950
	1    0    0    -1  
$EndComp
$Comp
L GND #PWR66
U 1 1 5B5FC3E3
P 4950 5950
F 0 "#PWR66" H 4950 5700 50  0001 C CNN
F 1 "GND" H 4950 5800 50  0000 C CNN
F 2 "" H 4950 5950 50  0000 C CNN
F 3 "" H 4950 5950 50  0000 C CNN
	1    4950 5950
	0    1    1    0   
$EndComp
$Comp
L SW_SPST SW4
U 1 1 5B5FC46D
P 4450 5950
F 0 "SW4" H 4450 6075 50  0000 C CNN
F 1 "SW_SPST" H 4450 5850 50  0000 C CNN
F 2 "Buttons_Switches_SMD:SW_SPDT_PCM12" H 4450 5950 50  0001 C CNN
F 3 "" H 4450 5950 50  0000 C CNN
	1    4450 5950
	1    0    0    -1  
$EndComp
$Comp
L C C7
U 1 1 5B5FC97A
P 6050 6150
F 0 "C7" H 6075 6250 50  0000 L CNN
F 1 "0.1uF" H 6075 6050 50  0000 L CNN
F 2 "Capacitors_SMD:C_1206_HandSoldering" H 6088 6000 50  0001 C CNN
F 3 "" H 6050 6150 50  0000 C CNN
	1    6050 6150
	1    0    0    -1  
$EndComp
$Comp
L GND #PWR70
U 1 1 5B5FCA11
P 6050 6300
F 0 "#PWR70" H 6050 6050 50  0001 C CNN
F 1 "GND" H 6050 6150 50  0000 C CNN
F 2 "" H 6050 6300 50  0000 C CNN
F 3 "" H 6050 6300 50  0000 C CNN
	1    6050 6300
	1    0    0    -1  
$EndComp
$Comp
L +3.3V #PWR64
U 1 1 5B5FCC9C
P 5900 5900
F 0 "#PWR64" H 5900 5750 50  0001 C CNN
F 1 "+3.3V" H 5900 6040 50  0000 C CNN
F 2 "" H 5900 5900 50  0000 C CNN
F 3 "" H 5900 5900 50  0000 C CNN
	1    5900 5900
	1    0    0    -1  
$EndComp
$Comp
L GND #PWR58
U 1 1 5B5FCD67
P 4850 5250
F 0 "#PWR58" H 4850 5000 50  0001 C CNN
F 1 "GND" H 4850 5100 50  0000 C CNN
F 2 "" H 4850 5250 50  0000 C CNN
F 3 "" H 4850 5250 50  0000 C CNN
	1    4850 5250
	-1   0    0    1   
$EndComp
$Comp
L R R19
U 1 1 5B5FCEB6
P 4850 5700
F 0 "R19" V 4930 5700 50  0000 C CNN
F 1 "1k" V 4850 5700 50  0000 C CNN
F 2 "Resistors_SMD:R_1206_HandSoldering" V 4780 5700 50  0001 C CNN
F 3 "" H 4850 5700 50  0000 C CNN
	1    4850 5700
	1    0    0    -1  
$EndComp
$Comp
L R R18
U 1 1 5B5FCF47
P 4850 5400
F 0 "R18" V 4930 5400 50  0000 C CNN
F 1 "1333" V 4850 5400 50  0000 C CNN
F 2 "Resistors_SMD:R_1206_HandSoldering" V 4780 5400 50  0001 C CNN
F 3 "" H 4850 5400 50  0000 C CNN
	1    4850 5400
	1    0    0    -1  
$EndComp
Text Label 5050 5550 0    60   ~ 0
batt_level
$Comp
L TP4056 IC1
U 1 1 5B5FD6E3
P 1150 5850
F 0 "IC1" H 2400 6150 50  0000 L CNN
F 1 "TP4056" H 2400 6050 50  0000 L CNN
F 2 "Housings_SOIC:SOIC-8-1EP_3.9x4.9mm_Pitch1.27mm" H 2400 5950 50  0001 L CNN
F 3 "https://dlnmh9ip6v2uc.cloudfront.net/datasheets/Prototyping/TP4056.pdf" H 2400 5850 50  0001 L CNN
F 4 "1A Standalone Linear Li-lon Battery Charger, SOP-8" H 2400 5750 50  0001 L CNN "Description"
F 5 "1.75" H 2400 5650 50  0001 L CNN "Height"
F 6 "NanJing Top Power" H 2400 5550 50  0001 L CNN "Manufacturer_Name"
F 7 "TP4056" H 2400 5450 50  0001 L CNN "Manufacturer_Part_Number"
F 8 "" H 2400 5350 50  0001 L CNN "RS Part Number"
F 9 "" H 2400 5250 50  0001 L CNN "RS Price/Stock"
F 10 "TP4056" H 2400 5150 50  0001 L CNN "Arrow Part Number"
F 11 "" H 2400 5050 50  0001 L CNN "Arrow Price/Stock"
	1    1150 5850
	1    0    0    -1  
$EndComp
Text Label 1150 5850 2    60   ~ 0
-BATT
$Comp
L R R21
U 1 1 5B5FDAC3
P 1000 5950
F 0 "R21" V 1080 5950 50  0000 C CNN
F 1 "1333" V 1000 5950 50  0000 C CNN
F 2 "Resistors_SMD:R_1206_HandSoldering" V 930 5950 50  0001 C CNN
F 3 "" H 1000 5950 50  0000 C CNN
	1    1000 5950
	0    1    1    0   
$EndComp
$Comp
L LED D6
U 1 1 5B5FDB5E
P 3100 5850
F 0 "D6" H 3100 5950 50  0000 C CNN
F 1 "LED" H 3100 5750 50  0000 C CNN
F 2 "LEDs:LED_0805_HandSoldering" H 3100 5850 50  0001 C CNN
F 3 "" H 3100 5850 50  0000 C CNN
	1    3100 5850
	1    0    0    -1  
$EndComp
$Comp
L LED D8
U 1 1 5B5FDBFF
P 3100 6150
F 0 "D8" H 3100 6250 50  0000 C CNN
F 1 "LED" H 3100 6050 50  0000 C CNN
F 2 "LEDs:LED_0805_HandSoldering" H 3100 6150 50  0001 C CNN
F 3 "" H 3100 6150 50  0000 C CNN
	1    3100 6150
	1    0    0    -1  
$EndComp
$Comp
L R R20
U 1 1 5B5FDE56
P 3400 5850
F 0 "R20" V 3480 5850 50  0000 C CNN
F 1 "220" V 3400 5850 50  0000 C CNN
F 2 "Resistors_SMD:R_1206_HandSoldering" V 3330 5850 50  0001 C CNN
F 3 "" H 3400 5850 50  0000 C CNN
	1    3400 5850
	0    1    1    0   
$EndComp
$Comp
L R R22
U 1 1 5B5FDEFB
P 3400 6150
F 0 "R22" V 3480 6150 50  0000 C CNN
F 1 "220" V 3400 6150 50  0000 C CNN
F 2 "Resistors_SMD:R_1206_HandSoldering" V 3330 6150 50  0001 C CNN
F 3 "" H 3400 6150 50  0000 C CNN
	1    3400 6150
	0    1    1    0   
$EndComp
Text Label 850  5950 2    60   ~ 0
-BATT
$Comp
L +BATT #PWR68
U 1 1 5B5FE48C
P 2550 6150
F 0 "#PWR68" H 2550 6000 50  0001 C CNN
F 1 "+BATT" H 2550 6290 50  0000 C CNN
F 2 "" H 2550 6150 50  0000 C CNN
F 3 "" H 2550 6150 50  0000 C CNN
	1    2550 6150
	-1   0    0    1   
$EndComp
$Comp
L +5V #PWR67
U 1 1 5B5FE52A
P 1150 6150
F 0 "#PWR67" H 1150 6000 50  0001 C CNN
F 1 "+5V" H 1150 6290 50  0000 C CNN
F 2 "" H 1150 6150 50  0000 C CNN
F 3 "" H 1150 6150 50  0000 C CNN
	1    1150 6150
	-1   0    0    1   
$EndComp
$Comp
L +5V #PWR63
U 1 1 5B5FE8CD
P 3550 5850
F 0 "#PWR63" H 3550 5700 50  0001 C CNN
F 1 "+5V" H 3550 5990 50  0000 C CNN
F 2 "" H 3550 5850 50  0000 C CNN
F 3 "" H 3550 5850 50  0000 C CNN
	1    3550 5850
	0    1    1    0   
$EndComp
$Comp
L +5V #PWR69
U 1 1 5B5FE96B
P 3550 6150
F 0 "#PWR69" H 3550 6000 50  0001 C CNN
F 1 "+5V" H 3550 6290 50  0000 C CNN
F 2 "" H 3550 6150 50  0000 C CNN
F 3 "" H 3550 6150 50  0000 C CNN
	1    3550 6150
	0    1    1    0   
$EndComp
$Comp
L +5V #PWR62
U 1 1 5B5FEA09
P 2550 5850
F 0 "#PWR62" H 2550 5700 50  0001 C CNN
F 1 "+5V" H 2550 5990 50  0000 C CNN
F 2 "" H 2550 5850 50  0000 C CNN
F 3 "" H 2550 5850 50  0000 C CNN
	1    2550 5850
	1    0    0    -1  
$EndComp
$Comp
L +5V #PWR72
U 1 1 5B5FEE01
P 1550 7200
F 0 "#PWR72" H 1550 7050 50  0001 C CNN
F 1 "+5V" H 1550 7340 50  0000 C CNN
F 2 "" H 1550 7200 50  0000 C CNN
F 3 "" H 1550 7200 50  0000 C CNN
	1    1550 7200
	1    0    0    -1  
$EndComp
$Comp
L GND #PWR71
U 1 1 5B5FEE9F
P 1150 7200
F 0 "#PWR71" H 1150 6950 50  0001 C CNN
F 1 "GND" H 1150 7050 50  0000 C CNN
F 2 "" H 1150 7200 50  0000 C CNN
F 3 "" H 1150 7200 50  0000 C CNN
	1    1150 7200
	-1   0    0    1   
$EndComp
$Comp
L 8205 U6
U 1 1 5B5FF0BC
P 2750 7300
F 0 "U6" H 2750 7300 60  0000 C CNN
F 1 "8205" H 2750 7600 60  0000 C CNN
F 2 "Housings_SSOP:TSSOP-8_4.4x3mm_Pitch0.65mm" H 2750 7300 60  0001 C CNN
F 3 "" H 2750 7300 60  0001 C CNN
	1    2750 7300
	1    0    0    -1  
$EndComp
$Comp
L dw01 U7
U 1 1 5B5FF38B
P 4400 7350
F 0 "U7" H 4400 7600 60  0000 C CNN
F 1 "dw01" H 4400 7200 60  0000 C CNN
F 2 "TO_SOT_Packages_SMD:SOT-23-6_Handsoldering" H 4400 7350 60  0001 C CNN
F 3 "" H 4400 7350 60  0001 C CNN
	1    4400 7350
	1    0    0    -1  
$EndComp
$Comp
L R R23
U 1 1 5B5FF430
P 3550 7300
F 0 "R23" V 3630 7300 50  0000 C CNN
F 1 "1k" V 3550 7300 50  0000 C CNN
F 2 "Resistors_SMD:R_1206_HandSoldering" V 3480 7300 50  0001 C CNN
F 3 "" H 3550 7300 50  0000 C CNN
	1    3550 7300
	0    1    1    0   
$EndComp
$Comp
L GND #PWR73
U 1 1 5B5FF9AB
P 3350 7300
F 0 "#PWR73" H 3350 7050 50  0001 C CNN
F 1 "GND" H 3350 7150 50  0000 C CNN
F 2 "" H 3350 7300 50  0000 C CNN
F 3 "" H 3350 7300 50  0000 C CNN
	1    3350 7300
	-1   0    0    1   
$EndComp
Text Label 2150 7300 2    60   ~ 0
-BATT
Text Label 5050 7000 0    60   ~ 0
-BATT
$Comp
L R R24
U 1 1 5B600053
P 5500 7300
F 0 "R24" V 5580 7300 50  0000 C CNN
F 1 "100" V 5500 7300 50  0000 C CNN
F 2 "Resistors_SMD:R_1206_HandSoldering" V 5430 7300 50  0001 C CNN
F 3 "" H 5500 7300 50  0000 C CNN
	1    5500 7300
	0    1    1    0   
$EndComp
$Comp
L +BATT #PWR74
U 1 1 5B600193
P 5800 7300
F 0 "#PWR74" H 5800 7150 50  0001 C CNN
F 1 "+BATT" H 5800 7440 50  0000 C CNN
F 2 "" H 5800 7300 50  0000 C CNN
F 3 "" H 5800 7300 50  0000 C CNN
	1    5800 7300
	1    0    0    -1  
$EndComp
NoConn ~ 4800 7400
$Comp
L C C9
U 1 1 5B60065D
P 5050 7150
F 0 "C9" H 5075 7250 50  0000 L CNN
F 1 "0.1uF" H 5075 7050 50  0000 L CNN
F 2 "Capacitors_SMD:C_1206_HandSoldering" H 5088 7000 50  0001 C CNN
F 3 "" H 5050 7150 50  0000 C CNN
	1    5050 7150
	1    0    0    -1  
$EndComp
Text Label 750  4900 2    60   ~ 0
-BATT
$Comp
L GND #PWR75
U 1 1 5B601B59
P 950 7600
F 0 "#PWR75" H 950 7350 50  0001 C CNN
F 1 "GND" H 950 7450 50  0000 C CNN
F 2 "" H 950 7600 50  0000 C CNN
F 3 "" H 950 7600 50  0000 C CNN
	1    950  7600
	0    1    1    0   
$EndComp
NoConn ~ 1250 7200
NoConn ~ 1350 7200
NoConn ~ 1450 7200
$Comp
L CONN_01X02 P7
U 1 1 5B8BA19E
P 6300 1800
F 0 "P7" H 6300 1950 50  0000 C CNN
F 1 "CONN_01X02" V 6400 1800 50  0000 C CNN
F 2 "Pin_Headers:Pin_Header_Straight_1x02_Pitch2.54mm" H 6300 1800 50  0001 C CNN
F 3 "" H 6300 1800 50  0000 C CNN
	1    6300 1800
	-1   0    0    1   
$EndComp
Text Notes 9950 1650 0    60   ~ 0
OK (d'après datasheet)\n
$Comp
L SW_Push SW5
U 1 1 5B8BB755
P 3200 4600
F 0 "SW5" H 3250 4700 50  0000 L CNN
F 1 "SW_Push" H 3200 4540 50  0000 C CNN
F 2 "push_smd:smd_4x4_push" H 3200 4800 50  0001 C CNN
F 3 "" H 3200 4800 50  0000 C CNN
	1    3200 4600
	1    0    0    -1  
$EndComp
$Comp
L +3.3V #PWR48
U 1 1 5B8BB800
P 3400 4600
F 0 "#PWR48" H 3400 4450 50  0001 C CNN
F 1 "+3.3V" H 3400 4740 50  0000 C CNN
F 2 "" H 3400 4600 50  0000 C CNN
F 3 "" H 3400 4600 50  0000 C CNN
	1    3400 4600
	0    1    1    0   
$EndComp
$Comp
L R R25
U 1 1 5B8BB89C
P 3000 4800
F 0 "R25" V 3080 4800 50  0000 C CNN
F 1 "10k" V 3000 4800 50  0000 C CNN
F 2 "Resistors_SMD:R_1206_HandSoldering" V 2930 4800 50  0001 C CNN
F 3 "" H 3000 4800 50  0000 C CNN
	1    3000 4800
	1    0    0    -1  
$EndComp
$Comp
L GND #PWR53
U 1 1 5B8BBA15
P 3000 4950
F 0 "#PWR53" H 3000 4700 50  0001 C CNN
F 1 "GND" H 3000 4800 50  0000 C CNN
F 2 "" H 3000 4950 50  0000 C CNN
F 3 "" H 3000 4950 50  0000 C CNN
	1    3000 4950
	1    0    0    -1  
$EndComp
Wire Wire Line
	6950 1950 7600 1950
Wire Wire Line
	7600 1950 7600 1900
Wire Wire Line
	3150 1250 3150 1150
Wire Wire Line
	3150 1150 3200 1150
Wire Wire Line
	3150 1350 3300 1350
Wire Wire Line
	1350 1050 1350 1250
Wire Wire Line
	1200 1050 1350 1050
Connection ~ 1350 1050
Wire Wire Line
	7850 4300 8200 4300
Wire Wire Line
	8200 4300 8200 4150
Wire Wire Line
	8850 4400 7850 4400
Wire Wire Line
	8850 3900 8850 4400
Wire Wire Line
	7850 4500 10200 4500
Wire Wire Line
	7850 4600 10150 4600
Wire Wire Line
	7850 4700 8600 4700
Wire Wire Line
	8600 4700 8600 4800
Wire Wire Line
	8600 4800 9250 4800
Wire Wire Line
	7850 4800 8200 4800
Wire Wire Line
	8200 4800 8200 4950
Wire Wire Line
	8200 4950 8250 4950
Wire Wire Line
	8500 4150 8600 4150
Wire Wire Line
	8600 4150 8600 4050
Wire Wire Line
	8550 4950 8650 4950
Wire Wire Line
	7850 4900 8000 4900
Wire Wire Line
	8000 4900 8000 5100
Wire Wire Line
	10200 4500 10200 4250
Wire Wire Line
	10150 4950 10200 4950
Wire Wire Line
	10150 4600 10150 4950
Wire Wire Line
	2750 3200 2900 3200
Wire Wire Line
	2900 3200 2900 3850
Wire Wire Line
	2900 3850 2800 3850
Wire Wire Line
	2800 3950 3550 3950
Wire Wire Line
	3550 3950 3550 3200
Wire Wire Line
	3550 3200 3350 3200
Wire Wire Line
	3950 3200 4150 3200
Wire Wire Line
	4150 3200 4150 4050
Wire Wire Line
	4150 4050 2800 4050
Wire Wire Line
	2800 4150 4750 4150
Wire Wire Line
	4750 4150 4750 3200
Wire Wire Line
	4750 3200 4550 3200
Wire Wire Line
	5150 3200 5450 3200
Wire Wire Line
	5450 3200 5450 4250
Wire Wire Line
	5450 4250 2800 4250
Wire Wire Line
	2800 4350 3650 4350
Wire Wire Line
	3650 4350 3650 4600
Connection ~ 3650 4500
Wire Wire Line
	4350 700  4450 700 
Wire Wire Line
	3150 1650 4900 1650
Wire Wire Line
	5150 850  5150 1050
Wire Wire Line
	5300 1050 5300 850 
Wire Wire Line
	5300 850  5250 850 
Wire Wire Line
	5450 1100 5450 950 
Wire Wire Line
	5450 950  5350 950 
Wire Wire Line
	5350 950  5350 850 
Wire Wire Line
	5600 1100 5600 950 
Wire Wire Line
	5600 950  5500 950 
Wire Wire Line
	5500 950  5500 850 
Wire Wire Line
	5500 850  5450 850 
Wire Wire Line
	5650 850  5800 850 
Wire Wire Line
	5550 850  5550 900 
Wire Wire Line
	5550 900  5800 900 
Wire Wire Line
	5800 900  5800 1150
Connection ~ 4800 1650
Wire Wire Line
	3150 1750 4400 1750
Connection ~ 4200 1750
Wire Wire Line
	3150 1850 3750 1850
Wire Wire Line
	3400 1850 3400 1900
Connection ~ 3400 1850
Wire Wire Line
	1300 1300 1300 1350
Wire Wire Line
	1300 1350 1350 1350
Wire Wire Line
	6200 4500 6450 4500
Wire Wire Line
	3150 1450 3850 1450
Wire Wire Line
	1050 1750 1350 1750
Wire Wire Line
	7550 1300 7600 1300
Wire Wire Line
	6950 1800 7600 1800
Connection ~ 7250 1800
Wire Wire Line
	7250 1950 7250 2000
Connection ~ 7250 1950
Wire Wire Line
	8850 900  8800 900 
Wire Wire Line
	8850 950  8850 900 
Wire Wire Line
	8800 1800 8950 1800
Wire Wire Line
	8800 1900 8800 2150
Wire Wire Line
	8800 2150 9100 2150
Wire Wire Line
	7600 3900 7500 3900
Wire Wire Line
	7600 3100 7600 3900
Wire Wire Line
	7200 3100 7200 3900
Wire Wire Line
	7200 3900 7400 3900
Connection ~ 7600 3900
Connection ~ 7200 3900
Wire Wire Line
	7600 3400 7550 3400
Wire Wire Line
	7200 3400 7250 3400
Wire Wire Line
	7550 3100 7600 3100
Connection ~ 7600 3400
Wire Wire Line
	7200 3100 7250 3100
Connection ~ 7200 3400
Wire Wire Line
	8250 5400 8500 5400
Wire Wire Line
	8600 5400 8900 5400
Wire Wire Line
	8700 5900 8750 5900
Wire Wire Line
	8750 5400 8750 6150
Connection ~ 8750 5400
Wire Wire Line
	8400 5900 8350 5900
Wire Wire Line
	8350 5400 8350 6150
Connection ~ 8350 5400
Wire Wire Line
	8750 6150 8700 6150
Connection ~ 8750 5900
Wire Wire Line
	8350 6150 8400 6150
Connection ~ 8350 5900
Wire Wire Line
	10500 5200 10500 5400
Wire Wire Line
	10000 5350 10500 5350
Connection ~ 10300 5350
Wire Wire Line
	10000 5650 10500 5650
Wire Wire Line
	10500 5500 10500 5750
Connection ~ 10500 5350
Connection ~ 10500 5650
Wire Wire Line
	10500 3850 10500 4000
Wire Wire Line
	10000 3950 10500 3950
Connection ~ 10500 3950
Connection ~ 10300 3950
Wire Wire Line
	10000 3650 10500 3650
Wire Wire Line
	10500 3600 10500 3750
Connection ~ 10300 3650
Connection ~ 10500 3650
Wire Wire Line
	4650 5850 4950 5850
Wire Wire Line
	4650 5850 4650 6050
Wire Wire Line
	4650 6050 4950 6050
Connection ~ 4650 5950
Wire Wire Line
	4150 5950 4250 5950
Wire Wire Line
	5900 6000 6050 6000
Connection ~ 4850 5850
Wire Wire Line
	4850 5550 5050 5550
Wire Wire Line
	800  6100 1150 6100
Wire Wire Line
	1150 6100 1150 6050
Wire Wire Line
	2550 6050 2950 6050
Wire Wire Line
	2950 6050 2950 6150
Wire Wire Line
	2950 5850 2950 5950
Wire Wire Line
	2950 5950 2550 5950
Wire Wire Line
	3700 7300 4000 7300
Wire Wire Line
	3200 7250 3200 7350
Wire Wire Line
	3200 7300 3400 7300
Connection ~ 3200 7300
Wire Wire Line
	3200 7450 4000 7450
Wire Wire Line
	4000 7450 4000 7400
Wire Wire Line
	2300 7150 2300 6950
Wire Wire Line
	2300 6950 3200 6950
Wire Wire Line
	3200 6950 3200 7150
Wire Wire Line
	2300 7250 2300 7350
Wire Wire Line
	2300 7300 2150 7300
Connection ~ 2300 7300
Wire Wire Line
	2300 7450 2300 7600
Wire Wire Line
	2300 7600 3850 7600
Wire Wire Line
	3850 7600 3850 7200
Wire Wire Line
	3850 7200 4000 7200
Wire Wire Line
	4800 7300 5350 7300
Wire Wire Line
	5650 7300 5800 7300
Wire Wire Line
	4800 7200 4800 7000
Wire Wire Line
	4800 7000 5050 7000
Connection ~ 5050 7300
Connection ~ 10300 5650
Wire Wire Line
	6500 1750 6550 1750
Wire Wire Line
	6550 1750 6550 1700
Wire Wire Line
	6550 1700 7000 1700
Wire Wire Line
	7000 1700 7000 1800
Connection ~ 7000 1800
Wire Wire Line
	7050 1950 7050 2050
Wire Wire Line
	7050 2050 6650 2050
Wire Wire Line
	6650 2050 6650 1850
Wire Wire Line
	6650 1850 6500 1850
Connection ~ 7050 1950
Wire Wire Line
	3000 4450 3000 4650
Connection ~ 3000 4600
Wire Wire Line
	2800 4450 3000 4450
Wire Wire Line
	2800 4750 2850 4750
Wire Wire Line
	2850 4750 2850 4550
Wire Wire Line
	2850 4550 2800 4550
Text Notes 4200 4750 0    60   ~ 0
OK (d'après datasheet)\n
$Comp
L +BATT #PWR61
U 1 1 5B8BE107
P 10500 5750
F 0 "#PWR61" H 10500 5600 50  0001 C CNN
F 1 "+BATT" H 10500 5890 50  0000 C CNN
F 2 "" H 10500 5750 50  0000 C CNN
F 3 "" H 10500 5750 50  0000 C CNN
	1    10500 5750
	-1   0    0    1   
$EndComp
$Comp
L +BATT #PWR60
U 1 1 5B8BE1EB
P 8900 5400
F 0 "#PWR60" H 8900 5250 50  0001 C CNN
F 1 "+BATT" H 8900 5540 50  0000 C CNN
F 2 "" H 8900 5400 50  0000 C CNN
F 3 "" H 8900 5400 50  0000 C CNN
	1    8900 5400
	1    0    0    -1  
$EndComp
$Comp
L +BATT #PWR39
U 1 1 5B8BE359
P 10500 3600
F 0 "#PWR39" H 10500 3450 50  0001 C CNN
F 1 "+BATT" H 10500 3740 50  0000 C CNN
F 2 "" H 10500 3600 50  0000 C CNN
F 3 "" H 10500 3600 50  0000 C CNN
	1    10500 3600
	1    0    0    -1  
$EndComp
$Comp
L +BATT #PWR40
U 1 1 5B8BE4C7
P 7200 3900
F 0 "#PWR40" H 7200 3750 50  0001 C CNN
F 1 "+BATT" H 7200 4040 50  0000 C CNN
F 2 "" H 7200 3900 50  0000 C CNN
F 3 "" H 7200 3900 50  0000 C CNN
	1    7200 3900
	0    -1   -1   0   
$EndComp
Connection ~ 3350 7300
Text Label 800  6100 2    60   ~ 0
-BATT
Text Label 1850 6650 3    60   ~ 0
-BATT
Text Notes 3200 6600 0    60   ~ 0
OK (d'après datasheet)
Text Notes 8950 5900 0    60   ~ 0
OK (d'après datasheet)
Text Notes 550  3050 0    60   ~ 0
GPIO12\nGPIO4\nGPIO5\nGPIO2\nGPIO15\nGPIO14\nGPIO13\nGPIO16\n OK
Text Notes 1050 2950 0    60   ~ 0
GPIO6\nGPIO7\nGPIO11\nGPIO8\nGPIO9\nGPIO10\nNot working (connecté à la mémoire flash)
Text Notes 1800 800  0    60   ~ 0
GPIO16: HIGH during reset
Wire Wire Line
	900  1450 1350 1450
NoConn ~ 2000 2450
NoConn ~ 2200 2450
NoConn ~ 2300 2450
Wire Wire Line
	900  1850 1350 1850
Wire Wire Line
	1050 1850 1050 1900
Connection ~ 1050 1850
$Comp
L BSS138 Q5
U 1 1 5B93CEEC
P 8900 3700
F 0 "Q5" H 9100 3775 50  0000 L CNN
F 1 "BSS138" H 9100 3700 50  0000 L CNN
F 2 "TO_SOT_Packages_SMD:SOT-23" H 9100 3625 50  0001 L CIN
F 3 "" H 8900 3700 50  0000 L CNN
	1    8900 3700
	0    -1   -1   0   
$EndComp
$Comp
L +3.3V #PWR37
U 1 1 5B93D433
P 8200 3600
F 0 "#PWR37" H 8200 3450 50  0001 C CNN
F 1 "+3.3V" H 8200 3740 50  0000 C CNN
F 2 "" H 8200 3600 50  0000 C CNN
F 3 "" H 8200 3600 50  0000 C CNN
	1    8200 3600
	0    -1   -1   0   
$EndComp
Wire Wire Line
	8850 3900 8950 3900
$Comp
L BSS138 Q6
U 1 1 5B93D774
P 9300 5000
F 0 "Q6" H 9500 5075 50  0000 L CNN
F 1 "BSS138" H 9500 5000 50  0000 L CNN
F 2 "TO_SOT_Packages_SMD:SOT-23" H 9500 4925 50  0001 L CIN
F 3 "" H 9300 5000 50  0000 L CNN
	1    9300 5000
	0    1    1    0   
$EndComp
$Comp
L +3.3V #PWR56
U 1 1 5B93DD0B
P 10000 5100
F 0 "#PWR56" H 10000 4950 50  0001 C CNN
F 1 "+3.3V" H 10000 5240 50  0000 C CNN
F 2 "" H 10000 5100 50  0000 C CNN
F 3 "" H 10000 5100 50  0000 C CNN
	1    10000 5100
	0    1    1    0   
$EndComp
$EndSCHEMATC
