EESchema Schematic File Version 2
LIBS:power
LIBS:device
LIBS:transistors
LIBS:conn
LIBS:linear
LIBS:regul
LIBS:74xx
LIBS:cmos4000
LIBS:adc-dac
LIBS:memory
LIBS:xilinx
LIBS:microcontrollers
LIBS:dsp
LIBS:microchip
LIBS:analog_switches
LIBS:motorola
LIBS:texas
LIBS:intel
LIBS:audio
LIBS:interface
LIBS:digital-audio
LIBS:philips
LIBS:display
LIBS:cypress
LIBS:siliconi
LIBS:opto
LIBS:atmel
LIBS:contrib
LIBS:valves
LIBS:ESP32-footprints-Shem-Lib
LIBS:tp4056
LIBS:tft_14pin
LIBS:dc_motor
LIBS:touch
LIBS:8205
LIBS:dw01
LIBS:switches
LIBS:74HC165
LIBS:tps73633dbv
LIBS:switch
LIBS:ft232rl
LIBS:maug-cache
EELAYER 25 0
EELAYER END
$Descr A4 11693 8268
encoding utf-8
Sheet 1 1
Title ""
Date ""
Rev ""
Comp ""
Comment1 ""
Comment2 ""
Comment3 ""
Comment4 ""
$EndDescr
$Comp
L ESP-32S U3
U 1 1 59F495F1
P 6900 1900
F 0 "U3" H 6200 3150 60  0000 C CNN
F 1 "ESP-32S" H 7400 3150 60  0000 C CNN
F 2 "ESP32-footprints-Lib:ESP32-WROOM" H 7250 3250 60  0001 C CNN
F 3 "" H 6450 2350 60  0001 C CNN
	1    6900 1900
	1    0    0    -1  
$EndComp
$Comp
L GND #PWR01
U 1 1 59F4966F
P 7800 1150
F 0 "#PWR01" H 7800 900 50  0001 C CNN
F 1 "GND" H 7800 1000 50  0000 C CNN
F 2 "" H 7800 1150 50  0000 C CNN
F 3 "" H 7800 1150 50  0000 C CNN
	1    7800 1150
	-1   0    0    1   
$EndComp
$Comp
L GND #PWR02
U 1 1 59F49685
P 7800 1250
F 0 "#PWR02" H 7800 1000 50  0001 C CNN
F 1 "GND" H 7800 1100 50  0000 C CNN
F 2 "" H 7800 1250 50  0000 C CNN
F 3 "" H 7800 1250 50  0000 C CNN
	1    7800 1250
	0    -1   -1   0   
$EndComp
$Comp
L GND #PWR03
U 1 1 59F4969B
P 5700 1050
F 0 "#PWR03" H 5700 800 50  0001 C CNN
F 1 "GND" H 5700 900 50  0000 C CNN
F 2 "" H 5700 1050 50  0000 C CNN
F 3 "" H 5700 1050 50  0000 C CNN
	1    5700 1050
	0    1    1    0   
$EndComp
$Comp
L +3.3V #PWR04
U 1 1 59F496B1
P 5600 1250
F 0 "#PWR04" H 5600 1100 50  0001 C CNN
F 1 "+3.3V" H 5600 1390 50  0000 C CNN
F 2 "" H 5600 1250 50  0000 C CNN
F 3 "" H 5600 1250 50  0000 C CNN
	1    5600 1250
	0    -1   -1   0   
$EndComp
$Comp
L GND #PWR05
U 1 1 59F496DC
P 6450 2950
F 0 "#PWR05" H 6450 2700 50  0001 C CNN
F 1 "GND" H 6450 2800 50  0000 C CNN
F 2 "" H 6450 2950 50  0000 C CNN
F 3 "" H 6450 2950 50  0000 C CNN
	1    6450 2950
	0    1    1    0   
$EndComp
$Comp
L tft_display U7
U 1 1 59FB0963
P 9700 3550
F 0 "U7" H 10000 3650 60  0000 C CNN
F 1 "tft_display" H 9500 3600 60  0000 C CNN
F 2 "tft:tft_14" H 9700 3550 60  0001 C CNN
F 3 "" H 9700 3550 60  0001 C CNN
	1    9700 3550
	1    0    0    -1  
$EndComp
$Comp
L +3.3V #PWR06
U 1 1 59FB0A02
P 10100 4150
F 0 "#PWR06" H 10100 4000 50  0001 C CNN
F 1 "+3.3V" H 10100 4290 50  0000 C CNN
F 2 "" H 10100 4150 50  0000 C CNN
F 3 "" H 10100 4150 50  0000 C CNN
	1    10100 4150
	-1   0    0    1   
$EndComp
$Comp
L GND #PWR07
U 1 1 59FB0B3D
P 10600 4150
F 0 "#PWR07" H 10600 3900 50  0001 C CNN
F 1 "GND" H 10600 4000 50  0000 C CNN
F 2 "" H 10600 4150 50  0000 C CNN
F 3 "" H 10600 4150 50  0000 C CNN
	1    10600 4150
	1    0    0    -1  
$EndComp
$Comp
L GND #PWR08
U 1 1 59FB0BDC
P 9300 4050
F 0 "#PWR08" H 9300 3800 50  0001 C CNN
F 1 "GND" H 9300 3900 50  0000 C CNN
F 2 "" H 9300 4050 50  0000 C CNN
F 3 "" H 9300 4050 50  0000 C CNN
	1    9300 4050
	0    1    1    0   
$EndComp
Text GLabel 9800 4350 3    60   Input ~ 0
MOSI
Text GLabel 9950 4350 3    60   Output ~ 0
MISO
Text GLabel 9650 4350 3    60   Input ~ 0
SS
Text GLabel 9350 4350 3    60   Input ~ 0
SCK
Text GLabel 9500 4350 3    60   Input ~ 0
D/C
Text GLabel 9200 4350 3    60   Input ~ 0
RESETtft
Text GLabel 8000 1350 2    60   Output ~ 0
MOSI
Text GLabel 7950 1950 2    60   Input ~ 0
MISO
Text GLabel 8350 2050 2    60   Output ~ 0
SCK
Text GLabel 7950 2150 2    60   Output ~ 0
SS
Text GLabel 8350 2250 2    60   Output ~ 0
D/C
Text GLabel 7950 2350 2    60   Output ~ 0
RESETtft
Text GLabel 8250 1550 2    60   Output Italic 0
ESP_TX
Text GLabel 7800 1650 2    60   Input Italic 0
ESP_RX
$Comp
L GND #PWR09
U 1 1 59FBF781
P 1450 5900
F 0 "#PWR09" H 1450 5650 50  0001 C CNN
F 1 "GND" H 1450 5750 50  0000 C CNN
F 2 "" H 1450 5900 50  0000 C CNN
F 3 "" H 1450 5900 50  0000 C CNN
	1    1450 5900
	-1   0    0    1   
$EndComp
Text GLabel 1000 6000 0    60   Input Italic 0
ESP_TX
Text GLabel 1450 6100 0    60   Output Italic 0
ESP_RX
$Comp
L SW_Push SW2
U 1 1 59FBFDB7
P 4900 1400
F 0 "SW2" H 4950 1500 50  0000 L CNN
F 1 "RESET" H 4900 1340 50  0000 C CNN
F 2 "push_smd:smd_4x4_push" H 4900 1600 50  0001 C CNN
F 3 "" H 4900 1600 50  0000 C CNN
	1    4900 1400
	1    0    0    -1  
$EndComp
$Comp
L GND #PWR010
U 1 1 59FC024E
P 4700 1400
F 0 "#PWR010" H 4700 1150 50  0001 C CNN
F 1 "GND" H 4700 1250 50  0000 C CNN
F 2 "" H 4700 1400 50  0000 C CNN
F 3 "" H 4700 1400 50  0000 C CNN
	1    4700 1400
	0    1    1    0   
$EndComp
$Comp
L R R3
U 1 1 59FC0302
P 5200 1250
F 0 "R3" V 5280 1250 50  0000 C CNN
F 1 "10k" V 5200 1250 50  0000 C CNN
F 2 "Resistors_SMD:R_1206_HandSoldering" V 5130 1250 50  0001 C CNN
F 3 "" H 5200 1250 50  0000 C CNN
	1    5200 1250
	1    0    0    -1  
$EndComp
$Comp
L SW_Push SW3
U 1 1 59FC09E0
P 8000 3350
F 0 "SW3" H 8050 3450 50  0000 L CNN
F 1 "BOOT" H 8000 3290 50  0000 C CNN
F 2 "push_smd:smd_4x4_push" H 8000 3550 50  0001 C CNN
F 3 "" H 8000 3550 50  0000 C CNN
	1    8000 3350
	0    1    1    0   
$EndComp
$Comp
L GND #PWR011
U 1 1 59FC0A7B
P 8000 3550
F 0 "#PWR011" H 8000 3300 50  0001 C CNN
F 1 "GND" H 8000 3400 50  0000 C CNN
F 2 "" H 8000 3550 50  0000 C CNN
F 3 "" H 8000 3550 50  0000 C CNN
	1    8000 3550
	1    0    0    -1  
$EndComp
$Comp
L +3.3V #PWR012
U 1 1 59FC0DDC
P 5200 1100
F 0 "#PWR012" H 5200 950 50  0001 C CNN
F 1 "+3.3V" H 5200 1240 50  0000 C CNN
F 2 "" H 5200 1100 50  0000 C CNN
F 3 "" H 5200 1100 50  0000 C CNN
	1    5200 1100
	1    0    0    -1  
$EndComp
$Comp
L CONN_01X02 P2
U 1 1 5A2DBE9A
P 6250 7250
F 0 "P2" H 6250 7400 50  0000 C CNN
F 1 "CONN_01X02" V 6350 7250 50  0000 C CNN
F 2 "Pin_Headers:Pin_Header_Straight_1x02_Pitch2.54mm" H 6250 7250 50  0001 C CNN
F 3 "" H 6250 7250 50  0000 C CNN
	1    6250 7250
	0    -1   -1   0   
$EndComp
$Comp
L GND #PWR013
U 1 1 5A2DC07F
P 6300 7450
F 0 "#PWR013" H 6300 7200 50  0001 C CNN
F 1 "GND" H 6300 7300 50  0000 C CNN
F 2 "" H 6300 7450 50  0000 C CNN
F 3 "" H 6300 7450 50  0000 C CNN
	1    6300 7450
	0    -1   -1   0   
$EndComp
$Comp
L +3.3V #PWR014
U 1 1 5A2DC848
P 6200 7450
F 0 "#PWR014" H 6200 7300 50  0001 C CNN
F 1 "+3.3V" H 6200 7590 50  0000 C CNN
F 2 "" H 6200 7450 50  0000 C CNN
F 3 "" H 6200 7450 50  0000 C CNN
	1    6200 7450
	-1   0    0    1   
$EndComp
$Comp
L R R2
U 1 1 5A2DFE38
P 7850 3000
F 0 "R2" V 7930 3000 50  0000 C CNN
F 1 "1k" V 7850 3000 50  0000 C CNN
F 2 "Resistors_SMD:R_1206_HandSoldering" V 7780 3000 50  0001 C CNN
F 3 "" H 7850 3000 50  0000 C CNN
	1    7850 3000
	0    1    1    0   
$EndComp
$Comp
L +3.3V #PWR015
U 1 1 5A2DFF91
P 7700 3000
F 0 "#PWR015" H 7700 2850 50  0001 C CNN
F 1 "+3.3V" H 7700 3140 50  0000 C CNN
F 2 "" H 7700 3000 50  0000 C CNN
F 3 "" H 7700 3000 50  0000 C CNN
	1    7700 3000
	0    -1   -1   0   
$EndComp
NoConn ~ 6650 2950
NoConn ~ 6750 2950
NoConn ~ 6850 2950
NoConn ~ 6950 2950
NoConn ~ 7050 2950
NoConn ~ 7150 2950
$Comp
L USB_OTG P4
U 1 1 5A4EA3BC
P 1350 4200
F 0 "P4" H 1675 4075 50  0000 C CNN
F 1 "USB_OTG" H 1350 4400 50  0000 C CNN
F 2 "Connectors:USB_Micro-B" V 1300 4100 50  0001 C CNN
F 3 "" V 1300 4100 50  0000 C CNN
	1    1350 4200
	0    -1   -1   0   
$EndComp
$Comp
L FT232RL U1
U 1 1 5ACF9092
P 3550 4600
F 0 "U1" H 2800 5800 60  0000 C CNN
F 1 "FT232RL" H 3550 4600 60  0000 C CNN
F 2 "Housings_SSOP:SSOP-28_5.3x10.2mm_Pitch0.65mm" H 3550 4600 60  0001 C CNN
F 3 "" H 3550 4600 60  0001 C CNN
	1    3550 4600
	1    0    0    -1  
$EndComp
$Comp
L GND #PWR016
U 1 1 5ACF95D3
P 3850 6000
F 0 "#PWR016" H 3850 5750 50  0001 C CNN
F 1 "GND" H 3850 5850 50  0000 C CNN
F 2 "" H 3850 6000 50  0000 C CNN
F 3 "" H 3850 6000 50  0000 C CNN
	1    3850 6000
	1    0    0    -1  
$EndComp
Text GLabel 4650 3700 2    60   Output ~ 0
ESP_RX
Text GLabel 4650 3850 2    60   Input ~ 0
ESP_TX
$Comp
L +5V #PWR017
U 1 1 5ACF96F1
P 2450 3850
F 0 "#PWR017" H 2450 3700 50  0001 C CNN
F 1 "+5V" H 2450 3990 50  0000 C CNN
F 2 "" H 2450 3850 50  0000 C CNN
F 3 "" H 2450 3850 50  0000 C CNN
	1    2450 3850
	0    -1   -1   0   
$EndComp
$Comp
L +5V #PWR018
U 1 1 5ACF9747
P 1650 4400
F 0 "#PWR018" H 1650 4250 50  0001 C CNN
F 1 "+5V" H 1650 4540 50  0000 C CNN
F 2 "" H 1650 4400 50  0000 C CNN
F 3 "" H 1650 4400 50  0000 C CNN
	1    1650 4400
	-1   0    0    1   
$EndComp
$Comp
L GND #PWR019
U 1 1 5ACF979D
P 1650 4000
F 0 "#PWR019" H 1650 3750 50  0001 C CNN
F 1 "GND" H 1650 3850 50  0000 C CNN
F 2 "" H 1650 4000 50  0000 C CNN
F 3 "" H 1650 4000 50  0000 C CNN
	1    1650 4000
	0    -1   -1   0   
$EndComp
$Comp
L GND #PWR020
U 1 1 5ACF98CD
P 3700 6000
F 0 "#PWR020" H 3700 5750 50  0001 C CNN
F 1 "GND" H 3700 5850 50  0000 C CNN
F 2 "" H 3700 6000 50  0000 C CNN
F 3 "" H 3700 6000 50  0000 C CNN
	1    3700 6000
	1    0    0    -1  
$EndComp
$Comp
L GND #PWR021
U 1 1 5ACF9990
P 3550 6000
F 0 "#PWR021" H 3550 5750 50  0001 C CNN
F 1 "GND" H 3550 5850 50  0000 C CNN
F 2 "" H 3550 6000 50  0000 C CNN
F 3 "" H 3550 6000 50  0000 C CNN
	1    3550 6000
	1    0    0    -1  
$EndComp
$Comp
L GND #PWR022
U 1 1 5ACF99E6
P 3400 6000
F 0 "#PWR022" H 3400 5750 50  0001 C CNN
F 1 "GND" H 3400 5850 50  0000 C CNN
F 2 "" H 3400 6000 50  0000 C CNN
F 3 "" H 3400 6000 50  0000 C CNN
	1    3400 6000
	1    0    0    -1  
$EndComp
$Comp
L GND #PWR023
U 1 1 5ACF9A3C
P 3250 6000
F 0 "#PWR023" H 3250 5750 50  0001 C CNN
F 1 "GND" H 3250 5850 50  0000 C CNN
F 2 "" H 3250 6000 50  0000 C CNN
F 3 "" H 3250 6000 50  0000 C CNN
	1    3250 6000
	1    0    0    -1  
$EndComp
$Comp
L C C4
U 1 1 5ACF9A92
P 2450 5650
F 0 "C4" H 2475 5750 50  0000 L CNN
F 1 "100nF" H 2475 5550 50  0000 L CNN
F 2 "Capacitors_SMD:C_1206_HandSoldering" H 2488 5500 50  0001 C CNN
F 3 "" H 2450 5650 50  0000 C CNN
	1    2450 5650
	1    0    0    -1  
$EndComp
$Comp
L GND #PWR024
U 1 1 5ACF9AF5
P 2450 5800
F 0 "#PWR024" H 2450 5550 50  0001 C CNN
F 1 "GND" H 2450 5650 50  0000 C CNN
F 2 "" H 2450 5800 50  0000 C CNN
F 3 "" H 2450 5800 50  0000 C CNN
	1    2450 5800
	1    0    0    -1  
$EndComp
$Comp
L LM1117-3.3 U2
U 1 1 5ACFA9A0
P 4800 7200
F 0 "U2" H 4900 6950 50  0000 C CNN
F 1 "LM1117-3.3" H 4800 7450 50  0000 C CNN
F 2 "TO_SOT_Packages_SMD:SOT-223" H 4800 7200 50  0001 C CNN
F 3 "" H 4800 7200 50  0000 C CNN
	1    4800 7200
	1    0    0    -1  
$EndComp
$Comp
L GND #PWR025
U 1 1 5ACFAAAA
P 4800 7500
F 0 "#PWR025" H 4800 7250 50  0001 C CNN
F 1 "GND" H 4800 7350 50  0000 C CNN
F 2 "" H 4800 7500 50  0000 C CNN
F 3 "" H 4800 7500 50  0000 C CNN
	1    4800 7500
	1    0    0    -1  
$EndComp
$Comp
L +5V #PWR026
U 1 1 5ACFAB04
P 4350 7200
F 0 "#PWR026" H 4350 7050 50  0001 C CNN
F 1 "+5V" H 4350 7340 50  0000 C CNN
F 2 "" H 4350 7200 50  0000 C CNN
F 3 "" H 4350 7200 50  0000 C CNN
	1    4350 7200
	0    -1   -1   0   
$EndComp
$Comp
L +3.3V #PWR027
U 1 1 5ACFAB5E
P 5250 7200
F 0 "#PWR027" H 5250 7050 50  0001 C CNN
F 1 "+3.3V" H 5250 7350 50  0000 C CNN
F 2 "" H 5250 7200 50  0000 C CNN
F 3 "" H 5250 7200 50  0000 C CNN
	1    5250 7200
	0    1    1    0   
$EndComp
$Comp
L GND #PWR028
U 1 1 5ACFB0C4
P 5200 7500
F 0 "#PWR028" H 5200 7250 50  0001 C CNN
F 1 "GND" H 5200 7350 50  0000 C CNN
F 2 "" H 5200 7500 50  0000 C CNN
F 3 "" H 5200 7500 50  0000 C CNN
	1    5200 7500
	1    0    0    -1  
$EndComp
$Comp
L GND #PWR029
U 1 1 5ACFB122
P 4400 7500
F 0 "#PWR029" H 4400 7250 50  0001 C CNN
F 1 "GND" H 4400 7350 50  0000 C CNN
F 2 "" H 4400 7500 50  0000 C CNN
F 3 "" H 4400 7500 50  0000 C CNN
	1    4400 7500
	1    0    0    -1  
$EndComp
NoConn ~ 1650 4100
$Comp
L GND #PWR030
U 1 1 5ACFB6D1
P 1250 3800
F 0 "#PWR030" H 1250 3550 50  0001 C CNN
F 1 "GND" H 1250 3650 50  0000 C CNN
F 2 "" H 1250 3800 50  0000 C CNN
F 3 "" H 1250 3800 50  0000 C CNN
	1    1250 3800
	0    1    1    0   
$EndComp
$Comp
L dc_motor M1
U 1 1 5AD06504
P 10450 1600
F 0 "M1" H 10450 1600 60  0000 C CNN
F 1 "dc_motor" H 10450 1400 60  0000 C CNN
F 2 "Wire_Connections_Bridges:WireConnection_2.00mmDrill" H 10450 1600 60  0001 C CNN
F 3 "" H 10450 1600 60  0001 C CNN
	1    10450 1600
	1    0    0    -1  
$EndComp
$Comp
L Touch T1
U 1 1 5AD06597
P 3950 2700
F 0 "T1" H 4150 2950 60  0000 C CNN
F 1 "Touch" H 4150 2400 60  0000 C CNN
F 2 "Lib:touch_panel" H 3950 2700 60  0001 C CNN
F 3 "" H 3950 2700 60  0001 C CNN
	1    3950 2700
	-1   0    0    -1  
$EndComp
$Comp
L CONN_01X03 P3
U 1 1 5AD0D25D
P 1650 6000
F 0 "P3" H 1650 6200 50  0000 C CNN
F 1 "CONN_01X03" V 1750 6000 50  0000 C CNN
F 2 "Pin_Headers:Pin_Header_Straight_1x03_Pitch2.54mm" H 1650 6000 50  0001 C CNN
F 3 "" H 1650 6000 50  0000 C CNN
	1    1650 6000
	1    0    0    -1  
$EndComp
Text Notes 850  6400 0    60   ~ 0
Bypass du Ft232rl
$Comp
L SW_Push SW7
U 1 1 5AD0E2B3
P 3000 1400
F 0 "SW7" H 3050 1500 50  0000 L CNN
F 1 "SW_Push" H 3000 1340 50  0000 C CNN
F 2 "push_smd:smd_4x4_push" H 3000 1600 50  0001 C CNN
F 3 "" H 3000 1600 50  0000 C CNN
	1    3000 1400
	1    0    0    -1  
$EndComp
Text Notes 6450 3550 0    60   ~ 0
Pin 17-22 used \nby internal flash \n\nDo not use for \nother application
$Comp
L R R7
U 1 1 5AD0EBF0
P 3300 1250
F 0 "R7" V 3380 1250 50  0000 C CNN
F 1 "1k" V 3300 1250 50  0000 C CNN
F 2 "Resistors_SMD:R_1206_HandSoldering" V 3230 1250 50  0001 C CNN
F 3 "" H 3300 1250 50  0000 C CNN
	1    3300 1250
	1    0    0    -1  
$EndComp
$Comp
L GND #PWR031
U 1 1 5AD0ECA8
P 3300 1100
F 0 "#PWR031" H 3300 850 50  0001 C CNN
F 1 "GND" H 3300 950 50  0000 C CNN
F 2 "" H 3300 1100 50  0000 C CNN
F 3 "" H 3300 1100 50  0000 C CNN
	1    3300 1100
	-1   0    0    1   
$EndComp
$Comp
L SW_Push SW6
U 1 1 5AD0EDD2
P 2100 1400
F 0 "SW6" H 2150 1500 50  0000 L CNN
F 1 "SW_Push" H 2100 1340 50  0000 C CNN
F 2 "push_smd:smd_4x4_push" H 2100 1600 50  0001 C CNN
F 3 "" H 2100 1600 50  0000 C CNN
	1    2100 1400
	1    0    0    -1  
$EndComp
$Comp
L R R6
U 1 1 5AD0EDDE
P 2450 1250
F 0 "R6" V 2530 1250 50  0000 C CNN
F 1 "1k" V 2450 1250 50  0000 C CNN
F 2 "Resistors_SMD:R_1206_HandSoldering" V 2380 1250 50  0001 C CNN
F 3 "" H 2450 1250 50  0000 C CNN
	1    2450 1250
	1    0    0    -1  
$EndComp
$Comp
L GND #PWR032
U 1 1 5AD0EDE4
P 2450 1100
F 0 "#PWR032" H 2450 850 50  0001 C CNN
F 1 "GND" H 2450 950 50  0000 C CNN
F 2 "" H 2450 1100 50  0000 C CNN
F 3 "" H 2450 1100 50  0000 C CNN
	1    2450 1100
	-1   0    0    1   
$EndComp
$Comp
L SW_Push SW1
U 1 1 5AD0EF1D
P 1200 1400
F 0 "SW1" H 1250 1500 50  0000 L CNN
F 1 "SW_Push" H 1200 1340 50  0000 C CNN
F 2 "push_smd:smd_4x4_push" H 1200 1600 50  0001 C CNN
F 3 "" H 1200 1600 50  0000 C CNN
	1    1200 1400
	1    0    0    -1  
$EndComp
$Comp
L R R1
U 1 1 5AD0EF29
P 1550 1250
F 0 "R1" V 1630 1250 50  0000 C CNN
F 1 "1k" V 1550 1250 50  0000 C CNN
F 2 "Resistors_SMD:R_1206_HandSoldering" V 1480 1250 50  0001 C CNN
F 3 "" H 1550 1250 50  0000 C CNN
	1    1550 1250
	1    0    0    -1  
$EndComp
$Comp
L GND #PWR033
U 1 1 5AD0EF2F
P 1550 1100
F 0 "#PWR033" H 1550 850 50  0001 C CNN
F 1 "GND" H 1550 950 50  0000 C CNN
F 2 "" H 1550 1100 50  0000 C CNN
F 3 "" H 1550 1100 50  0000 C CNN
	1    1550 1100
	-1   0    0    1   
$EndComp
$Comp
L SW_Push SW5
U 1 1 5AD0F250
P 1800 2550
F 0 "SW5" H 1850 2650 50  0000 L CNN
F 1 "SW_Push" H 1800 2490 50  0000 C CNN
F 2 "push_smd:smd_4x4_push" H 1800 2750 50  0001 C CNN
F 3 "" H 1800 2750 50  0000 C CNN
	1    1800 2550
	1    0    0    -1  
$EndComp
$Comp
L +3.3V #PWR034
U 1 1 5AD0F256
P 1600 2550
F 0 "#PWR034" H 1600 2400 50  0001 C CNN
F 1 "+3.3V" H 1600 2690 50  0000 C CNN
F 2 "" H 1600 2550 50  0000 C CNN
F 3 "" H 1600 2550 50  0000 C CNN
	1    1600 2550
	0    -1   -1   0   
$EndComp
$Comp
L R R5
U 1 1 5AD0F25C
P 2150 2400
F 0 "R5" V 2230 2400 50  0000 C CNN
F 1 "1k" V 2150 2400 50  0000 C CNN
F 2 "Resistors_SMD:R_1206_HandSoldering" V 2080 2400 50  0001 C CNN
F 3 "" H 2150 2400 50  0000 C CNN
	1    2150 2400
	1    0    0    -1  
$EndComp
$Comp
L GND #PWR035
U 1 1 5AD0F262
P 2150 2250
F 0 "#PWR035" H 2150 2000 50  0001 C CNN
F 1 "GND" H 2150 2100 50  0000 C CNN
F 2 "" H 2150 2250 50  0000 C CNN
F 3 "" H 2150 2250 50  0000 C CNN
	1    2150 2250
	-1   0    0    1   
$EndComp
$Comp
L SW_Push SW4
U 1 1 5AD0F347
P 1200 2000
F 0 "SW4" H 1250 2100 50  0000 L CNN
F 1 "SW_Push" H 1200 1940 50  0000 C CNN
F 2 "push_smd:smd_4x4_push" H 1200 2200 50  0001 C CNN
F 3 "" H 1200 2200 50  0000 C CNN
	1    1200 2000
	1    0    0    -1  
$EndComp
$Comp
L +3.3V #PWR036
U 1 1 5AD0F34D
P 1000 2000
F 0 "#PWR036" H 1000 1850 50  0001 C CNN
F 1 "+3.3V" H 1000 2140 50  0000 C CNN
F 2 "" H 1000 2000 50  0000 C CNN
F 3 "" H 1000 2000 50  0000 C CNN
	1    1000 2000
	0    -1   -1   0   
$EndComp
$Comp
L R R4
U 1 1 5AD0F353
P 1550 1850
F 0 "R4" V 1630 1850 50  0000 C CNN
F 1 "1k" V 1550 1850 50  0000 C CNN
F 2 "Resistors_SMD:R_1206_HandSoldering" V 1480 1850 50  0001 C CNN
F 3 "" H 1550 1850 50  0000 C CNN
	1    1550 1850
	1    0    0    -1  
$EndComp
$Comp
L GND #PWR037
U 1 1 5AD0F359
P 1550 1700
F 0 "#PWR037" H 1550 1450 50  0001 C CNN
F 1 "GND" H 1550 1550 50  0000 C CNN
F 2 "" H 1550 1700 50  0000 C CNN
F 3 "" H 1550 1700 50  0000 C CNN
	1    1550 1700
	-1   0    0    1   
$EndComp
$Comp
L SW_SPST SW8
U 1 1 5AD11421
P 3950 1350
F 0 "SW8" H 3950 1475 50  0000 C CNN
F 1 "SW_SPST" H 3950 1250 50  0000 C CNN
F 2 "Buttons_Switches_SMD:SW_SPDT_PCM12" H 3950 1350 50  0001 C CNN
F 3 "" H 3950 1350 50  0000 C CNN
	1    3950 1350
	1    0    0    -1  
$EndComp
$Comp
L R R8
U 1 1 5AD114CC
P 4300 1200
F 0 "R8" V 4380 1200 50  0000 C CNN
F 1 "R" V 4300 1200 50  0000 C CNN
F 2 "Resistors_SMD:R_1206_HandSoldering" V 4230 1200 50  0001 C CNN
F 3 "" H 4300 1200 50  0000 C CNN
	1    4300 1200
	1    0    0    -1  
$EndComp
$Comp
L +3.3V #PWR038
U 1 1 5AD1163C
P 3750 1350
F 0 "#PWR038" H 3750 1200 50  0001 C CNN
F 1 "+3.3V" H 3750 1490 50  0000 C CNN
F 2 "" H 3750 1350 50  0000 C CNN
F 3 "" H 3750 1350 50  0000 C CNN
	1    3750 1350
	0    -1   -1   0   
$EndComp
$Comp
L GND #PWR039
U 1 1 5AD116AE
P 4300 1050
F 0 "#PWR039" H 4300 800 50  0001 C CNN
F 1 "GND" H 4300 900 50  0000 C CNN
F 2 "" H 4300 1050 50  0000 C CNN
F 3 "" H 4300 1050 50  0000 C CNN
	1    4300 1050
	-1   0    0    1   
$EndComp
Text Label 10450 4600 0    60   ~ 0
tft_led+
Text Label 8900 1650 0    60   ~ 0
tft_led+
$Comp
L BSS138 Q2
U 1 1 5AD1481E
P 8800 1400
F 0 "Q2" H 9000 1475 50  0000 L CNN
F 1 "BSS138" H 9000 1400 50  0000 L CNN
F 2 "TO_SOT_Packages_SMD:SOT-23" H 9000 1325 50  0001 L CIN
F 3 "" H 8800 1400 50  0000 L CNN
	1    8800 1400
	1    0    0    -1  
$EndComp
Text Label 5950 2100 2    60   ~ 0
speaker_esp32
$Comp
L +3.3V #PWR040
U 1 1 5AD14EB9
P 8900 1200
F 0 "#PWR040" H 8900 1050 50  0001 C CNN
F 1 "+3.3V" H 8900 1340 50  0000 C CNN
F 2 "" H 8900 1200 50  0000 C CNN
F 3 "" H 8900 1200 50  0000 C CNN
	1    8900 1200
	1    0    0    -1  
$EndComp
$Comp
L BSS138 Q3
U 1 1 5AD1C7A3
P 9550 1800
F 0 "Q3" H 9750 1875 50  0000 L CNN
F 1 "BSS138" H 9750 1800 50  0000 L CNN
F 2 "TO_SOT_Packages_SMD:SOT-23" H 9750 1725 50  0001 L CIN
F 3 "" H 9550 1800 50  0000 L CNN
	1    9550 1800
	1    0    0    -1  
$EndComp
$Comp
L R R13
U 1 1 5AD1C9B6
P 8500 1300
F 0 "R13" V 8580 1300 50  0000 C CNN
F 1 "1k" V 8500 1300 50  0000 C CNN
F 2 "Resistors_SMD:R_1206_HandSoldering" V 8430 1300 50  0001 C CNN
F 3 "" H 8500 1300 50  0000 C CNN
	1    8500 1300
	1    0    0    -1  
$EndComp
$Comp
L GND #PWR041
U 1 1 5AD1CA17
P 8500 1150
F 0 "#PWR041" H 8500 900 50  0001 C CNN
F 1 "GND" H 8500 1000 50  0000 C CNN
F 2 "" H 8500 1150 50  0000 C CNN
F 3 "" H 8500 1150 50  0000 C CNN
	1    8500 1150
	-1   0    0    1   
$EndComp
$Comp
L C C3
U 1 1 5AD1CB8B
P 10500 1100
F 0 "C3" H 10525 1200 50  0000 L CNN
F 1 "100nF" H 10525 1000 50  0000 L CNN
F 2 "Capacitors_SMD:C_1206_HandSoldering" H 10538 950 50  0001 C CNN
F 3 "" H 10500 1100 50  0000 C CNN
	1    10500 1100
	0    -1   -1   0   
$EndComp
$Comp
L +3.3V #PWR042
U 1 1 5AD1CBEE
P 11050 1600
F 0 "#PWR042" H 11050 1450 50  0001 C CNN
F 1 "+3.3V" H 11050 1740 50  0000 C CNN
F 2 "" H 11050 1600 50  0000 C CNN
F 3 "" H 11050 1600 50  0000 C CNN
	1    11050 1600
	1    0    0    -1  
$EndComp
$Comp
L D_Schottky D4
U 1 1 5AD1CC4A
P 10450 2150
F 0 "D4" H 10450 2250 50  0000 C CNN
F 1 "1N5822" H 10450 2050 50  0000 C CNN
F 2 "Diodes_SMD:D_SMA_Handsoldering" H 10450 2150 50  0001 C CNN
F 3 "" H 10450 2150 50  0000 C CNN
	1    10450 2150
	-1   0    0    1   
$EndComp
$Comp
L GND #PWR043
U 1 1 5AD1D28E
P 9650 2000
F 0 "#PWR043" H 9650 1750 50  0001 C CNN
F 1 "GND" H 9650 1850 50  0000 C CNN
F 2 "" H 9650 2000 50  0000 C CNN
F 3 "" H 9650 2000 50  0000 C CNN
	1    9650 2000
	1    0    0    -1  
$EndComp
Text Label 1250 7100 2    60   ~ 0
speaker_esp32
$Comp
L R R9
U 1 1 5AD1F68B
P 1650 6950
F 0 "R9" V 1730 6950 50  0000 C CNN
F 1 "91" V 1650 6950 50  0000 C CNN
F 2 "Resistors_SMD:R_1206_HandSoldering" V 1580 6950 50  0001 C CNN
F 3 "" H 1650 6950 50  0000 C CNN
	1    1650 6950
	1    0    0    -1  
$EndComp
$Comp
L R R10
U 1 1 5AD1F6F6
P 1650 7250
F 0 "R10" V 1730 7250 50  0000 C CNN
F 1 "110" V 1650 7250 50  0000 C CNN
F 2 "Resistors_SMD:R_1206_HandSoldering" V 1580 7250 50  0001 C CNN
F 3 "" H 1650 7250 50  0000 C CNN
	1    1650 7250
	1    0    0    -1  
$EndComp
$Comp
L BC817-40 Q1
U 1 1 5AD1F75D
P 2350 7100
F 0 "Q1" H 2550 7175 50  0000 L CNN
F 1 "BC817-40" H 2550 7100 50  0000 L CNN
F 2 "TO_SOT_Packages_SMD:SOT-23_Handsoldering" H 2550 7025 50  0001 L CIN
F 3 "" H 2350 7100 50  0000 L CNN
	1    2350 7100
	1    0    0    -1  
$EndComp
$Comp
L R R12
U 1 1 5AD1F7C6
P 2450 7450
F 0 "R12" V 2530 7450 50  0000 C CNN
F 1 "2,4" V 2450 7450 50  0000 C CNN
F 2 "Resistors_SMD:R_1206_HandSoldering" V 2380 7450 50  0001 C CNN
F 3 "" H 2450 7450 50  0000 C CNN
	1    2450 7450
	1    0    0    -1  
$EndComp
$Comp
L R R11
U 1 1 5AD1F839
P 2450 6750
F 0 "R11" V 2530 6750 50  0000 C CNN
F 1 "5,6" V 2450 6750 50  0000 C CNN
F 2 "Resistors_SMD:R_1206_HandSoldering" V 2380 6750 50  0001 C CNN
F 3 "" H 2450 6750 50  0000 C CNN
	1    2450 6750
	1    0    0    -1  
$EndComp
$Comp
L Speaker LS1
U 1 1 5AD1F8AC
P 3650 6900
F 0 "LS1" H 3700 7125 50  0000 R CNN
F 1 "1W 8ohm" H 3700 7050 50  0000 R CNN
F 2 "Wire_Connections_Bridges:WireConnection_1.50mmDrill" H 3650 6700 50  0001 C CNN
F 3 "" H 3640 6850 50  0000 C CNN
	1    3650 6900
	1    0    0    -1  
$EndComp
$Comp
L +3.3V #PWR044
U 1 1 5AD1FF02
P 2750 6600
F 0 "#PWR044" H 2750 6450 50  0001 C CNN
F 1 "+3.3V" H 2750 6740 50  0000 C CNN
F 2 "" H 2750 6600 50  0000 C CNN
F 3 "" H 2750 6600 50  0000 C CNN
	1    2750 6600
	1    0    0    -1  
$EndComp
$Comp
L R R14
U 1 1 5AD21D38
P 8900 2000
F 0 "R14" V 8980 2000 50  0000 C CNN
F 1 "1k" V 8900 2000 50  0000 C CNN
F 2 "Resistors_SMD:R_1206_HandSoldering" V 8830 2000 50  0001 C CNN
F 3 "" H 8900 2000 50  0000 C CNN
	1    8900 2000
	1    0    0    -1  
$EndComp
$Comp
L GND #PWR045
U 1 1 5AD21DAB
P 8900 2150
F 0 "#PWR045" H 8900 1900 50  0001 C CNN
F 1 "GND" H 8900 2000 50  0000 C CNN
F 2 "" H 8900 2150 50  0000 C CNN
F 3 "" H 8900 2150 50  0000 C CNN
	1    8900 2150
	1    0    0    -1  
$EndComp
$Comp
L +3.3V #PWR046
U 1 1 5AD24384
P 2800 1400
F 0 "#PWR046" H 2800 1250 50  0001 C CNN
F 1 "+3.3V" H 2800 1540 50  0000 C CNN
F 2 "" H 2800 1400 50  0000 C CNN
F 3 "" H 2800 1400 50  0000 C CNN
	1    2800 1400
	1    0    0    -1  
$EndComp
$Comp
L +3.3V #PWR047
U 1 1 5AD243EE
P 1900 1400
F 0 "#PWR047" H 1900 1250 50  0001 C CNN
F 1 "+3.3V" H 1900 1540 50  0000 C CNN
F 2 "" H 1900 1400 50  0000 C CNN
F 3 "" H 1900 1400 50  0000 C CNN
	1    1900 1400
	1    0    0    -1  
$EndComp
$Comp
L +3.3V #PWR048
U 1 1 5AD24A44
P 1000 1400
F 0 "#PWR048" H 1000 1250 50  0001 C CNN
F 1 "+3.3V" H 1000 1540 50  0000 C CNN
F 2 "" H 1000 1400 50  0000 C CNN
F 3 "" H 1000 1400 50  0000 C CNN
	1    1000 1400
	1    0    0    -1  
$EndComp
Text Notes 800  1700 0    60   ~ 0
5 BP NF\n1 interrupteur
$Comp
L LED D3
U 1 1 5AD24DEA
P 8800 2550
F 0 "D3" H 8800 2650 50  0000 C CNN
F 1 "LED" H 8800 2450 50  0000 C CNN
F 2 "LEDs:LED_1206_HandSoldering" H 8800 2550 50  0001 C CNN
F 3 "" H 8800 2550 50  0000 C CNN
	1    8800 2550
	-1   0    0    1   
$EndComp
$Comp
L GND #PWR049
U 1 1 5AD24F97
P 9050 2550
F 0 "#PWR049" H 9050 2300 50  0001 C CNN
F 1 "GND" H 9050 2400 50  0000 C CNN
F 2 "" H 9050 2550 50  0000 C CNN
F 3 "" H 9050 2550 50  0000 C CNN
	1    9050 2550
	1    0    0    -1  
$EndComp
$Comp
L LED D1
U 1 1 5AD2509F
P 7250 3800
F 0 "D1" H 7250 3900 50  0000 C CNN
F 1 "LED" H 7250 3700 50  0000 C CNN
F 2 "LEDs:LED_1206_HandSoldering" H 7250 3800 50  0001 C CNN
F 3 "" H 7250 3800 50  0000 C CNN
	1    7250 3800
	0    -1   -1   0   
$EndComp
$Comp
L LED D2
U 1 1 5AD2511C
P 7600 3800
F 0 "D2" H 7600 3900 50  0000 C CNN
F 1 "LED" H 7600 3700 50  0000 C CNN
F 2 "LEDs:LED_1206_HandSoldering" H 7600 3800 50  0001 C CNN
F 3 "" H 7600 3800 50  0000 C CNN
	1    7600 3800
	0    -1   -1   0   
$EndComp
$Comp
L GND #PWR050
U 1 1 5AD25354
P 7600 4050
F 0 "#PWR050" H 7600 3800 50  0001 C CNN
F 1 "GND" H 7600 3900 50  0000 C CNN
F 2 "" H 7600 4050 50  0000 C CNN
F 3 "" H 7600 4050 50  0000 C CNN
	1    7600 4050
	1    0    0    -1  
$EndComp
$Comp
L GND #PWR051
U 1 1 5AD253C4
P 7250 4100
F 0 "#PWR051" H 7250 3850 50  0001 C CNN
F 1 "GND" H 7250 3950 50  0000 C CNN
F 2 "" H 7250 4100 50  0000 C CNN
F 3 "" H 7250 4100 50  0000 C CNN
	1    7250 4100
	1    0    0    -1  
$EndComp
NoConn ~ 5950 2200
NoConn ~ 4650 4000
NoConn ~ 4650 4150
NoConn ~ 4650 4300
NoConn ~ 4650 4450
NoConn ~ 4650 4600
NoConn ~ 4650 4750
NoConn ~ 4650 4900
NoConn ~ 4650 5050
NoConn ~ 4650 5200
NoConn ~ 4650 5350
NoConn ~ 4650 5500
NoConn ~ 2450 4600
NoConn ~ 2450 4900
NoConn ~ 2450 5050
$Comp
L CONN_01X10 P1
U 1 1 5AD27DD4
P 10000 5250
F 0 "P1" H 10000 5800 50  0000 C CNN
F 1 "CONN_01X10" V 10100 5250 50  0000 C CNN
F 2 "Pin_Headers:Pin_Header_Straight_1x10_Pitch2.54mm" H 10000 5250 50  0001 C CNN
F 3 "" H 10000 5250 50  0000 C CNN
	1    10000 5250
	0    -1   1    0   
$EndComp
$Comp
L GND #PWR052
U 1 1 5AD27F40
P 10150 4700
F 0 "#PWR052" H 10150 4450 50  0001 C CNN
F 1 "GND" H 10150 4550 50  0000 C CNN
F 2 "" H 10150 4700 50  0000 C CNN
F 3 "" H 10150 4700 50  0000 C CNN
	1    10150 4700
	-1   0    0    1   
$EndComp
Wire Wire Line
	10300 4050 10600 4050
Wire Wire Line
	10600 4050 10600 4150
Wire Wire Line
	9900 4050 9900 4300
Wire Wire Line
	9900 4300 9950 4300
Wire Wire Line
	9950 4300 9950 4750
Wire Wire Line
	9800 4050 9800 4350
Wire Wire Line
	9700 4050 9700 4850
Wire Wire Line
	9700 4300 9650 4300
Wire Wire Line
	9650 4300 9650 4350
Wire Wire Line
	9600 4050 9600 4300
Wire Wire Line
	9600 4300 9500 4300
Wire Wire Line
	9500 4300 9500 4900
Wire Wire Line
	9500 4250 9500 4050
Wire Wire Line
	9300 4250 9500 4250
Wire Wire Line
	9350 4250 9350 4350
Wire Wire Line
	9400 4200 9400 4050
Wire Wire Line
	8950 4200 9400 4200
Wire Wire Line
	9200 4200 9200 4350
Wire Wire Line
	7800 2550 7800 2800
Wire Wire Line
	7800 1350 8000 1350
Wire Wire Line
	7800 2050 8350 2050
Wire Wire Line
	7800 2250 8350 2250
Wire Wire Line
	7950 2150 7800 2150
Wire Wire Line
	7800 2350 7950 2350
Wire Wire Line
	7800 1950 7950 1950
Wire Wire Line
	7800 1550 8250 1550
Wire Wire Line
	5950 1300 5900 1300
Wire Wire Line
	8000 2800 8000 3150
Wire Wire Line
	7800 2800 8000 2800
Connection ~ 7800 2600
Wire Wire Line
	8650 5050 9550 5050
Wire Wire Line
	8650 5050 8650 4050
Wire Wire Line
	8650 4050 9300 4050
Wire Wire Line
	8950 4200 8950 5000
Wire Wire Line
	8950 5000 9650 5000
Wire Wire Line
	9650 5000 9650 5050
Connection ~ 9200 4200
Wire Wire Line
	9300 4250 9300 4950
Wire Wire Line
	9300 4950 9750 4950
Wire Wire Line
	9750 4950 9750 5050
Connection ~ 9350 4250
Wire Wire Line
	9500 4900 9850 4900
Wire Wire Line
	9850 4900 9850 5050
Wire Wire Line
	9700 4850 9950 4850
Wire Wire Line
	9950 4850 9950 5050
Connection ~ 9700 4300
Wire Wire Line
	9800 4300 9800 4800
Wire Wire Line
	9800 4800 10050 4800
Wire Wire Line
	10050 4800 10050 5050
Connection ~ 9800 4300
Wire Wire Line
	9950 4750 10150 4750
Wire Wire Line
	10150 4750 10150 5050
Wire Wire Line
	10000 4050 10000 4700
Wire Wire Line
	10000 4700 10250 4700
Wire Wire Line
	10350 4650 10350 5050
Wire Wire Line
	10600 4100 10750 4100
Wire Wire Line
	10750 5500 9250 5500
Wire Wire Line
	9250 5500 9250 5050
Connection ~ 9250 5050
Connection ~ 10600 4100
Connection ~ 9500 4350
Connection ~ 9950 4350
Connection ~ 9300 4050
Connection ~ 8000 3000
Connection ~ 5200 1400
Connection ~ 10400 4050
Connection ~ 10500 4050
Wire Wire Line
	5100 1400 5950 1400
Wire Wire Line
	10250 4150 10250 4650
Wire Wire Line
	10250 4150 10100 4150
Wire Wire Line
	10100 4150 10100 4050
Wire Wire Line
	2450 4150 2050 4150
Wire Wire Line
	2050 4150 2050 4300
Wire Wire Line
	2050 4300 1650 4300
Wire Wire Line
	1650 4200 2450 4200
Wire Wire Line
	2450 4200 2450 4300
Wire Wire Line
	2450 3700 850  3700
Wire Wire Line
	850  3700 850  5500
Wire Wire Line
	850  5500 2450 5500
Wire Wire Line
	4350 7200 4500 7200
Connection ~ 4400 7200
Wire Wire Line
	1000 6000 1450 6000
Wire Wire Line
	5900 3050 6550 3050
Wire Wire Line
	6550 3050 6550 2950
Wire Wire Line
	4500 2550 4500 2300
Wire Wire Line
	4500 2300 5950 2300
Wire Wire Line
	4500 2650 4600 2650
Wire Wire Line
	4600 2650 4600 2400
Wire Wire Line
	4600 2400 5950 2400
Wire Wire Line
	4500 2750 5950 2750
Wire Wire Line
	5950 2750 5950 2500
Wire Wire Line
	4500 2850 5900 2850
Wire Wire Line
	5900 2850 5900 3050
Wire Wire Line
	5900 1300 5900 1350
Wire Wire Line
	5900 1350 5600 1350
Wire Wire Line
	5700 1050 5950 1050
Wire Wire Line
	5950 1050 5950 1200
Connection ~ 5750 1050
Wire Wire Line
	5600 1350 5600 1250
Connection ~ 5750 1350
Wire Wire Line
	10200 4050 10200 4100
Wire Wire Line
	10200 4100 10450 4100
Wire Wire Line
	10450 4100 10450 5050
Wire Wire Line
	7800 1450 8600 1450
Wire Wire Line
	8900 1650 8900 1600
Wire Wire Line
	8900 1200 8900 1200
Connection ~ 10800 1600
Wire Wire Line
	10100 1600 9650 1600
Connection ~ 10100 1600
Wire Wire Line
	10800 1600 11050 1600
Wire Wire Line
	7800 1750 7900 1750
Wire Wire Line
	7900 1750 7900 1850
Wire Wire Line
	1250 7100 2150 7100
Wire Wire Line
	1650 6800 1650 6600
Wire Wire Line
	1650 6600 2750 6600
Wire Wire Line
	1650 7400 1650 7600
Connection ~ 2450 6900
Connection ~ 2450 6600
Connection ~ 1650 7100
Connection ~ 2450 7600
Wire Wire Line
	5950 1500 4300 1500
Wire Wire Line
	3450 1600 5950 1600
Wire Wire Line
	3300 1700 5950 1700
Wire Wire Line
	2550 1800 5950 1800
Wire Wire Line
	3700 1900 5950 1900
Wire Wire Line
	3800 2000 5950 2000
Wire Wire Line
	4300 1500 4300 1350
Wire Wire Line
	4300 1350 4150 1350
Connection ~ 4300 1350
Wire Wire Line
	3200 1400 3450 1400
Wire Wire Line
	3450 1400 3450 1600
Wire Wire Line
	3300 1700 3300 1550
Wire Wire Line
	3300 1550 2550 1550
Wire Wire Line
	2550 1550 2550 1400
Wire Wire Line
	2550 1400 2300 1400
Wire Wire Line
	1400 1400 1800 1400
Wire Wire Line
	1800 1400 1800 1600
Wire Wire Line
	1800 1600 2550 1600
Wire Wire Line
	2550 1600 2550 1800
Wire Wire Line
	1400 2000 3700 2000
Wire Wire Line
	3700 2000 3700 1900
Wire Wire Line
	3800 2000 3800 2150
Wire Wire Line
	3800 2150 2500 2150
Wire Wire Line
	2500 2150 2500 2550
Wire Wire Line
	2500 2550 2000 2550
Connection ~ 3300 1400
Connection ~ 2450 1400
Connection ~ 1550 1400
Connection ~ 1550 2000
Connection ~ 2150 2550
Wire Wire Line
	7800 2450 8650 2450
Wire Wire Line
	8650 2450 8650 2550
Wire Wire Line
	7250 2950 7250 3650
Wire Wire Line
	7350 2950 7350 3650
Wire Wire Line
	7350 3650 7600 3650
Wire Wire Line
	8950 2550 9050 2550
Wire Wire Line
	7250 3950 7250 4100
Wire Wire Line
	7600 3950 7600 4050
Connection ~ 8900 1850
Connection ~ 8500 1450
Wire Wire Line
	5100 7200 5250 7200
Wire Wire Line
	10250 4700 10250 5050
Connection ~ 10250 5050
Connection ~ 5200 7200
Connection ~ 10150 4700
Connection ~ 10250 4650
Connection ~ 10250 4350
Wire Wire Line
	10250 4650 10350 4650
Wire Wire Line
	10650 1100 10800 1100
Wire Wire Line
	10800 1100 10800 2150
Wire Wire Line
	10350 1100 10100 1100
Wire Wire Line
	10100 1100 10100 2150
Wire Wire Line
	10100 2150 10300 2150
Wire Wire Line
	10800 2150 10600 2150
Wire Wire Line
	7900 1850 9350 1850
Wire Wire Line
	10750 4100 10750 5500
Wire Wire Line
	3100 6900 3450 6900
Wire Wire Line
	2450 6900 2800 6900
Wire Wire Line
	3450 7000 3050 7000
Wire Wire Line
	3050 7000 3050 7600
Wire Wire Line
	3050 7600 1650 7600
$Comp
L C C1
U 1 1 5AD12084
P 5750 1200
F 0 "C1" H 5775 1300 50  0000 L CNN
F 1 "10uF" H 5775 1100 50  0000 L CNN
F 2 "Capacitors_SMD:C_1210_HandSoldering" H 5788 1050 50  0001 C CNN
F 3 "" H 5750 1200 50  0000 C CNN
	1    5750 1200
	1    0    0    -1  
$EndComp
$Comp
L C C6
U 1 1 5ACFAE1F
P 5200 7350
F 0 "C6" H 5100 7450 50  0000 L CNN
F 1 "100uF" H 5225 7250 50  0000 L CNN
F 2 "Capacitors_SMD:C_1210_HandSoldering" H 5238 7200 50  0001 C CNN
F 3 "" H 5200 7350 50  0000 C CNN
	1    5200 7350
	1    0    0    -1  
$EndComp
$Comp
L C C5
U 1 1 5ACFAD66
P 4400 7350
F 0 "C5" H 4425 7450 50  0000 L CNN
F 1 "10uF" H 4425 7250 50  0000 L CNN
F 2 "Capacitors_SMD:C_1210_HandSoldering" H 4438 7200 50  0001 C CNN
F 3 "" H 4400 7350 50  0000 C CNN
	1    4400 7350
	1    0    0    -1  
$EndComp
$Comp
L C C2
U 1 1 5AD1F92B
P 2950 6900
F 0 "C2" H 2975 7000 50  0000 L CNN
F 1 "10uF" H 2975 6800 50  0000 L CNN
F 2 "Capacitors_SMD:C_1210_HandSoldering" H 2988 6750 50  0001 C CNN
F 3 "" H 2950 6900 50  0000 C CNN
	1    2950 6900
	0    -1   -1   0   
$EndComp
Connection ~ 3050 7600
$Comp
L GND #PWR053
U 1 1 5AD24020
P 3050 7600
F 0 "#PWR053" H 3050 7350 50  0001 C CNN
F 1 "GND" H 3050 7450 50  0000 C CNN
F 2 "" H 3050 7600 50  0000 C CNN
F 3 "" H 3050 7600 50  0000 C CNN
	1    3050 7600
	1    0    0    -1  
$EndComp
$EndSCHEMATC
