(export (version D)
  (design
    (source "C:/Users/matti/Desktop/Maug/Technique/Hardware/MVP/MVP without battery/maug.sch")
    (date "14/04/2018 23:31:15")
    (tool "Eeschema 4.0.5")
    (sheet (number 1) (name /) (tstamps /)
      (title_block
        (title)
        (company)
        (rev)
        (date)
        (source maug.sch)
        (comment (number 1) (value ""))
        (comment (number 2) (value ""))
        (comment (number 3) (value ""))
        (comment (number 4) (value "")))))
  (components
    (comp (ref U3)
      (value ESP-32S)
      (footprint ESP32-footprints-Lib:ESP32-WROOM)
      (libsource (lib ESP32-footprints-Shem-Lib) (part ESP-32S))
      (sheetpath (names /) (tstamps /))
      (tstamp 59F495F1))
    (comp (ref U7)
      (value tft_display)
      (footprint tft:tft_14)
      (libsource (lib tft_14pin) (part tft_display))
      (sheetpath (names /) (tstamps /))
      (tstamp 59FB0963))
    (comp (ref SW2)
      (value RESET)
      (footprint push_smd:smd_4x4_push)
      (libsource (lib switches) (part SW_Push))
      (sheetpath (names /) (tstamps /))
      (tstamp 59FBFDB7))
    (comp (ref R3)
      (value 10k)
      (footprint Resistors_SMD:R_1206_HandSoldering)
      (libsource (lib device) (part R))
      (sheetpath (names /) (tstamps /))
      (tstamp 59FC0302))
    (comp (ref SW3)
      (value BOOT)
      (footprint push_smd:smd_4x4_push)
      (libsource (lib switches) (part SW_Push))
      (sheetpath (names /) (tstamps /))
      (tstamp 59FC09E0))
    (comp (ref P2)
      (value CONN_01X02)
      (footprint Pin_Headers:Pin_Header_Straight_1x02_Pitch2.54mm)
      (libsource (lib conn) (part CONN_01X02))
      (sheetpath (names /) (tstamps /))
      (tstamp 5A2DBE9A))
    (comp (ref R2)
      (value 1k)
      (footprint Resistors_SMD:R_1206_HandSoldering)
      (libsource (lib device) (part R))
      (sheetpath (names /) (tstamps /))
      (tstamp 5A2DFE38))
    (comp (ref P4)
      (value USB_OTG)
      (footprint Connectors:USB_Micro-B)
      (libsource (lib conn) (part USB_OTG))
      (sheetpath (names /) (tstamps /))
      (tstamp 5A4EA3BC))
    (comp (ref U1)
      (value FT232RL)
      (footprint Housings_SSOP:SSOP-28_5.3x10.2mm_Pitch0.65mm)
      (libsource (lib ft232rl) (part FT232RL))
      (sheetpath (names /) (tstamps /))
      (tstamp 5ACF9092))
    (comp (ref C4)
      (value 100nF)
      (footprint Capacitors_SMD:C_1206_HandSoldering)
      (libsource (lib device) (part C))
      (sheetpath (names /) (tstamps /))
      (tstamp 5ACF9A92))
    (comp (ref U2)
      (value LM1117-3.3)
      (footprint TO_SOT_Packages_SMD:SOT-223)
      (libsource (lib regul) (part LM1117-3.3))
      (sheetpath (names /) (tstamps /))
      (tstamp 5ACFA9A0))
    (comp (ref M1)
      (value dc_motor)
      (footprint Wire_Connections_Bridges:WireConnection_2.00mmDrill)
      (libsource (lib dc_motor) (part dc_motor))
      (sheetpath (names /) (tstamps /))
      (tstamp 5AD06504))
    (comp (ref T1)
      (value Touch)
      (footprint Lib:touch_panel)
      (libsource (lib touch) (part Touch))
      (sheetpath (names /) (tstamps /))
      (tstamp 5AD06597))
    (comp (ref P3)
      (value CONN_01X03)
      (footprint Pin_Headers:Pin_Header_Straight_1x03_Pitch2.54mm)
      (libsource (lib conn) (part CONN_01X03))
      (sheetpath (names /) (tstamps /))
      (tstamp 5AD0D25D))
    (comp (ref SW7)
      (value SW_Push)
      (footprint push_smd:smd_4x4_push)
      (libsource (lib switches) (part SW_Push))
      (sheetpath (names /) (tstamps /))
      (tstamp 5AD0E2B3))
    (comp (ref R7)
      (value 1k)
      (footprint Resistors_SMD:R_1206_HandSoldering)
      (libsource (lib device) (part R))
      (sheetpath (names /) (tstamps /))
      (tstamp 5AD0EBF0))
    (comp (ref SW6)
      (value SW_Push)
      (footprint push_smd:smd_4x4_push)
      (libsource (lib switches) (part SW_Push))
      (sheetpath (names /) (tstamps /))
      (tstamp 5AD0EDD2))
    (comp (ref R6)
      (value 1k)
      (footprint Resistors_SMD:R_1206_HandSoldering)
      (libsource (lib device) (part R))
      (sheetpath (names /) (tstamps /))
      (tstamp 5AD0EDDE))
    (comp (ref SW1)
      (value SW_Push)
      (footprint push_smd:smd_4x4_push)
      (libsource (lib switches) (part SW_Push))
      (sheetpath (names /) (tstamps /))
      (tstamp 5AD0EF1D))
    (comp (ref R1)
      (value 1k)
      (footprint Resistors_SMD:R_1206_HandSoldering)
      (libsource (lib device) (part R))
      (sheetpath (names /) (tstamps /))
      (tstamp 5AD0EF29))
    (comp (ref SW5)
      (value SW_Push)
      (footprint push_smd:smd_4x4_push)
      (libsource (lib switches) (part SW_Push))
      (sheetpath (names /) (tstamps /))
      (tstamp 5AD0F250))
    (comp (ref R5)
      (value 1k)
      (footprint Resistors_SMD:R_1206_HandSoldering)
      (libsource (lib device) (part R))
      (sheetpath (names /) (tstamps /))
      (tstamp 5AD0F25C))
    (comp (ref SW4)
      (value SW_Push)
      (footprint push_smd:smd_4x4_push)
      (libsource (lib switches) (part SW_Push))
      (sheetpath (names /) (tstamps /))
      (tstamp 5AD0F347))
    (comp (ref R4)
      (value 1k)
      (footprint Resistors_SMD:R_1206_HandSoldering)
      (libsource (lib device) (part R))
      (sheetpath (names /) (tstamps /))
      (tstamp 5AD0F353))
    (comp (ref SW8)
      (value SW_SPST)
      (footprint Buttons_Switches_SMD:SW_SPDT_PCM12)
      (libsource (lib switches) (part SW_SPST))
      (sheetpath (names /) (tstamps /))
      (tstamp 5AD11421))
    (comp (ref R8)
      (value R)
      (footprint Resistors_SMD:R_1206_HandSoldering)
      (libsource (lib device) (part R))
      (sheetpath (names /) (tstamps /))
      (tstamp 5AD114CC))
    (comp (ref Q2)
      (value BSS138)
      (footprint TO_SOT_Packages_SMD:SOT-23)
      (libsource (lib transistors) (part BSS138))
      (sheetpath (names /) (tstamps /))
      (tstamp 5AD1481E))
    (comp (ref Q3)
      (value BSS138)
      (footprint TO_SOT_Packages_SMD:SOT-23)
      (libsource (lib transistors) (part BSS138))
      (sheetpath (names /) (tstamps /))
      (tstamp 5AD1C7A3))
    (comp (ref R13)
      (value 1k)
      (footprint Resistors_SMD:R_1206_HandSoldering)
      (libsource (lib device) (part R))
      (sheetpath (names /) (tstamps /))
      (tstamp 5AD1C9B6))
    (comp (ref C3)
      (value 100nF)
      (footprint Capacitors_SMD:C_1206_HandSoldering)
      (libsource (lib device) (part C))
      (sheetpath (names /) (tstamps /))
      (tstamp 5AD1CB8B))
    (comp (ref D4)
      (value 1N5822)
      (footprint Diodes_SMD:D_SMA_Handsoldering)
      (libsource (lib device) (part D_Schottky))
      (sheetpath (names /) (tstamps /))
      (tstamp 5AD1CC4A))
    (comp (ref R9)
      (value 91)
      (footprint Resistors_SMD:R_1206_HandSoldering)
      (libsource (lib device) (part R))
      (sheetpath (names /) (tstamps /))
      (tstamp 5AD1F68B))
    (comp (ref R10)
      (value 110)
      (footprint Resistors_SMD:R_1206_HandSoldering)
      (libsource (lib device) (part R))
      (sheetpath (names /) (tstamps /))
      (tstamp 5AD1F6F6))
    (comp (ref Q1)
      (value BC817-40)
      (footprint TO_SOT_Packages_SMD:SOT-23_Handsoldering)
      (libsource (lib transistors) (part BC817-40))
      (sheetpath (names /) (tstamps /))
      (tstamp 5AD1F75D))
    (comp (ref R12)
      (value 2,4)
      (footprint Resistors_SMD:R_1206_HandSoldering)
      (libsource (lib device) (part R))
      (sheetpath (names /) (tstamps /))
      (tstamp 5AD1F7C6))
    (comp (ref R11)
      (value 5,6)
      (footprint Resistors_SMD:R_1206_HandSoldering)
      (libsource (lib device) (part R))
      (sheetpath (names /) (tstamps /))
      (tstamp 5AD1F839))
    (comp (ref LS1)
      (value "1W 8ohm")
      (footprint Wire_Connections_Bridges:WireConnection_1.50mmDrill)
      (libsource (lib device) (part Speaker))
      (sheetpath (names /) (tstamps /))
      (tstamp 5AD1F8AC))
    (comp (ref R14)
      (value 1k)
      (footprint Resistors_SMD:R_1206_HandSoldering)
      (libsource (lib device) (part R))
      (sheetpath (names /) (tstamps /))
      (tstamp 5AD21D38))
    (comp (ref D3)
      (value LED)
      (footprint LEDs:LED_1206_HandSoldering)
      (libsource (lib device) (part LED))
      (sheetpath (names /) (tstamps /))
      (tstamp 5AD24DEA))
    (comp (ref D1)
      (value LED)
      (footprint LEDs:LED_1206_HandSoldering)
      (libsource (lib device) (part LED))
      (sheetpath (names /) (tstamps /))
      (tstamp 5AD2509F))
    (comp (ref D2)
      (value LED)
      (footprint LEDs:LED_1206_HandSoldering)
      (libsource (lib device) (part LED))
      (sheetpath (names /) (tstamps /))
      (tstamp 5AD2511C))
    (comp (ref P1)
      (value CONN_01X10)
      (footprint Pin_Headers:Pin_Header_Straight_1x10_Pitch2.54mm)
      (libsource (lib conn) (part CONN_01X10))
      (sheetpath (names /) (tstamps /))
      (tstamp 5AD27DD4))
    (comp (ref C1)
      (value 10uF)
      (footprint Capacitors_SMD:C_1210_HandSoldering)
      (libsource (lib device) (part C))
      (sheetpath (names /) (tstamps /))
      (tstamp 5AD12084))
    (comp (ref C6)
      (value 100uF)
      (footprint Capacitors_SMD:C_1210_HandSoldering)
      (libsource (lib device) (part C))
      (sheetpath (names /) (tstamps /))
      (tstamp 5ACFAE1F))
    (comp (ref C5)
      (value 10uF)
      (footprint Capacitors_SMD:C_1210_HandSoldering)
      (libsource (lib device) (part C))
      (sheetpath (names /) (tstamps /))
      (tstamp 5ACFAD66))
    (comp (ref C2)
      (value 10uF)
      (footprint Capacitors_SMD:C_1210_HandSoldering)
      (libsource (lib device) (part C))
      (sheetpath (names /) (tstamps /))
      (tstamp 5AD1F92B)))
  (libparts
    (libpart (lib transistors) (part BC817-40)
      (aliases
        (alias BC818-40))
      (description "45V Vce, 0.8A Ic, NPN, SOT-23")
      (docs http://www.fairchildsemi.com/ds/BC/BC817.pdf)
      (footprints
        (fp SOT-23*))
      (fields
        (field (name Reference) Q)
        (field (name Value) BC817-40)
        (field (name Footprint) SOT-23))
      (pins
        (pin (num 1) (name B) (type input))
        (pin (num 2) (name E) (type passive))
        (pin (num 3) (name C) (type passive))))
    (libpart (lib transistors) (part BSS138)
      (aliases
        (alias 2N7002))
      (description "50V Vds, 0.22A Id, N-Channel MOSFET, SOT-23")
      (docs http://www.fairchildsemi.com/ds/BS/BSS138.pdf)
      (footprints
        (fp SOT-23*))
      (fields
        (field (name Reference) Q)
        (field (name Value) BSS138)
        (field (name Footprint) TO_SOT_Packages_SMD:SOT-23))
      (pins
        (pin (num 1) (name G) (type passive))
        (pin (num 2) (name S) (type passive))
        (pin (num 3) (name D) (type passive))))
    (libpart (lib device) (part C)
      (description "Unpolarized capacitor")
      (footprints
        (fp C?)
        (fp C_????_*)
        (fp C_????)
        (fp SMD*_c)
        (fp Capacitor*))
      (fields
        (field (name Reference) C)
        (field (name Value) C))
      (pins
        (pin (num 1) (name ~) (type passive))
        (pin (num 2) (name ~) (type passive))))
    (libpart (lib conn) (part CONN_01X02)
      (description "Connector, single row, 01x02")
      (footprints
        (fp Pin_Header_Straight_1X02)
        (fp Pin_Header_Angled_1X02)
        (fp Socket_Strip_Straight_1X02)
        (fp Socket_Strip_Angled_1X02))
      (fields
        (field (name Reference) P)
        (field (name Value) CONN_01X02))
      (pins
        (pin (num 1) (name P1) (type passive))
        (pin (num 2) (name P2) (type passive))))
    (libpart (lib conn) (part CONN_01X03)
      (description "Connector, single row, 01x03")
      (footprints
        (fp Pin_Header_Straight_1X03)
        (fp Pin_Header_Angled_1X03)
        (fp Socket_Strip_Straight_1X03)
        (fp Socket_Strip_Angled_1X03))
      (fields
        (field (name Reference) P)
        (field (name Value) CONN_01X03))
      (pins
        (pin (num 1) (name P1) (type passive))
        (pin (num 2) (name P2) (type passive))
        (pin (num 3) (name P3) (type passive))))
    (libpart (lib conn) (part CONN_01X10)
      (description "Connector, single row, 01x10")
      (footprints
        (fp Pin_Header_Straight_1X10)
        (fp Pin_Header_Angled_1X10)
        (fp Socket_Strip_Straight_1X10)
        (fp Socket_Strip_Angled_1X10))
      (fields
        (field (name Reference) P)
        (field (name Value) CONN_01X10))
      (pins
        (pin (num 1) (name P1) (type passive))
        (pin (num 2) (name P2) (type passive))
        (pin (num 3) (name P3) (type passive))
        (pin (num 4) (name P4) (type passive))
        (pin (num 5) (name P5) (type passive))
        (pin (num 6) (name P6) (type passive))
        (pin (num 7) (name P7) (type passive))
        (pin (num 8) (name P8) (type passive))
        (pin (num 9) (name P9) (type passive))
        (pin (num 10) (name P10) (type passive))))
    (libpart (lib device) (part D_Schottky)
      (description "Schottky diode")
      (footprints
        (fp Diode_*)
        (fp D-*)
        (fp *SingleDiode)
        (fp *_Diode_*)
        (fp *SingleDiode*)
        (fp D_*))
      (fields
        (field (name Reference) D)
        (field (name Value) D_Schottky))
      (pins
        (pin (num 1) (name K) (type passive))
        (pin (num 2) (name A) (type passive))))
    (libpart (lib ESP32-footprints-Shem-Lib) (part ESP-32S)
      (fields
        (field (name Reference) U)
        (field (name Value) ESP-32S)
        (field (name Footprint) ESP32-footprints-Lib:ESP-32S))
      (pins
        (pin (num 1) (name GND) (type power_out))
        (pin (num 2) (name 3V3) (type power_in))
        (pin (num 3) (name EN) (type input))
        (pin (num 4) (name SENSOR_VP) (type input))
        (pin (num 5) (name SENSOR_VN) (type input))
        (pin (num 6) (name IO34) (type BiDi))
        (pin (num 7) (name IO35) (type BiDi))
        (pin (num 8) (name IO32) (type BiDi))
        (pin (num 9) (name IO33) (type BiDi))
        (pin (num 10) (name IO25) (type BiDi))
        (pin (num 11) (name IO26) (type BiDi))
        (pin (num 12) (name IO27) (type BiDi))
        (pin (num 13) (name IO14) (type BiDi))
        (pin (num 14) (name IO12) (type BiDi))
        (pin (num 15) (name GND) (type power_in))
        (pin (num 16) (name IO13) (type BiDi))
        (pin (num 17) (name SD2) (type BiDi))
        (pin (num 18) (name SD3) (type BiDi))
        (pin (num 19) (name CMD) (type BiDi))
        (pin (num 20) (name CLK) (type input))
        (pin (num 21) (name SDO) (type BiDi))
        (pin (num 22) (name SD1) (type BiDi))
        (pin (num 23) (name IO15) (type BiDi))
        (pin (num 24) (name IO2) (type BiDi))
        (pin (num 25) (name IO0) (type BiDi))
        (pin (num 26) (name IO4) (type input))
        (pin (num 27) (name IO16) (type BiDi))
        (pin (num 28) (name IO17) (type BiDi))
        (pin (num 29) (name IO5) (type BiDi))
        (pin (num 30) (name IO18) (type input))
        (pin (num 31) (name IO19) (type BiDi))
        (pin (num 32) (name NC) (type NotConnected))
        (pin (num 33) (name IO21) (type BiDi))
        (pin (num 34) (name RXD0) (type BiDi))
        (pin (num 35) (name TXD0) (type BiDi))
        (pin (num 36) (name IO22) (type BiDi))
        (pin (num 37) (name IO23) (type BiDi))
        (pin (num 38) (name GND) (type power_in))
        (pin (num 39) (name GND-PAD) (type power_in))))
    (libpart (lib ft232rl) (part FT232RL)
      (fields
        (field (name Reference) U)
        (field (name Value) FT232RL))
      (pins
        (pin (num 1) (name TXD) (type output))
        (pin (num 2) (name nDTR) (type output))
        (pin (num 3) (name nRTS) (type output))
        (pin (num 4) (name VCCIO) (type power_in))
        (pin (num 5) (name RXD) (type input))
        (pin (num 6) (name nRI) (type input))
        (pin (num 7) (name GND) (type power_in))
        (pin (num 9) (name nDRS) (type input))
        (pin (num 10) (name nDCD) (type input))
        (pin (num 11) (name nCTS) (type input))
        (pin (num 12) (name CBUS4) (type BiDi))
        (pin (num 13) (name CBUS2) (type BiDi))
        (pin (num 14) (name CBUS3) (type BiDi))
        (pin (num 15) (name USBDP) (type BiDi))
        (pin (num 16) (name USBDM) (type BiDi))
        (pin (num 17) (name 3V3OUT) (type power_out))
        (pin (num 18) (name GND) (type power_in))
        (pin (num 19) (name nRESET) (type input))
        (pin (num 20) (name VCC) (type power_in))
        (pin (num 21) (name GND) (type power_in))
        (pin (num 22) (name CBUS1) (type BiDi))
        (pin (num 23) (name CBUS0) (type BiDi))
        (pin (num 25) (name AGND) (type power_in))
        (pin (num 26) (name TEST) (type input))
        (pin (num 27) (name OSCI) (type input))
        (pin (num 28) (name OSCO) (type output))))
    (libpart (lib device) (part LED)
      (description "LED generic")
      (footprints
        (fp LED*))
      (fields
        (field (name Reference) D)
        (field (name Value) LED))
      (pins
        (pin (num 1) (name K) (type passive))
        (pin (num 2) (name A) (type passive))))
    (libpart (lib regul) (part LM1117-ADJ)
      (aliases
        (alias LM1117-1.8)
        (alias LM1117-2.5)
        (alias LM1117-3.3)
        (alias LM1117-5.0))
      (description "800mA Low-Dropout Linear Regulator, adjustable output")
      (docs http://www.ti.com/lit/ds/symlink/lm1117.pdf)
      (footprints
        (fp SOT-223*)
        (fp TO-263*)
        (fp TO-252*))
      (fields
        (field (name Reference) U)
        (field (name Value) LM1117-ADJ))
      (pins
        (pin (num 1) (name GND/ADJ) (type power_in))
        (pin (num 2) (name VO) (type power_out))
        (pin (num 3) (name VI) (type power_in))
        (pin (num 4) (name VO) (type power_out))))
    (libpart (lib device) (part R)
      (description Resistor)
      (footprints
        (fp R_*)
        (fp Resistor_*))
      (fields
        (field (name Reference) R)
        (field (name Value) R))
      (pins
        (pin (num 1) (name ~) (type passive))
        (pin (num 2) (name ~) (type passive))))
    (libpart (lib switches) (part SW_Push)
      (description "Push button switch, generic, two pins")
      (fields
        (field (name Reference) SW)
        (field (name Value) SW_Push))
      (pins
        (pin (num 1) (name 1) (type passive))
        (pin (num 2) (name 2) (type passive))))
    (libpart (lib switches) (part SW_SPST)
      (description "Single Pole Single Throw (SPST) switch")
      (fields
        (field (name Reference) SW)
        (field (name Value) SW_SPST))
      (pins
        (pin (num 1) (name A) (type input))
        (pin (num 2) (name B) (type input))))
    (libpart (lib device) (part Speaker)
      (description "speaker ")
      (fields
        (field (name Reference) LS)
        (field (name Value) Speaker))
      (pins
        (pin (num 1) (name 1) (type input))
        (pin (num 2) (name 2) (type input))))
    (libpart (lib touch) (part Touch)
      (fields
        (field (name Reference) T)
        (field (name Value) Touch))
      (pins
        (pin (num 1) (name ~) (type input))
        (pin (num 2) (name ~) (type input))
        (pin (num 3) (name ~) (type input))
        (pin (num 4) (name ~) (type input))))
    (libpart (lib conn) (part USB_OTG)
      (description "USB micro/mini connector")
      (footprints
        (fp USB*))
      (fields
        (field (name Reference) P)
        (field (name Value) USB_OTG))
      (pins
        (pin (num 1) (name VBUS) (type power_out))
        (pin (num 2) (name D-) (type passive))
        (pin (num 3) (name D+) (type passive))
        (pin (num 4) (name ID) (type power_in))
        (pin (num 5) (name GND) (type power_in))
        (pin (num 6) (name shield) (type passive))))
    (libpart (lib dc_motor) (part dc_motor)
      (fields
        (field (name Reference) M)
        (field (name Value) dc_motor))
      (pins
        (pin (num 1) (name ~) (type input))
        (pin (num 2) (name ~) (type input))))
    (libpart (lib tft_14pin) (part tft_display)
      (fields
        (field (name Reference) U)
        (field (name Value) tft_display))
      (pins
        (pin (num 1) (name GND) (type input))
        (pin (num 2) (name RESET) (type input))
        (pin (num 3) (name SCL) (type input))
        (pin (num 4) (name D/CX) (type input))
        (pin (num 5) (name CSX) (type input))
        (pin (num 6) (name SDI) (type input))
        (pin (num 7) (name SDO) (type input))
        (pin (num 8) (name GND) (type input))
        (pin (num 9) (name VCC) (type input))
        (pin (num 10) (name LED_A) (type input))
        (pin (num 11) (name LED_K1) (type input))
        (pin (num 12) (name LED_K2) (type input))
        (pin (num 13) (name LED_K3) (type input))
        (pin (num 14) (name LED_K4) (type input)))))
  (libraries
    (library (logical conn)
      (uri "C:\\Program Files\\KiCad\\share\\kicad\\library\\conn.lib"))
    (library (logical ESP32-footprints-Shem-Lib)
      (uri "C:\\Users\\matti\\Desktop\\Maug\\Technique\\Hardware\\MVP\\MVP without battery\\lib\\ESP32-kiCAD-Footprints-master\\ESP32-Footprints\\ESP32-footprints-Shem-Lib.lib"))
    (library (logical regul)
      (uri "C:\\Program Files\\KiCad\\share\\kicad\\library\\regul.lib"))
    (library (logical ft232rl)
      (uri C:\Users\matti\Desktop\Maug\Technique\Hardware\Libs\ft232rl.lib))
    (library (logical dc_motor)
      (uri "C:\\Users\\matti\\Desktop\\Maug\\Technique\\Hardware\\MVP\\MVP without battery\\lib\\dc_motor.lib"))
    (library (logical touch)
      (uri "C:\\Users\\matti\\Desktop\\Maug\\Technique\\Hardware\\MVP\\MVP without battery\\lib\\touch.lib"))
    (library (logical switches)
      (uri "C:\\Program Files\\KiCad\\share\\kicad\\library\\switches.lib"))
    (library (logical tft_14pin)
      (uri "C:\\Users\\matti\\Desktop\\Maug\\Technique\\Hardware\\MVP\\MVP without battery\\lib\\tft_14pin.lib"))
    (library (logical transistors)
      (uri "C:\\Program Files\\KiCad\\share\\kicad\\library\\transistors.lib"))
    (library (logical device)
      (uri "C:\\Program Files\\KiCad\\share\\kicad\\library\\device.lib")))
  (nets
    (net (code 1) (name RESETtft)
      (node (ref P1) (pin 2))
      (node (ref U3) (pin 27))
      (node (ref U7) (pin 2)))
    (net (code 2) (name MOSI)
      (node (ref U3) (pin 37))
      (node (ref P1) (pin 6))
      (node (ref U7) (pin 6)))
    (net (code 3) (name SCK)
      (node (ref U3) (pin 30))
      (node (ref P1) (pin 3))
      (node (ref U7) (pin 3)))
    (net (code 4) (name D/C)
      (node (ref U7) (pin 4))
      (node (ref P1) (pin 4))
      (node (ref U3) (pin 28)))
    (net (code 5) (name SS)
      (node (ref P1) (pin 5))
      (node (ref U7) (pin 5))
      (node (ref U3) (pin 29)))
    (net (code 6) (name MISO)
      (node (ref P1) (pin 7))
      (node (ref U7) (pin 7))
      (node (ref U3) (pin 31)))
    (net (code 7) (name ESP_TX)
      (node (ref U1) (pin 5))
      (node (ref U3) (pin 35))
      (node (ref P3) (pin 2)))
    (net (code 8) (name GND)
      (node (ref U3) (pin 15))
      (node (ref U7) (pin 8))
      (node (ref U7) (pin 11))
      (node (ref U7) (pin 12))
      (node (ref U7) (pin 13))
      (node (ref U7) (pin 14))
      (node (ref SW2) (pin 1))
      (node (ref SW3) (pin 2))
      (node (ref U1) (pin 7))
      (node (ref P4) (pin 6))
      (node (ref P4) (pin 5))
      (node (ref P2) (pin 2))
      (node (ref U1) (pin 18))
      (node (ref U1) (pin 26))
      (node (ref U1) (pin 25))
      (node (ref U1) (pin 21))
      (node (ref P3) (pin 1))
      (node (ref U3) (pin 1))
      (node (ref U2) (pin 1))
      (node (ref C4) (pin 2))
      (node (ref U3) (pin 39))
      (node (ref U3) (pin 38))
      (node (ref R5) (pin 1))
      (node (ref R1) (pin 1))
      (node (ref U7) (pin 1))
      (node (ref R4) (pin 1))
      (node (ref R6) (pin 1))
      (node (ref R7) (pin 1))
      (node (ref R13) (pin 1))
      (node (ref Q3) (pin 2))
      (node (ref R8) (pin 1))
      (node (ref C1) (pin 1))
      (node (ref D1) (pin 1))
      (node (ref LS1) (pin 2))
      (node (ref R14) (pin 2))
      (node (ref R12) (pin 2))
      (node (ref C6) (pin 2))
      (node (ref R10) (pin 2))
      (node (ref C5) (pin 2))
      (node (ref P1) (pin 1))
      (node (ref P1) (pin 8))
      (node (ref D2) (pin 1))
      (node (ref D3) (pin 1)))
    (net (code 9) (name +3V3)
      (node (ref R2) (pin 2))
      (node (ref M1) (pin 2))
      (node (ref P1) (pin 9))
      (node (ref P2) (pin 1))
      (node (ref U7) (pin 9))
      (node (ref U2) (pin 2))
      (node (ref U2) (pin 4))
      (node (ref R3) (pin 1))
      (node (ref U3) (pin 2))
      (node (ref D4) (pin 1))
      (node (ref C3) (pin 2))
      (node (ref Q2) (pin 3))
      (node (ref SW8) (pin 1))
      (node (ref SW5) (pin 1))
      (node (ref R9) (pin 1))
      (node (ref SW4) (pin 1))
      (node (ref SW1) (pin 1))
      (node (ref SW6) (pin 1))
      (node (ref C6) (pin 1))
      (node (ref C1) (pin 2))
      (node (ref R11) (pin 1))
      (node (ref SW7) (pin 1)))
    (net (code 10) (name "Net-(Q3-Pad1)")
      (node (ref U3) (pin 33))
      (node (ref R14) (pin 1))
      (node (ref Q3) (pin 1)))
    (net (code 11) (name "Net-(D1-Pad2)")
      (node (ref D1) (pin 2))
      (node (ref U3) (pin 23)))
    (net (code 12) (name "Net-(C2-Pad2)")
      (node (ref LS1) (pin 1))
      (node (ref C2) (pin 2)))
    (net (code 13) (name "Net-(Q1-Pad2)")
      (node (ref Q1) (pin 2))
      (node (ref R12) (pin 1)))
    (net (code 14) (name /speaker_esp32)
      (node (ref U3) (pin 10))
      (node (ref R9) (pin 2))
      (node (ref R10) (pin 1))
      (node (ref Q1) (pin 1)))
    (net (code 15) (name "Net-(U1-Pad13)")
      (node (ref U1) (pin 13)))
    (net (code 16) (name "Net-(U1-Pad28)")
      (node (ref U1) (pin 28)))
    (net (code 17) (name "Net-(U1-Pad27)")
      (node (ref U1) (pin 27)))
    (net (code 18) (name "Net-(U1-Pad19)")
      (node (ref U1) (pin 19)))
    (net (code 19) (name "Net-(U1-Pad12)")
      (node (ref U1) (pin 12)))
    (net (code 20) (name "Net-(U1-Pad14)")
      (node (ref U1) (pin 14)))
    (net (code 21) (name "Net-(U1-Pad22)")
      (node (ref U1) (pin 22)))
    (net (code 22) (name "Net-(U1-Pad23)")
      (node (ref U1) (pin 23)))
    (net (code 23) (name "Net-(U1-Pad6)")
      (node (ref U1) (pin 6)))
    (net (code 24) (name "Net-(U1-Pad10)")
      (node (ref U1) (pin 10)))
    (net (code 25) (name "Net-(U1-Pad9)")
      (node (ref U1) (pin 9)))
    (net (code 26) (name "Net-(U1-Pad2)")
      (node (ref U1) (pin 2)))
    (net (code 27) (name "Net-(U1-Pad11)")
      (node (ref U1) (pin 11)))
    (net (code 28) (name "Net-(U1-Pad3)")
      (node (ref U1) (pin 3)))
    (net (code 29) (name "Net-(U3-Pad11)")
      (node (ref U3) (pin 11)))
    (net (code 30) (name "Net-(D3-Pad2)")
      (node (ref D3) (pin 2))
      (node (ref U3) (pin 26)))
    (net (code 31) (name "Net-(D2-Pad2)")
      (node (ref U3) (pin 24))
      (node (ref D2) (pin 2)))
    (net (code 32) (name "Net-(R8-Pad2)")
      (node (ref SW8) (pin 2))
      (node (ref U3) (pin 4))
      (node (ref R8) (pin 2)))
    (net (code 33) (name "Net-(C2-Pad1)")
      (node (ref C2) (pin 1))
      (node (ref R11) (pin 2))
      (node (ref Q1) (pin 3)))
    (net (code 34) (name "Net-(T1-Pad3)")
      (node (ref T1) (pin 3))
      (node (ref U3) (pin 14)))
    (net (code 35) (name "Net-(T1-Pad2)")
      (node (ref U3) (pin 13))
      (node (ref T1) (pin 2)))
    (net (code 36) (name "Net-(T1-Pad1)")
      (node (ref T1) (pin 1))
      (node (ref U3) (pin 12)))
    (net (code 37) (name "Net-(T1-Pad4)")
      (node (ref U3) (pin 16))
      (node (ref T1) (pin 4)))
    (net (code 38) (name "Net-(C4-Pad1)")
      (node (ref U1) (pin 17))
      (node (ref C4) (pin 1))
      (node (ref U1) (pin 4)))
    (net (code 39) (name "Net-(P4-Pad3)")
      (node (ref P4) (pin 3))
      (node (ref U1) (pin 15)))
    (net (code 40) (name "Net-(P4-Pad2)")
      (node (ref U1) (pin 16))
      (node (ref P4) (pin 2)))
    (net (code 41) (name "Net-(C3-Pad1)")
      (node (ref C3) (pin 1))
      (node (ref Q3) (pin 3))
      (node (ref M1) (pin 1))
      (node (ref D4) (pin 2)))
    (net (code 42) (name /tft_led+)
      (node (ref Q2) (pin 2))
      (node (ref U7) (pin 10))
      (node (ref P1) (pin 10)))
    (net (code 43) (name "Net-(R3-Pad2)")
      (node (ref R3) (pin 2))
      (node (ref SW2) (pin 2))
      (node (ref U3) (pin 3)))
    (net (code 44) (name "Net-(U3-Pad21)")
      (node (ref U3) (pin 21)))
    (net (code 45) (name "Net-(P4-Pad4)")
      (node (ref P4) (pin 4)))
    (net (code 46) (name +5V)
      (node (ref U1) (pin 20))
      (node (ref P4) (pin 1))
      (node (ref U2) (pin 3))
      (node (ref C5) (pin 1)))
    (net (code 47) (name "Net-(U3-Pad22)")
      (node (ref U3) (pin 22)))
    (net (code 48) (name "Net-(U3-Pad20)")
      (node (ref U3) (pin 20)))
    (net (code 49) (name "Net-(U3-Pad19)")
      (node (ref U3) (pin 19)))
    (net (code 50) (name "Net-(U3-Pad18)")
      (node (ref U3) (pin 18)))
    (net (code 51) (name "Net-(U3-Pad17)")
      (node (ref U3) (pin 17)))
    (net (code 52) (name "Net-(R2-Pad1)")
      (node (ref R2) (pin 1))
      (node (ref SW3) (pin 1))
      (node (ref U3) (pin 25)))
    (net (code 53) (name ESP_RX)
      (node (ref P3) (pin 3))
      (node (ref U1) (pin 1))
      (node (ref U3) (pin 34)))
    (net (code 54) (name "Net-(U3-Pad32)")
      (node (ref U3) (pin 32)))
    (net (code 55) (name "Net-(R5-Pad2)")
      (node (ref U3) (pin 9))
      (node (ref R5) (pin 2))
      (node (ref SW5) (pin 2)))
    (net (code 56) (name "Net-(R1-Pad2)")
      (node (ref U3) (pin 7))
      (node (ref R1) (pin 2))
      (node (ref SW1) (pin 2)))
    (net (code 57) (name "Net-(R4-Pad2)")
      (node (ref U3) (pin 8))
      (node (ref R4) (pin 2))
      (node (ref SW4) (pin 2)))
    (net (code 58) (name "Net-(R6-Pad2)")
      (node (ref SW6) (pin 2))
      (node (ref R6) (pin 2))
      (node (ref U3) (pin 6)))
    (net (code 59) (name "Net-(R7-Pad2)")
      (node (ref U3) (pin 5))
      (node (ref SW7) (pin 2))
      (node (ref R7) (pin 2)))
    (net (code 60) (name "Net-(Q2-Pad1)")
      (node (ref R13) (pin 2))
      (node (ref U3) (pin 36))
      (node (ref Q2) (pin 1)))))