(module LOGO (layer F.Cu)
  (at 0 0)
 (fp_text reference "G***" (at 0 0) (layer F.SilkS) hide
  (effects (font (thickness 0.3)))
  )
  (fp_text value "LOGO" (at 0.75 0) (layer F.SilkS) hide
  (effects (font (thickness 0.3)))
  )
  (fp_poly (pts (xy 93.251749 65.897902) (xy -93.074125 65.897902) (xy -93.074125 16.608314) (xy -73.303452 16.608314) (xy -73.279246 16.732648) (xy -73.020466 16.791240) (xy -72.469317 16.857972) (xy -71.688467 16.928891)
     (xy -70.740585 17.000042) (xy -69.688342 17.067472) (xy -68.594405 17.127226) (xy -67.521444 17.175349) (xy -66.532127 17.207889) (xy -65.689126 17.220890) (xy -65.542657 17.220794) (xy -64.646067 17.192771)
     (xy -63.738221 17.124258) (xy -62.976954 17.028273) (xy -62.789510 16.993762) (xy -61.723776 16.773655) (xy -61.084213 15.180883) (xy -60.822409 14.519428) (xy -60.465923 13.605262) (xy -60.045532 12.518030)
     (xy -59.592013 11.337374) (xy -59.136142 10.142938) (xy -59.061615 9.946853) (xy -58.627014 8.810268) (xy -58.206153 7.723551) (xy -57.825061 6.752859) (xy -57.509767 5.964351) (xy -57.286298 5.424186)
     (xy -57.244712 5.328671) (xy -56.810845 4.351748) (xy -56.401450 5.151049) (xy -56.114025 5.748335) (xy -55.712807 6.635618) (xy -55.215005 7.772684) (xy -54.637825 9.119320) (xy -53.998475 10.635313)
     (xy -53.314162 12.280452) (xy -52.602094 14.014521) (xy -52.470100 14.338406) (xy -52.041975 15.367436) (xy -51.644246 16.281018) (xy -51.300310 17.028734) (xy -51.033568 17.560167) (xy -50.867417 17.824898)
     (xy -50.843149 17.843993) (xy -50.601257 17.871747) (xy -50.060184 17.897524) (xy -49.275996 17.919838) (xy -48.304755 17.937206) (xy -47.202526 17.948142) (xy -46.839774 17.950007) (xy -45.138360 17.942054)
     (xy -43.757477 17.900980) (xy -42.663663 17.823420) (xy -41.823452 17.706014) (xy -41.203381 17.545398) (xy -40.773430 17.340474) (xy -40.599876 17.126449) (xy -40.287539 16.638111) (xy -39.860298 15.916965)
     (xy -39.342033 15.004514) (xy -38.756625 13.942262) (xy -38.127952 12.771712) (xy -37.938522 12.413304) (xy -37.009283 10.650694) (xy -36.230400 9.178999) (xy -35.588132 7.974060) (xy -35.068739 7.011716)
     (xy -34.658483 6.267810) (xy -34.343623 5.718182) (xy -34.110420 5.338671) (xy -33.945133 5.105120) (xy -33.834024 4.993369) (xy -33.763352 4.979258) (xy -33.730668 5.014389) (xy -33.658811 5.231080)
     (xy -33.506923 5.752880) (xy -33.285566 6.541398) (xy -33.005304 7.558243) (xy -32.676698 8.765024) (xy -32.310314 10.123352) (xy -31.916712 11.594834) (xy -31.816831 11.970117) (xy -31.421002 13.455122)
     (xy -31.052793 14.829349) (xy -30.722295 16.055677) (xy -30.439596 17.096986) (xy -30.214785 17.916156) (xy -30.057953 18.476067) (xy -29.979189 18.739598) (xy -29.972646 18.755092) (xy -29.787158 18.777945)
     (xy -29.298313 18.811442) (xy -28.557747 18.852790) (xy -27.617092 18.899193) (xy -26.527985 18.947858) (xy -26.015957 18.969229) (xy -24.847237 19.017356) (xy -23.775494 19.062199) (xy -22.859679 19.101235)
     (xy -22.158742 19.131940) (xy -21.731636 19.151792) (xy -21.653937 19.155933) (xy -21.265499 19.125550) (xy -20.654260 19.020388) (xy -19.939453 18.861641) (xy -19.795339 18.825528) (xy -19.125299 18.641485)
     (xy -18.589927 18.470903) (xy -18.282266 18.344135) (xy -18.250536 18.321585) (xy -18.251587 18.111746) (xy -18.345783 17.621331) (xy -18.519181 16.908484) (xy -18.757838 16.031347) (xy -18.989432 15.240304)
     (xy -19.230126 14.434005) (xy -19.553208 13.339301) (xy -19.943199 12.009281) (xy -20.384615 10.497039) (xy -20.861976 8.855663) (xy -21.359800 7.138247) (xy -21.862605 5.397880) (xy -22.118536 4.509631)
     (xy -22.621516 2.764904) (xy -23.130408 1.004581) (xy -23.629195 -0.716272) (xy -24.101864 -2.342591) (xy -24.532397 -3.819311) (xy -24.904782 -5.091367) (xy -25.203001 -6.103695) (xy -25.316065 -6.484424)
     (xy -25.778683 -8.044223) (xy -26.229441 -9.579257) (xy -26.655512 -11.044640) (xy -27.044067 -12.395489) (xy -27.382277 -13.586918) (xy -27.657313 -14.574044) (xy -27.856348 -15.311983) (xy -27.885610 -15.429844)
     (xy -26.288112 -15.429844) (xy -26.238021 -15.237373) (xy -26.092729 -14.729932) (xy -25.859710 -13.932636) (xy -25.546437 -12.870598) (xy -25.160381 -11.568934) (xy -24.709015 -10.052757) (xy -24.199813 -8.347181)
     (xy -23.640246 -6.477322) (xy -23.037788 -4.468292) (xy -22.399911 -2.345207) (xy -21.945371 -0.834678) (xy -21.036013 2.185383) (xy -20.223473 4.883634) (xy -19.502130 7.278423) (xy -18.866369 9.388096)
     (xy -18.310569 11.230998) (xy -17.829113 12.825478) (xy -17.416382 14.189880) (xy -17.066759 15.342551) (xy -16.774624 16.301839) (xy -16.534360 17.086089) (xy -16.340349 17.713647) (xy -16.186971 18.202861)
     (xy -16.068610 18.572076) (xy -15.979646 18.839639) (xy -15.914461 19.023897) (xy -15.867438 19.143196) (xy -15.832957 19.215883) (xy -15.805401 19.260303) (xy -15.782343 19.290676) (xy -15.547739 19.364388)
     (xy -14.967802 19.433946) (xy -14.052425 19.498662) (xy -12.811502 19.557849) (xy -11.254927 19.610818) (xy -11.125804 19.614519) (xy -6.621585 19.742091) (xy -5.442261 19.207359) (xy -4.869995 18.938593)
     (xy -4.450835 18.724025) (xy -4.265617 18.605345) (xy -4.262937 18.599169) (xy -4.319146 18.416365) (xy -4.475424 17.952538) (xy -4.713242 17.261530) (xy -5.014073 16.397181) (xy -5.351675 15.435232)
     (xy -5.933594 13.768595) (xy -6.433557 12.306267) (xy -6.843649 11.072656) (xy -7.155954 10.092166) (xy -7.362556 9.389203) (xy -7.455540 8.988172) (xy -7.460139 8.934291) (xy -7.318605 8.751301)
     (xy -6.976741 8.702137) (xy -6.558653 8.775921) (xy -6.188448 8.961777) (xy -6.090532 9.054334) (xy -5.939490 9.293034) (xy -5.649380 9.808655) (xy -5.241536 10.561148) (xy -4.737290 11.510463)
     (xy -4.157977 12.616550) (xy -3.524929 13.839359) (xy -3.086539 14.693844) (xy -2.436054 15.962313) (xy -1.831956 17.132713) (xy -1.294384 18.166612) (xy -0.843480 19.025576) (xy -0.499383 19.671172)
     (xy -0.282233 20.064967) (xy -0.217011 20.169708) (xy 0.006264 20.232728) (xy 0.549627 20.303507) (xy 1.378078 20.379140) (xy 2.456622 20.456725) (xy 3.750259 20.533356) (xy 4.814670 20.587232)
     (xy 6.092245 20.650256) (xy 7.250124 20.712255) (xy 8.241945 20.770352) (xy 9.021345 20.821670) (xy 9.541959 20.863333) (xy 9.757427 20.892466) (xy 9.759953 20.894026) (xy 9.900952 20.925334)
     (xy 10.175501 20.825356) (xy 10.636952 20.568606) (xy 11.275704 20.169926) (xy 11.799352 19.819021) (xy 12.071199 19.573294) (xy 12.147373 19.360784) (xy 12.090219 19.125696) (xy 11.959748 18.854266)
     (xy 11.681364 18.323211) (xy 11.281956 17.582166) (xy 10.788411 16.680771) (xy 10.227617 15.668662) (xy 9.899113 15.080750) (xy 9.193109 13.814098) (xy 8.428481 12.430476) (xy 7.662285 11.033916)
     (xy 6.951576 9.728450) (xy 6.353410 8.618111) (xy 6.304146 8.525874) (xy 5.398468 6.837097) (xy 4.352846 4.902022) (xy 3.201821 2.783789) (xy 1.979937 0.545539) (xy 0.721736 -1.749587)
     (xy -0.538238 -4.038449) (xy -1.765444 -6.257905) (xy -2.925339 -8.344815) (xy -2.927255 -8.348252) (xy -3.812873 -9.936655) (xy -4.542365 -11.243745) (xy -5.132597 -12.298490) (xy -5.600437 -13.129854)
     (xy -5.962750 -13.766804) (xy -6.236403 -14.238305) (xy -6.429479 -14.558748) (xy -4.742631 -14.558748) (xy -4.741721 -14.555029) (xy -4.634588 -14.331828) (xy -4.367744 -13.841013) (xy -3.962797 -13.120460)
     (xy -3.441354 -12.208042) (xy -2.825022 -11.141635) (xy -2.135410 -9.959113) (xy -1.589781 -9.030132) (xy -0.825812 -7.727639) (xy 0.075683 -6.181231) (xy 1.077054 -4.456042) (xy 2.140652 -2.617208)
     (xy 3.228829 -0.729865) (xy 4.303934 1.140852) (xy 5.328319 2.929808) (xy 5.734458 3.641258) (xy 6.628468 5.207286) (xy 7.506326 6.741898) (xy 8.344744 8.204600) (xy 9.120434 9.554893)
     (xy 9.810109 10.752282) (xy 10.390480 11.756271) (xy 10.838258 12.526361) (xy 11.097014 12.966433) (xy 11.672371 13.946267) (xy 12.315430 15.059582) (xy 12.929102 16.137587) (xy 13.238785 16.689983)
     (xy 14.131926 18.165747) (xy 15.001400 19.323150) (xy 15.878063 20.194865) (xy 16.792769 20.813567) (xy 17.386579 21.082193) (xy 18.023592 21.216967) (xy 18.898643 21.261150) (xy 19.908032 21.221172)
     (xy 20.948057 21.103464) (xy 21.915019 20.914456) (xy 22.414238 20.770429) (xy 23.841150 20.209621) (xy 25.461463 19.434761) (xy 27.216889 18.482498) (xy 29.049138 17.389482) (xy 30.899923 16.192360)
     (xy 32.710954 14.927782) (xy 34.423942 13.632397) (xy 35.980598 12.342854) (xy 36.375565 11.992283) (xy 37.040377 11.341922) (xy 37.483977 10.747790) (xy 37.756185 10.100882) (xy 37.906824 9.292194)
     (xy 37.970656 8.502359) (xy 38.004620 7.722313) (xy 37.985579 7.166658) (xy 37.892135 6.705950) (xy 37.702892 6.210744) (xy 37.529268 5.832172) (xy 37.291259 5.372035) (xy 36.895903 4.662306)
     (xy 36.363295 3.735924) (xy 35.713533 2.625831) (xy 34.966715 1.364966) (xy 34.142937 -0.013730) (xy 33.262296 -1.477316) (xy 32.344891 -2.992851) (xy 31.410817 -4.527396) (xy 30.480173 -6.048008)
     (xy 30.251967 -6.418762) (xy 32.370460 -6.418762) (xy 32.484896 -5.758187) (xy 32.613993 -5.462871) (xy 32.908455 -4.896985) (xy 33.349391 -4.093683) (xy 33.917911 -3.086120) (xy 34.595123 -1.907450)
     (xy 35.362136 -0.590825) (xy 36.200058 0.830598) (xy 37.089141 2.322237) (xy 38.437723 4.574885) (xy 39.634898 6.580373) (xy 40.713824 8.395076) (xy 41.707661 10.075370) (xy 42.649567 11.677632)
     (xy 43.572700 13.258237) (xy 44.510219 14.873561) (xy 45.495283 16.579981) (xy 46.379411 18.117482) (xy 46.905608 19.012667) (xy 47.406514 19.826500) (xy 47.841718 20.496113) (xy 48.170809 20.958635)
     (xy 48.307858 21.117673) (xy 49.223885 21.770867) (xy 50.406013 22.285168) (xy 51.789277 22.650510) (xy 53.308718 22.856830) (xy 54.899371 22.894062) (xy 56.496276 22.752143) (xy 57.548085 22.549252)
     (xy 60.060820 21.777284) (xy 62.370094 20.716797) (xy 64.469340 19.372307) (xy 66.351994 17.748331) (xy 68.011489 15.849383) (xy 68.704044 14.875874) (xy 69.074910 14.322309) (xy 69.359049 13.904530)
     (xy 69.509017 13.692071) (xy 69.520816 13.678766) (xy 69.687257 13.727522) (xy 70.126555 13.858829) (xy 70.771489 14.052538) (xy 71.537538 14.283281) (xy 72.324499 14.508163) (xy 72.979902 14.671943)
     (xy 73.434202 14.758861) (xy 73.617115 14.754567) (xy 73.661445 14.532695) (xy 73.717517 14.036186) (xy 73.777254 13.345094) (xy 73.819397 12.750365) (xy 73.940478 10.877550) (xy 71.628354 6.637726)
     (xy 70.982804 5.450636) (xy 70.363206 4.305106) (xy 69.799220 3.256441) (xy 69.320502 2.359943) (xy 68.956710 1.670918) (xy 68.754951 1.279631) (xy 68.442292 0.709056) (xy 68.155665 0.275465)
     (xy 67.955633 0.070149) (xy 67.951390 0.068389) (xy 67.715368 0.131075) (xy 67.198509 0.383279) (xy 66.414974 0.816588) (xy 65.378924 1.422589) (xy 64.104518 2.192873) (xy 62.605918 3.119027)
     (xy 60.897283 4.192639) (xy 59.325875 5.192176) (xy 58.389641 5.793297) (xy 57.702097 6.249413) (xy 57.212137 6.606095) (xy 56.868652 6.908915) (xy 56.620535 7.203446) (xy 56.416679 7.535261)
     (xy 56.205977 7.949931) (xy 56.184866 7.993007) (xy 55.906753 8.570052) (xy 55.701259 9.013919) (xy 55.609029 9.236568) (xy 55.607593 9.243335) (xy 55.760460 9.334546) (xy 56.185426 9.512159)
     (xy 56.817459 9.750581) (xy 57.591529 10.024219) (xy 57.594056 10.025087) (xy 58.388068 10.304258) (xy 59.059773 10.552795) (xy 59.536835 10.743099) (xy 59.745030 10.845802) (xy 59.785347 11.087538)
     (xy 59.617397 11.450548) (xy 59.312137 11.836490) (xy 58.940528 12.147024) (xy 58.731200 12.250874) (xy 57.661718 12.453539) (xy 56.600599 12.347017) (xy 55.624781 11.955560) (xy 54.811200 11.303416)
     (xy 54.511449 10.920821) (xy 54.339641 10.634536) (xy 54.016868 10.068172) (xy 53.560940 9.254243) (xy 52.989668 8.225261) (xy 52.320863 7.013738) (xy 51.572335 5.652188) (xy 50.761896 4.173124)
     (xy 49.907356 2.609058) (xy 49.026526 0.992503) (xy 48.137218 -0.644029) (xy 47.257241 -2.268024) (xy 46.404407 -3.846969) (xy 45.596527 -5.348353) (xy 45.475915 -5.573076) (xy 44.967635 -6.585356)
     (xy 44.660717 -7.383523) (xy 44.542996 -8.037375) (xy 44.602305 -8.616708) (xy 44.826480 -9.191319) (xy 44.840495 -9.218659) (xy 45.398908 -10.049395) (xy 46.192858 -10.899265) (xy 47.122972 -11.668933)
     (xy 47.627266 -12.004375) (xy 47.752210 -12.087966) (xy 49.379021 -12.087966) (xy 49.491232 -11.907820) (xy 49.782874 -11.554789) (xy 50.119632 -11.182352) (xy 51.174627 -9.871035) (xy 51.920681 -8.503838)
     (xy 52.222215 -7.680089) (xy 52.432071 -7.040947) (xy 52.632449 -6.496325) (xy 52.760046 -6.205200) (xy 53.102288 -5.810756) (xy 53.623917 -5.443319) (xy 54.170780 -5.199092) (xy 54.448123 -5.151713)
     (xy 54.717450 -5.224042) (xy 55.250723 -5.425747) (xy 55.991257 -5.733256) (xy 56.882364 -6.122998) (xy 57.867359 -6.571399) (xy 57.911759 -6.592011) (xy 59.423132 -7.317963) (xy 60.614142 -7.944878)
     (xy 61.502065 -8.484171) (xy 62.104178 -8.947255) (xy 62.437756 -9.345542) (xy 62.523077 -9.638529) (xy 62.437677 -9.965361) (xy 62.211105 -10.494235) (xy 61.887802 -11.124298) (xy 61.797640 -11.284811)
     (xy 61.072202 -12.552712) (xy 57.490297 -12.760516) (xy 56.340924 -12.824977) (xy 55.260917 -12.881449) (xy 54.319990 -12.926605) (xy 53.587856 -12.957112) (xy 53.134226 -12.969643) (xy 53.109091 -12.969776)
     (xy 52.643342 -12.932275) (xy 52.013288 -12.831901) (xy 51.304097 -12.688788) (xy 50.600938 -12.523071) (xy 49.988980 -12.354883) (xy 49.553391 -12.204360) (xy 49.379340 -12.091635) (xy 49.379021 -12.087966)
     (xy 47.752210 -12.087966) (xy 48.260994 -12.428355) (xy 48.588606 -12.760507) (xy 48.634317 -13.039700) (xy 48.432312 -13.296604) (xy 48.170842 -13.367335) (xy 47.573526 -13.434140) (xy 46.659754 -13.495759)
     (xy 45.448916 -13.550931) (xy 43.960399 -13.598394) (xy 43.680913 -13.605610) (xy 42.280569 -13.638993) (xy 41.178846 -13.658908) (xy 40.319284 -13.662726) (xy 39.645425 -13.647818) (xy 39.100810 -13.611557)
     (xy 38.628980 -13.551313) (xy 38.173476 -13.464458) (xy 37.677839 -13.348363) (xy 37.567133 -13.320957) (xy 36.583795 -13.061346) (xy 35.865541 -12.820674) (xy 35.328258 -12.552619) (xy 34.887833 -12.210856)
     (xy 34.460151 -11.749061) (xy 34.255161 -11.496947) (xy 33.380899 -10.212274) (xy 32.764659 -8.902990) (xy 32.422495 -7.621138) (xy 32.370460 -6.418762) (xy 30.251967 -6.418762) (xy 29.573055 -7.521749)
     (xy 28.709561 -8.915676) (xy 27.909787 -10.196851) (xy 27.193831 -11.332331) (xy 26.581791 -12.289176) (xy 26.093762 -13.034447) (xy 25.749843 -13.535201) (xy 25.585701 -13.744117) (xy 25.394939 -13.883598)
     (xy 25.097259 -13.991688) (xy 24.633989 -14.078679) (xy 23.946456 -14.154861) (xy 22.975987 -14.230525) (xy 22.707943 -14.248845) (xy 21.774243 -14.297207) (xy 20.685853 -14.330206) (xy 19.496546 -14.348632)
     (xy 18.260093 -14.353275) (xy 17.030267 -14.344923) (xy 15.860840 -14.324366) (xy 14.805585 -14.292392) (xy 13.918274 -14.249792) (xy 13.252680 -14.197354) (xy 12.862574 -14.135867) (xy 12.788856 -14.103261)
     (xy 12.811116 -13.888261) (xy 13.010686 -13.410117) (xy 13.370997 -12.703357) (xy 13.875480 -11.802512) (xy 13.974521 -11.632323) (xy 14.439355 -10.830473) (xy 15.035795 -9.790701) (xy 15.722637 -8.585463)
     (xy 16.458674 -7.287217) (xy 17.202702 -5.968418) (xy 17.761340 -4.973427) (xy 18.478135 -3.695854) (xy 19.213892 -2.388439) (xy 19.928548 -1.122093) (xy 20.582038 0.032276) (xy 21.134297 1.003757)
     (xy 21.474566 1.598601) (xy 22.437650 3.303679) (xy 23.211851 4.743351) (xy 23.808785 5.945467) (xy 24.240067 6.937876) (xy 24.517313 7.748430) (xy 24.652138 8.404978) (xy 24.656159 8.935370)
     (xy 24.618991 9.137910) (xy 24.485947 9.443263) (xy 24.215824 9.570557) (xy 23.839649 9.591608) (xy 22.925273 9.415569) (xy 22.040335 8.893218) (xy 21.296120 8.151595) (xy 21.045703 7.793227)
     (xy 20.659523 7.167757) (xy 20.165278 6.323486) (xy 19.590661 5.308718) (xy 18.963371 4.171754) (xy 18.311100 2.960897) (xy 18.200766 2.753146) (xy 17.406675 1.260523) (xy 16.500302 -0.433553)
     (xy 15.540694 -2.219337) (xy 14.586898 -3.987081) (xy 13.697962 -5.627040) (xy 13.203564 -6.534672) (xy 12.137858 -8.494237) (xy 11.242194 -10.158538) (xy 10.509950 -11.540513) (xy 9.934499 -12.653099)
     (xy 9.509219 -13.509233) (xy 9.227485 -14.121853) (xy 9.082672 -14.503896) (xy 9.058742 -14.629591) (xy 9.024516 -14.755685) (xy 8.897353 -14.857967) (xy 8.640522 -14.940558) (xy 8.217294 -15.007581)
     (xy 7.590939 -15.063158) (xy 6.724727 -15.111410) (xy 5.581928 -15.156460) (xy 4.125813 -15.202431) (xy 3.894318 -15.209190) (xy 2.054250 -15.245127) (xy 0.376771 -15.243423) (xy -1.110776 -15.206151)
     (xy -2.381052 -15.135382) (xy -3.406717 -15.033186) (xy -4.160428 -14.901634) (xy -4.614847 -14.742798) (xy -4.742631 -14.558748) (xy -6.429479 -14.558748) (xy -6.438262 -14.573324) (xy -6.585195 -14.800826)
     (xy -6.694068 -14.949777) (xy -6.781746 -15.049143) (xy -6.865098 -15.127891) (xy -6.885767 -15.146433) (xy -7.024543 -15.223515) (xy -7.279409 -15.292254) (xy -7.683236 -15.355391) (xy -8.268896 -15.415667)
     (xy -9.069259 -15.475822) (xy -10.117197 -15.538599) (xy -11.445581 -15.606736) (xy -13.087281 -15.682977) (xy -13.588112 -15.705288) (xy -15.177411 -15.776025) (xy -16.755160 -15.847035) (xy -18.261109 -15.915549)
     (xy -19.635009 -15.978798) (xy -20.816611 -16.034014) (xy -21.745665 -16.078429) (xy -22.212889 -16.101581) (xy -23.225831 -16.143409) (xy -23.973084 -16.145813) (xy -24.542570 -16.103411) (xy -25.022211 -16.010823)
     (xy -25.365686 -15.908600) (xy -25.874702 -15.710717) (xy -26.209716 -15.525229) (xy -26.288112 -15.429844) (xy -27.885610 -15.429844) (xy -27.966551 -15.755850) (xy -27.968315 -15.763986) (xy -28.108338 -16.156816)
     (xy -28.283439 -16.342108) (xy -28.300476 -16.344187) (xy -28.560667 -16.351918) (xy -29.140524 -16.371742) (xy -30.004723 -16.402347) (xy -31.117938 -16.442422) (xy -32.444845 -16.490658) (xy -33.950118 -16.545743)
     (xy -35.598433 -16.606366) (xy -37.354463 -16.671216) (xy -39.182884 -16.738983) (xy -41.048371 -16.808356) (xy -42.915599 -16.878023) (xy -44.749243 -16.946674) (xy -46.513977 -17.012999) (xy -48.174477 -17.075686)
     (xy -49.695417 -17.133424) (xy -51.041472 -17.184902) (xy -52.177317 -17.228811) (xy -52.843596 -17.254940) (xy -54.703699 -17.322370) (xy -56.246019 -17.364069) (xy -57.507074 -17.380185) (xy -58.523384 -17.370865)
     (xy -59.331465 -17.336256) (xy -59.912547 -17.283406) (xy -60.619679 -17.189087) (xy -61.182546 -17.097920) (xy -61.515294 -17.024516) (xy -61.566371 -17.001927) (xy -61.648725 -16.813800) (xy -61.827160 -16.339504)
     (xy -62.083621 -15.629283) (xy -62.400055 -14.733377) (xy -62.758408 -13.702029) (xy -62.898366 -13.295121) (xy -63.376218 -11.910016) (xy -63.958317 -10.236091) (xy -64.628616 -8.318784) (xy -65.371068 -6.203530)
     (xy -66.169624 -3.935768) (xy -67.008239 -1.560934) (xy -67.870863 0.875533) (xy -68.741450 3.328198) (xy -69.603952 5.751622) (xy -70.442322 8.100369) (xy -71.240512 10.329001) (xy -71.326487 10.568531)
     (xy -71.941967 12.295892) (xy -72.435255 13.710347) (xy -72.812199 14.830355) (xy -73.078648 15.674379) (xy -73.240450 16.260878) (xy -73.303452 16.608314) (xy -93.074125 16.608314) (xy -93.074125 -65.897902)
     (xy 93.251749 -65.897902) (xy 93.251749 65.897902) )(layer F.SilkS) (width  0.010000)
  )
  (fp_poly (pts (xy 38.544056 -12.516119) (xy 40.342709 -12.449581) (xy 41.801736 -12.383482) (xy 42.936751 -12.316648) (xy 43.763370 -12.247903) (xy 44.297208 -12.176073) (xy 44.553879 -12.099982) (xy 44.583217 -12.061746)
     (xy 44.438597 -11.919916) (xy 44.309174 -11.900700) (xy 43.988293 -11.768169) (xy 43.531595 -11.418297) (xy 43.009958 -10.922667) (xy 42.494257 -10.352862) (xy 42.055371 -9.780464) (xy 41.812343 -9.379003)
     (xy 41.599290 -8.934384) (xy 41.453591 -8.531306) (xy 41.387153 -8.128739) (xy 41.411885 -7.685656) (xy 41.539693 -7.161028) (xy 41.782486 -6.513827) (xy 42.152170 -5.703023) (xy 42.660654 -4.687590)
     (xy 43.319846 -3.426497) (xy 43.805982 -2.509783) (xy 45.187362 0.088225) (xy 46.413495 2.391314) (xy 47.495673 4.418352) (xy 48.445185 6.188211) (xy 49.273324 7.719758) (xy 49.991382 9.031865)
     (xy 50.610649 10.143400) (xy 51.142416 11.073234) (xy 51.597976 11.840236) (xy 51.988619 12.463275) (xy 52.325637 12.961222) (xy 52.620322 13.352945) (xy 52.883964 13.657315) (xy 53.127855 13.893201)
     (xy 53.363287 14.079473) (xy 53.601550 14.235001) (xy 53.853936 14.378653) (xy 53.939734 14.425308) (xy 55.059223 14.897632) (xy 56.077989 15.040403) (xy 57.021621 14.856097) (xy 57.272479 14.747855)
     (xy 58.020492 14.270953) (xy 58.746407 13.608596) (xy 59.387916 12.841105) (xy 59.882710 12.048804) (xy 60.168480 11.312015) (xy 60.213986 10.955985) (xy 60.185954 10.744343) (xy 60.061476 10.573126)
     (xy 59.779986 10.406779) (xy 59.280914 10.209750) (xy 58.503692 9.946483) (xy 58.482168 9.939401) (xy 57.743159 9.688584) (xy 57.130977 9.466329) (xy 56.724568 9.302126) (xy 56.605911 9.238567)
     (xy 56.644729 9.112598) (xy 56.920495 8.867368) (xy 57.444924 8.495437) (xy 58.229736 7.989368) (xy 59.286649 7.341722) (xy 60.627379 6.545062) (xy 62.263646 5.591949) (xy 63.209310 5.046902)
     (xy 67.181557 2.764151) (xy 67.498044 3.154996) (xy 67.677623 3.435848) (xy 67.980110 3.975080) (xy 68.382864 4.727382) (xy 68.863246 5.647445) (xy 69.398615 6.689962) (xy 69.966332 7.809621)
     (xy 70.543756 8.961115) (xy 71.108249 10.099135) (xy 71.637169 11.178371) (xy 72.107877 12.153514) (xy 72.497733 12.979256) (xy 72.784097 13.610288) (xy 72.944329 14.001299) (xy 72.969981 14.105917)
     (xy 72.861718 14.187279) (xy 72.567275 14.170981) (xy 72.041694 14.048551) (xy 71.240020 13.811514) (xy 70.987739 13.732260) (xy 70.142015 13.460207) (xy 69.556136 13.300955) (xy 69.149654 13.287283)
     (xy 68.842118 13.451973) (xy 68.553081 13.827805) (xy 68.202092 14.447558) (xy 67.907875 14.987202) (xy 67.104867 16.158269) (xy 65.979661 17.359423) (xy 64.560635 18.563341) (xy 63.161190 19.557543)
     (xy 61.605122 20.483342) (xy 60.047945 21.192108) (xy 58.410440 21.707611) (xy 56.613392 22.053626) (xy 54.577582 22.253924) (xy 54.086014 22.280978) (xy 53.118860 22.318911) (xy 52.405480 22.318246)
     (xy 51.845701 22.270725) (xy 51.339350 22.168088) (xy 50.814148 22.011220) (xy 50.154612 21.774696) (xy 49.575813 21.530963) (xy 49.243588 21.356614) (xy 48.940978 21.082968) (xy 48.529341 20.581822)
     (xy 47.999527 19.839194) (xy 47.342387 18.841103) (xy 46.548772 17.573567) (xy 45.609531 16.022604) (xy 44.515516 14.174233) (xy 44.276220 13.765734) (xy 43.608613 12.628946) (xy 42.795829 11.252483)
     (xy 41.876207 9.700840) (xy 40.888090 8.038511) (xy 39.869817 6.329992) (xy 38.859730 4.639778) (xy 37.896168 3.032366) (xy 37.835149 2.930769) (xy 36.750609 1.125772) (xy 35.833996 -0.401935)
     (xy 35.071505 -1.680306) (xy 34.449332 -2.737294) (xy 33.953675 -3.600852) (xy 33.570728 -4.298933) (xy 33.286690 -4.859491) (xy 33.087756 -5.310479) (xy 32.960122 -5.679850) (xy 32.889985 -5.995558)
     (xy 32.863541 -6.285556) (xy 32.866987 -6.577797) (xy 32.886519 -6.900234) (xy 32.897251 -7.068826) (xy 33.064762 -8.280686) (xy 33.438807 -9.385825) (xy 34.058909 -10.473919) (xy 34.851250 -11.502390)
     (xy 35.790909 -12.609787) (xy 38.544056 -12.516119) )(layer F.SilkS) (width  0.010000)
  )
  (fp_poly (pts (xy 46.887958 -12.132040) (xy 46.888516 -12.118287) (xy 46.753490 -11.949617) (xy 46.413796 -11.663756) (xy 46.172960 -11.485888) (xy 45.561696 -10.910742) (xy 44.972027 -10.110465) (xy 44.485542 -9.210066)
     (xy 44.225566 -8.502013) (xy 44.155666 -8.157194) (xy 44.169509 -7.820443) (xy 44.288886 -7.400293) (xy 44.535585 -6.805276) (xy 44.733341 -6.370544) (xy 45.054392 -5.706457) (xy 45.503270 -4.821329)
     (xy 46.033887 -3.803880) (xy 46.600157 -2.742833) (xy 46.981535 -2.042658) (xy 47.484788 -1.125537) (xy 48.117868 0.031030) (xy 48.841058 1.354315) (xy 49.614638 2.771590) (xy 50.398888 4.210126)
     (xy 51.154090 5.597196) (xy 51.201267 5.683916) (xy 52.105997 7.347731) (xy 52.861244 8.728086) (xy 53.489928 9.852126) (xy 54.014968 10.746997) (xy 54.459285 11.439845) (xy 54.845797 11.957815)
     (xy 55.197424 12.328052) (xy 55.537087 12.577703) (xy 55.887705 12.733913) (xy 56.272197 12.823828) (xy 56.713484 12.874593) (xy 57.234485 12.913354) (xy 57.310013 12.918984) (xy 58.043751 12.994589)
     (xy 58.437256 13.104738) (xy 58.505523 13.280642) (xy 58.263547 13.553511) (xy 57.787078 13.911902) (xy 56.967899 14.325664) (xy 56.084430 14.502553) (xy 55.269184 14.416768) (xy 55.240560 14.407733)
     (xy 54.197698 13.956478) (xy 53.307575 13.354708) (xy 52.802082 12.839936) (xy 52.407914 12.282350) (xy 51.894279 11.473950) (xy 51.278959 10.448590) (xy 50.579732 9.240129) (xy 49.814380 7.882423)
     (xy 49.000682 6.409328) (xy 48.156418 4.854701) (xy 47.299369 3.252399) (xy 46.447315 1.636277) (xy 45.618035 0.040194) (xy 44.829309 -1.501995) (xy 44.098919 -2.956433) (xy 43.444643 -4.289263)
     (xy 42.884263 -5.466629) (xy 42.435557 -6.454674) (xy 42.116307 -7.219542) (xy 41.944292 -7.727375) (xy 41.918881 -7.883717) (xy 42.035272 -8.522483) (xy 42.340423 -9.279933) (xy 42.768299 -10.027202)
     (xy 43.252869 -10.635426) (xy 43.398077 -10.770376) (xy 43.873081 -11.106432) (xy 44.476598 -11.441906) (xy 45.136230 -11.748842) (xy 45.779580 -11.999281) (xy 46.334249 -12.165266) (xy 46.727841 -12.218838)
     (xy 46.887958 -12.132040) )(layer F.SilkS) (width  0.010000)
  )
  (fp_poly (pts (xy 68.127133 1.175642) (xy 68.276356 1.335044) (xy 68.568122 1.767744) (xy 68.978846 2.433035) (xy 69.484946 3.290208) (xy 70.062835 4.298556) (xy 70.688929 5.417369) (xy 71.339643 6.605939)
     (xy 71.991393 7.823560) (xy 72.120663 8.068645) (xy 72.738366 9.296548) (xy 73.167229 10.291508) (xy 73.422876 11.111087) (xy 73.520928 11.812850) (xy 73.477010 12.454359) (xy 73.401732 12.788811)
     (xy 73.352838 12.945291) (xy 73.294572 13.033521) (xy 73.210638 13.026045) (xy 73.084740 12.895406) (xy 72.900582 12.614148) (xy 72.641866 12.154812) (xy 72.292298 11.489942) (xy 71.835581 10.592082)
     (xy 71.255419 9.433774) (xy 70.535515 7.987561) (xy 70.449909 7.815384) (xy 69.704751 6.312291) (xy 69.106233 5.092505) (xy 68.640020 4.122655) (xy 68.291774 3.369371) (xy 68.047159 2.799282)
     (xy 67.891836 2.379018) (xy 67.811469 2.075207) (xy 67.791721 1.854480) (xy 67.817139 1.687412) (xy 67.966080 1.323225) (xy 68.121431 1.175228) (xy 68.127133 1.175642) )(layer F.SilkS) (width  0.010000)
  )
  (fp_poly (pts (xy 67.606999 0.822147) (xy 67.566512 1.127103) (xy 67.436945 1.467177) (xy 67.314764 1.723933) (xy 67.152971 1.966432) (xy 66.917812 2.218851) (xy 66.575533 2.505367) (xy 66.092382 2.850157)
     (xy 65.434605 3.277398) (xy 64.568449 3.811268) (xy 63.460160 4.475942) (xy 62.167833 5.241371) (xy 61.063833 5.893869) (xy 60.014240 6.515325) (xy 59.073042 7.073686) (xy 58.294229 7.536898)
     (xy 57.731791 7.872910) (xy 57.505245 8.009483) (xy 57.003413 8.289746) (xy 56.737465 8.367222) (xy 56.661539 8.260917) (xy 56.787944 7.998331) (xy 57.121420 7.583362) (xy 57.593351 7.087680)
     (xy 58.135127 6.582950) (xy 58.678135 6.140842) (xy 58.722497 6.108194) (xy 59.045797 5.889367) (xy 59.615777 5.520527) (xy 60.378606 5.035171) (xy 61.280450 4.466795) (xy 62.267478 3.848893)
     (xy 63.285856 3.214962) (xy 64.281752 2.598498) (xy 65.201334 2.032996) (xy 65.990769 1.551953) (xy 66.596224 1.188865) (xy 66.963868 0.977226) (xy 66.996324 0.960020) (xy 67.425145 0.775901)
     (xy 67.606999 0.822147) )(layer F.SilkS) (width  0.010000)
  )
  (fp_poly (pts (xy 42.790857 -13.103383) (xy 43.852706 -13.088140) (xy 44.769693 -13.061194) (xy 45.473517 -13.024599) (xy 45.895879 -12.980410) (xy 45.915385 -12.976624) (xy 45.984785 -12.931677) (xy 45.753212 -12.895322)
     (xy 45.274836 -12.867642) (xy 44.603826 -12.848715) (xy 43.794351 -12.838624) (xy 42.900582 -12.837448) (xy 41.976688 -12.845269) (xy 41.076839 -12.862167) (xy 40.255204 -12.888223) (xy 39.565952 -12.923518)
     (xy 39.076923 -12.966434) (xy 38.908365 -13.006219) (xy 39.075983 -13.040827) (xy 39.560734 -13.069233) (xy 40.343573 -13.090414) (xy 41.405456 -13.103347) (xy 41.652448 -13.104868) (xy 42.790857 -13.103383) )(layer F.SilkS) (width  0.010000)
  )
  (fp_poly (pts (xy -0.697079 -14.324439) (xy 0.463039 -14.280107) (xy 1.582421 -14.230448) (xy 2.581158 -14.179516) (xy 3.379340 -14.131367) (xy 3.873048 -14.092499) (xy 4.992949 -13.981111) (xy 6.203303 -11.919577)
     (xy 7.447033 -9.797934) (xy 8.688532 -7.673897) (xy 9.908834 -5.580271) (xy 11.088970 -3.549859) (xy 12.209974 -1.615465) (xy 13.252877 0.190107) (xy 14.198714 1.834053) (xy 15.028515 3.283568)
     (xy 15.723314 4.505850) (xy 16.264144 5.468093) (xy 16.433058 5.772727) (xy 17.215265 7.189495) (xy 17.847739 8.327466) (xy 18.351556 9.219327) (xy 18.747796 9.897766) (xy 19.057535 10.395468)
     (xy 19.301852 10.745123) (xy 19.501822 10.979416) (xy 19.678525 11.131035) (xy 19.853037 11.232667) (xy 19.994179 11.295340) (xy 20.943476 11.510637) (xy 21.978204 11.438414) (xy 23.009855 11.100895)
     (xy 23.949917 10.520307) (xy 24.288486 10.216998) (xy 24.719076 9.756716) (xy 24.945868 9.390677) (xy 25.032823 8.979665) (xy 25.044756 8.570937) (xy 24.985891 7.883317) (xy 24.838089 7.215816)
     (xy 24.767680 7.018010) (xy 24.604656 6.683113) (xy 24.274980 6.056296) (xy 23.787901 5.154278) (xy 23.152670 3.993776) (xy 22.378537 2.591510) (xy 21.474752 0.964198) (xy 20.450563 -0.871443)
     (xy 19.315223 -2.898695) (xy 18.077979 -5.100838) (xy 17.199414 -6.660840) (xy 16.183983 -8.466436) (xy 15.341141 -9.974491) (xy 14.665497 -11.194908) (xy 14.151659 -12.137589) (xy 13.794235 -12.812437)
     (xy 13.587834 -13.229355) (xy 13.527064 -13.398244) (xy 13.529046 -13.402111) (xy 13.715238 -13.410933) (xy 14.208586 -13.409467) (xy 14.961173 -13.398544) (xy 15.925084 -13.378995) (xy 17.052404 -13.351650)
     (xy 18.110790 -13.322683) (xy 19.559538 -13.277221) (xy 20.688639 -13.232057) (xy 21.533676 -13.184320) (xy 22.130233 -13.131138) (xy 22.513892 -13.069639) (xy 22.720238 -12.996952) (xy 22.773980 -12.946355)
     (xy 22.895261 -12.741660) (xy 23.178050 -12.268453) (xy 23.600797 -11.562670) (xy 24.141955 -10.660248) (xy 24.779972 -9.597122) (xy 25.493299 -8.409229) (xy 26.223606 -7.193707) (xy 27.628618 -4.848432)
     (xy 28.953095 -2.622946) (xy 30.181444 -0.543967) (xy 31.298069 1.361784) (xy 32.287377 3.067588) (xy 33.133773 4.546725) (xy 33.821663 5.772477) (xy 34.257722 6.572028) (xy 34.638625 7.304447)
     (xy 34.880657 7.860810) (xy 35.020212 8.374059) (xy 35.093680 8.977141) (xy 35.136603 9.782657) (xy 35.160344 10.630531) (xy 35.138709 11.225714) (xy 35.059448 11.669213) (xy 34.910309 12.062033)
     (xy 34.843673 12.197753) (xy 34.369013 12.881918) (xy 33.604724 13.673336) (xy 32.589633 14.543931) (xy 31.362568 15.465625) (xy 29.962357 16.410342) (xy 28.427828 17.350004) (xy 26.797809 18.256534)
     (xy 25.666434 18.833938) (xy 23.980902 19.629662) (xy 22.542247 20.229452) (xy 21.307027 20.642101) (xy 20.231800 20.876402) (xy 19.273123 20.941148) (xy 18.387556 20.845134) (xy 17.531655 20.597151)
     (xy 17.335909 20.520154) (xy 16.897953 20.333598) (xy 16.513706 20.142753) (xy 16.160752 19.918357) (xy 15.816675 19.631150) (xy 15.459061 19.251873) (xy 15.065494 18.751265) (xy 14.613557 18.100067)
     (xy 14.080836 17.269017) (xy 13.444914 16.228856) (xy 12.683377 14.950324) (xy 11.773809 13.404160) (xy 11.413087 12.788811) (xy 10.806619 11.748102) (xy 10.064266 10.464949) (xy 9.224511 9.006413)
     (xy 8.325839 7.439557) (xy 7.406734 5.831441) (xy 6.505681 4.249127) (xy 5.908803 3.197202) (xy 5.035452 1.660784) (xy 4.109841 0.041973) (xy 3.171885 -1.590068) (xy 2.261500 -3.166176)
     (xy 1.418600 -4.617188) (xy 0.683101 -5.873942) (xy 0.270766 -6.572028) (xy -0.432258 -7.765373) (xy -1.143941 -8.990038) (xy -1.821317 -10.170881) (xy -2.421417 -11.232757) (xy -2.901275 -12.100525)
     (xy -3.071989 -12.417950) (xy -4.147306 -14.444991) (xy -0.697079 -14.324439) )(layer F.SilkS) (width  0.010000)
  )
  (fp_poly (pts (xy 25.435190 -13.356275) (xy 25.488453 -13.321976) (xy 25.619722 -13.177330) (xy 25.833220 -12.887702) (xy 26.139356 -12.436457) (xy 26.548537 -11.806959) (xy 27.071174 -10.982571) (xy 27.717673 -9.946659)
     (xy 28.498444 -8.682587) (xy 29.423896 -7.173717) (xy 30.504437 -5.403416) (xy 31.750475 -3.355046) (xy 32.601151 -1.953847) (xy 33.677486 -0.181021) (xy 34.585565 1.314553) (xy 35.339845 2.560281)
     (xy 35.954784 3.583564) (xy 36.444842 4.411806) (xy 36.824476 5.072410) (xy 37.108146 5.592780) (xy 37.310309 6.000317) (xy 37.445423 6.322427) (xy 37.527949 6.586511) (xy 37.572342 6.819973)
     (xy 37.593063 7.050216) (xy 37.604570 7.304644) (xy 37.617468 7.553620) (xy 37.632252 8.775209) (xy 37.484416 9.747000) (xy 37.149876 10.546314) (xy 36.604548 11.250473) (xy 36.404873 11.446670)
     (xy 35.950884 11.856956) (xy 35.599358 12.148143) (xy 35.429161 12.255944) (xy 35.393296 12.106336) (xy 35.450924 11.740023) (xy 35.465957 11.678671) (xy 35.543812 11.189733) (xy 35.595377 10.510792)
     (xy 35.608605 9.934665) (xy 35.587485 9.351903) (xy 35.508583 8.850108) (xy 35.340656 8.322621) (xy 35.052460 7.662781) (xy 34.776118 7.092707) (xy 34.383408 6.328911) (xy 33.831485 5.300684)
     (xy 33.143396 4.048521) (xy 32.342188 2.612919) (xy 31.450906 1.034373) (xy 30.492598 -0.646621) (xy 29.490309 -2.389567) (xy 28.467086 -4.153970) (xy 27.445975 -5.899333) (xy 26.450022 -7.585161)
     (xy 25.852921 -8.586647) (xy 25.062892 -9.914278) (xy 24.446743 -10.969334) (xy 23.989618 -11.780204) (xy 23.676662 -12.375274) (xy 23.493019 -12.782932) (xy 23.423835 -13.031566) (xy 23.454253 -13.149562)
     (xy 23.462154 -13.155241) (xy 23.906600 -13.328920) (xy 24.479760 -13.428233) (xy 25.037376 -13.441308) (xy 25.435190 -13.356275) )(layer F.SilkS) (width  0.010000)
  )
  (fp_poly (pts (xy 8.328791 -14.316821) (xy 8.533598 -14.260767) (xy 8.660204 -14.061323) (xy 8.929308 -13.596935) (xy 9.314594 -12.915230) (xy 9.789743 -12.063834) (xy 10.328437 -11.090374) (xy 10.904358 -10.042475)
     (xy 11.491188 -8.967764) (xy 12.062609 -7.913866) (xy 12.592304 -6.928408) (xy 12.782362 -6.572028) (xy 13.151744 -5.882661) (xy 13.654590 -4.951581) (xy 14.253129 -3.848329) (xy 14.909589 -2.642443)
     (xy 15.586202 -1.403464) (xy 16.014332 -0.621679) (xy 16.700606 0.634283) (xy 17.405573 1.932120) (xy 18.087620 3.194681) (xy 18.705138 4.344812) (xy 19.216517 5.305359) (xy 19.446002 5.741224)
     (xy 19.919941 6.617744) (xy 20.388294 7.432626) (xy 20.804078 8.107439) (xy 21.120306 8.563753) (xy 21.181407 8.638052) (xy 21.692227 9.114798) (xy 22.304557 9.538610) (xy 22.902030 9.839264)
     (xy 23.350267 9.946853) (xy 23.609954 10.013045) (xy 23.570973 10.190061) (xy 23.259778 10.445558) (xy 22.702821 10.747194) (xy 22.691259 10.752590) (xy 21.766249 11.090220) (xy 20.968362 11.157736)
     (xy 20.202427 10.962125) (xy 20.148628 10.939229) (xy 19.985474 10.861055) (xy 19.827864 10.758322) (xy 19.659181 10.604689) (xy 19.462807 10.373816) (xy 19.222122 10.039365) (xy 18.920509 9.574996)
     (xy 18.541350 8.954370) (xy 18.068026 8.151146) (xy 17.483919 7.138985) (xy 16.772410 5.891549) (xy 15.916881 4.382497) (xy 15.095878 2.930769) (xy 14.257257 1.451297) (xy 13.400885 -0.051968)
     (xy 12.559381 -1.522291) (xy 11.765361 -2.902939) (xy 11.051445 -4.137177) (xy 10.450250 -5.168271) (xy 10.040940 -5.861539) (xy 9.350462 -7.029590) (xy 8.652393 -8.228189) (xy 7.969988 -9.415687)
     (xy 7.326506 -10.550435) (xy 6.745201 -11.590783) (xy 6.249332 -12.495082) (xy 5.862153 -13.221682) (xy 5.606922 -13.728935) (xy 5.506895 -13.975191) (xy 5.506294 -13.982507) (xy 5.667359 -14.076510)
     (xy 6.084424 -14.167356) (xy 6.658294 -14.245928) (xy 7.289775 -14.303108) (xy 7.879672 -14.329778) (xy 8.328791 -14.316821) )(layer F.SilkS) (width  0.010000)
  )
  (fp_poly (pts (xy 18.890722 -13.979402) (xy 19.752246 -13.969342) (xy 20.603567 -13.950334) (xy 21.392494 -13.922330) (xy 22.066835 -13.885280) (xy 22.380420 -13.860050) (xy 22.767151 -13.816122) (xy 22.868075 -13.782678)
     (xy 22.668421 -13.758717) (xy 22.153417 -13.743237) (xy 21.308292 -13.735236) (xy 20.515385 -13.733549) (xy 19.413217 -13.740101) (xy 18.368814 -13.758766) (xy 17.460974 -13.787209) (xy 16.768493 -13.823096)
     (xy 16.430070 -13.854546) (xy 16.256780 -13.897163) (xy 16.386439 -13.931121) (xy 16.766854 -13.956373) (xy 17.345835 -13.972869) (xy 18.071188 -13.980561) (xy 18.890722 -13.979402) )(layer F.SilkS) (width  0.010000)
  )
  (fp_poly (pts (xy 3.152778 -14.931834) (xy 3.991766 -14.901580) (xy 4.726531 -14.857476) (xy 5.278190 -14.802519) (xy 5.567862 -14.739706) (xy 5.586224 -14.727671) (xy 5.501148 -14.661148) (xy 5.127011 -14.618054)
     (xy 4.529211 -14.598164) (xy 3.773143 -14.601250) (xy 2.924205 -14.627089) (xy 2.047792 -14.675453) (xy 1.243357 -14.742658) (xy 0.675530 -14.805342) (xy 0.440129 -14.849501) (xy 0.515341 -14.883332)
     (xy 0.799301 -14.909530) (xy 1.477663 -14.938806) (xy 2.288450 -14.945242) (xy 3.152778 -14.931834) )(layer F.SilkS) (width  0.010000)
  )
  (fp_poly (pts (xy -24.432516 -15.059729) (xy -23.565736 -15.038009) (xy -23.046503 -15.017418) (xy -21.225136 -14.935148) (xy -19.424507 -14.851738) (xy -17.679331 -14.768958) (xy -16.024319 -14.688578) (xy -14.494184 -14.612366)
     (xy -13.123639 -14.542093) (xy -11.947397 -14.479527) (xy -11.000170 -14.426438) (xy -10.316671 -14.384596) (xy -9.931612 -14.355770) (xy -9.857916 -14.345136) (xy -9.766270 -14.185812) (xy -9.517550 -13.748408)
     (xy -9.129433 -13.064139) (xy -8.619597 -12.164215) (xy -8.005717 -11.079848) (xy -7.305473 -9.842252) (xy -6.536540 -8.482638) (xy -5.908270 -7.371329) (xy -4.996576 -5.758815) (xy -4.054249 -4.092813)
     (xy -3.113906 -2.430943) (xy -2.208165 -0.830825) (xy -1.369643 0.649921) (xy -0.630957 1.953675) (xy -0.024725 3.022817) (xy 0.124633 3.286014) (xy 0.885045 4.630791) (xy 1.748892 6.166928)
     (xy 2.648894 7.774247) (xy 3.517771 9.332571) (xy 4.288243 10.721721) (xy 4.350805 10.834965) (xy 5.053885 12.106210) (xy 5.808977 13.468228) (xy 6.563831 14.826994) (xy 7.266199 16.088485)
     (xy 7.863831 17.158677) (xy 8.002900 17.406993) (xy 8.496072 18.301310) (xy 8.915337 19.089439) (xy 9.234263 19.719359) (xy 9.426415 20.139049) (xy 9.469543 20.293356) (xy 9.439566 20.336134)
     (xy 9.377975 20.367682) (xy 9.244182 20.387495) (xy 8.997600 20.395065) (xy 8.597640 20.389888) (xy 8.003714 20.371456) (xy 7.175233 20.339263) (xy 6.071610 20.292802) (xy 4.706993 20.233935)
     (xy 3.619213 20.182588) (xy 2.602533 20.126692) (xy 1.731611 20.070949) (xy 1.081106 20.020059) (xy 0.768910 19.985905) (xy 0.028029 19.876142) (xy -2.654050 14.600658) (xy -3.309522 13.311946)
     (xy -3.925401 12.102134) (xy -4.480121 11.013510) (xy -4.952113 10.088359) (xy -5.319810 9.368967) (xy -5.561644 8.897619) (xy -5.639226 8.747902) (xy -5.942322 8.170629) (xy -8.018871 8.170629)
     (xy -9.061565 8.178297) (xy -9.792643 8.207427) (xy -10.255524 8.267204) (xy -10.493625 8.366815) (xy -10.550365 8.515448) (xy -10.485575 8.692556) (xy -10.388283 8.945178) (xy -10.207506 9.480639)
     (xy -9.959235 10.246826) (xy -9.659464 11.191626) (xy -9.324185 12.262927) (xy -8.969391 13.408618) (xy -8.611075 14.576585) (xy -8.265230 15.714717) (xy -7.947848 16.770901) (xy -7.674922 17.693024)
     (xy -7.462445 18.428975) (xy -7.326410 18.926641) (xy -7.282517 19.129689) (xy -7.450883 19.218024) (xy -7.919905 19.287085) (xy -8.635467 19.335941) (xy -9.543454 19.363661) (xy -10.589750 19.369312)
     (xy -11.720240 19.351964) (xy -12.880809 19.310685) (xy -14.005202 19.245407) (xy -15.631413 19.129975) (xy -15.818187 18.401701) (xy -15.932583 17.988325) (xy -16.129766 17.309850) (xy -16.387733 16.440615)
     (xy -16.684478 15.454957) (xy -16.901310 14.742657) (xy -17.835114 11.679761) (xy -18.699896 8.823632) (xy -19.484475 6.211419) (xy -20.177670 3.880270) (xy -20.509550 2.753146) (xy -20.745572 1.951574)
     (xy -21.067138 0.864407) (xy -21.457977 -0.453605) (xy -21.901823 -1.947715) (xy -22.382408 -3.563172) (xy -22.883463 -5.245229) (xy -23.353703 -6.821736) (xy -15.453146 -6.821736) (xy -15.403171 -6.629901)
     (xy -15.262546 -6.145217) (xy -15.045222 -5.414331) (xy -14.765151 -4.483891) (xy -14.436285 -3.400542) (xy -14.135735 -2.416933) (xy -13.767189 -1.204244) (xy -13.428385 -0.070561) (xy -13.135251 0.929313)
     (xy -12.903712 1.740578) (xy -12.749697 2.308433) (xy -12.694678 2.541423) (xy -12.598837 2.912751) (xy -12.430874 3.151228) (xy -12.116803 3.293962) (xy -11.582634 3.378061) (xy -10.923776 3.429610)
     (xy -9.934109 3.489249) (xy -9.244055 3.513981) (xy -8.799570 3.502451) (xy -8.546609 3.453307) (xy -8.432348 3.367197) (xy -8.475722 3.161001) (xy -8.660386 2.688152) (xy -8.962702 1.996636)
     (xy -9.359031 1.134439) (xy -9.825734 0.149547) (xy -10.339174 -0.910054) (xy -10.875713 -1.996378) (xy -11.411711 -3.061440) (xy -11.923531 -4.057253) (xy -12.387535 -4.935831) (xy -12.780083 -5.649189)
     (xy -13.077538 -6.149341) (xy -13.219134 -6.350000) (xy -13.572066 -6.709101) (xy -13.929379 -6.878768) (xy -14.450148 -6.926441) (xy -14.580824 -6.927273) (xy -15.082381 -6.907954) (xy -15.397776 -6.858647)
     (xy -15.453146 -6.821736) (xy -23.353703 -6.821736) (xy -23.388722 -6.939136) (xy -23.549088 -7.476264) (xy -24.012454 -9.030940) (xy -24.442758 -10.480603) (xy -24.829611 -11.789825) (xy -25.162627 -12.923177)
     (xy -25.431418 -13.845229) (xy -25.625596 -14.520552) (xy -25.734775 -14.913719) (xy -25.755244 -15.000920) (xy -25.588024 -15.040815) (xy -25.126863 -15.060541) (xy -24.432516 -15.059729) )(layer F.SilkS) (width  0.010000)
  )
  (fp_poly (pts (xy -7.206572 -14.711420) (xy -7.059116 -14.640006) (xy -6.891622 -14.488702) (xy -6.685079 -14.228902) (xy -6.420479 -13.832000) (xy -6.078812 -13.269388) (xy -5.641069 -12.512460) (xy -5.088240 -11.532610)
     (xy -4.401315 -10.301230) (xy -3.561286 -8.789715) (xy -3.513382 -8.703497) (xy -2.258598 -6.443772) (xy -1.153493 -4.450218) (xy -0.174140 -2.679072) (xy 0.703386 -1.086570) (xy 1.503012 0.371051)
     (xy 2.248665 1.737556) (xy 2.964272 3.056708) (xy 3.673759 4.372271) (xy 4.401052 5.728008) (xy 5.170079 7.167682) (xy 5.415791 7.628668) (xy 6.190949 9.077597) (xy 6.999531 10.578313)
     (xy 7.804583 12.062974) (xy 8.569153 13.463737) (xy 9.256287 14.712761) (xy 9.829032 15.742202) (xy 10.015042 16.072385) (xy 10.542862 17.014173) (xy 11.004424 17.855756) (xy 11.372781 18.546507)
     (xy 11.620986 19.035800) (xy 11.722092 19.273011) (xy 11.723077 19.281286) (xy 11.581410 19.466588) (xy 11.234456 19.728391) (xy 10.799287 19.993918) (xy 10.392974 20.190393) (xy 10.166446 20.248951)
     (xy 9.912110 20.124793) (xy 9.817987 20.026923) (xy 9.598548 19.697150) (xy 9.225229 19.079383) (xy 8.712241 18.198589) (xy 8.073794 17.079733) (xy 7.324100 15.747782) (xy 6.477371 14.227701)
     (xy 5.547817 12.544457) (xy 5.242911 11.989510) (xy 4.465640 10.575937) (xy 3.696887 9.183984) (xy 2.914075 7.773353) (xy 2.094624 6.303746) (xy 1.215956 4.734863) (xy 0.255493 3.026407)
     (xy -0.809343 1.138079) (xy -2.001130 -0.970420) (xy -3.342448 -3.339388) (xy -3.614149 -3.818882) (xy -4.364523 -5.147951) (xy -5.174439 -6.591025) (xy -5.990753 -8.052831) (xy -6.760320 -9.438097)
     (xy -7.429995 -10.651553) (xy -7.676527 -11.101399) (xy -9.423747 -14.298602) (xy -8.752782 -14.506979) (xy -8.146621 -14.652044) (xy -7.565562 -14.727207) (xy -7.517406 -14.729007) (xy -7.352999 -14.731552)
     (xy -7.206572 -14.711420) )(layer F.SilkS) (width  0.010000)
  )
  (fp_poly (pts (xy -8.588294 8.758007) (xy -8.183290 8.892451) (xy -8.133373 8.925524) (xy -8.021786 9.127437) (xy -7.810961 9.610856) (xy -7.520826 10.322625) (xy -7.171309 11.209589) (xy -6.782334 12.218591)
     (xy -6.373831 13.296476) (xy -5.965725 14.390088) (xy -5.577943 15.446271) (xy -5.230412 16.411869) (xy -4.943060 17.233727) (xy -4.735813 17.858687) (xy -4.628599 18.233595) (xy -4.618181 18.302443)
     (xy -4.766387 18.424506) (xy -5.137398 18.620696) (xy -5.620812 18.841975) (xy -6.106221 19.039310) (xy -6.483221 19.163665) (xy -6.601289 19.183216) (xy -6.800982 19.043726) (xy -6.843053 18.961188)
     (xy -7.069442 18.314405) (xy -7.357280 17.438224) (xy -7.688363 16.393562) (xy -8.044488 15.241335) (xy -8.407449 14.042457) (xy -8.759044 12.857844) (xy -9.081069 11.748412) (xy -9.355318 10.775076)
     (xy -9.563589 9.998751) (xy -9.687678 9.480354) (xy -9.706650 9.378786) (xy -9.814634 8.703496) (xy -9.115391 8.703496) (xy -8.588294 8.758007) )(layer F.SilkS) (width  0.010000)
  )
  (fp_poly (pts (xy -20.737961 -15.700851) (xy -19.544082 -15.677728) (xy -18.235982 -15.643045) (xy -16.858601 -15.598537) (xy -15.456876 -15.545943) (xy -14.075748 -15.486999) (xy -12.760154 -15.423442) (xy -11.555034 -15.357011)
     (xy -10.505327 -15.289441) (xy -9.655970 -15.222470) (xy -9.051904 -15.157836) (xy -8.738066 -15.097275) (xy -8.703496 -15.072068) (xy -8.875490 -15.008112) (xy -9.370581 -14.967692) (xy -10.157430 -14.950362)
     (xy -11.204701 -14.955673) (xy -12.481054 -14.983178) (xy -13.955154 -15.032429) (xy -15.595661 -15.102979) (xy -17.371239 -15.194381) (xy -17.406993 -15.196368) (xy -18.650833 -15.263725) (xy -19.855535 -15.325592)
     (xy -20.948098 -15.378474) (xy -21.855519 -15.418876) (xy -22.504795 -15.443304) (xy -22.646853 -15.447193) (xy -23.272378 -15.471331) (xy -23.577997 -15.512804) (xy -23.598935 -15.579963) (xy -23.472497 -15.642986)
     (xy -23.184888 -15.683480) (xy -22.603303 -15.705464) (xy -21.772681 -15.710675) (xy -20.737961 -15.700851) )(layer F.SilkS) (width  0.010000)
  )
  (fp_poly (pts (xy -60.321926 -16.614139) (xy -59.775418 -16.579089) (xy -58.960308 -16.538038) (xy -57.963106 -16.494821) (xy -56.870318 -16.453271) (xy -56.128671 -16.428304) (xy -55.159477 -16.395031) (xy -53.949772 -16.349497)
     (xy -52.537388 -16.293419) (xy -50.960160 -16.228510) (xy -49.255919 -16.156487) (xy -47.462501 -16.079065) (xy -45.617737 -15.997958) (xy -43.759462 -15.914884) (xy -41.925509 -15.831556) (xy -40.153710 -15.749691)
     (xy -38.481900 -15.671003) (xy -36.947911 -15.597208) (xy -35.589577 -15.530021) (xy -34.444731 -15.471157) (xy -33.551207 -15.422333) (xy -32.946837 -15.385263) (xy -32.708244 -15.366432) (xy -32.054871 -15.280521)
     (xy -31.593845 -15.140517) (xy -31.264010 -14.884067) (xy -31.004216 -14.448815) (xy -30.753307 -13.772409) (xy -30.569670 -13.185866) (xy -30.406577 -12.652146) (xy -30.152974 -11.822904) (xy -29.822371 -10.742291)
     (xy -29.428281 -9.454458) (xy -28.984214 -8.003556) (xy -28.503683 -6.433738) (xy -28.000198 -4.789154) (xy -27.648735 -3.641259) (xy -26.673243 -0.447459) (xy -25.764150 2.545034) (xy -24.925149 5.323594)
     (xy -24.159937 7.875594) (xy -23.472209 10.188409) (xy -22.865660 12.249411) (xy -22.343986 14.045974) (xy -21.910882 15.565472) (xy -21.570045 16.795279) (xy -21.325168 17.722767) (xy -21.179948 18.335311)
     (xy -21.137511 18.605944) (xy -21.307356 18.693712) (xy -21.788739 18.756260) (xy -22.538818 18.793193) (xy -23.514755 18.804116) (xy -24.673709 18.788635) (xy -25.972842 18.746357) (xy -27.369312 18.676885)
     (xy -27.567330 18.665137) (xy -28.327029 18.602002) (xy -28.957620 18.517713) (xy -29.371430 18.425625) (xy -29.477262 18.374206) (xy -29.548541 18.273978) (xy -29.635996 18.087332) (xy -29.747063 17.788315)
     (xy -29.889180 17.350971) (xy -30.069783 16.749346) (xy -30.296310 15.957485) (xy -30.576197 14.949435) (xy -30.916883 13.699239) (xy -31.325804 12.180944) (xy -31.810398 10.368595) (xy -32.324704 8.437063)
     (xy -32.818000 6.583183) (xy -33.228805 5.043644) (xy -33.565513 3.789361) (xy -33.836519 2.791254) (xy -34.050217 2.020238) (xy -34.215001 1.447233) (xy -34.339266 1.043156) (xy -34.431406 0.778923)
     (xy -34.499815 0.625454) (xy -34.552887 0.553665) (xy -34.599018 0.534473) (xy -34.605733 0.534332) (xy -34.637836 0.535004) (xy -34.674528 0.554304) (xy -34.731100 0.619441) (xy -34.822845 0.757626)
     (xy -34.965056 0.996067) (xy -35.173026 1.361976) (xy -35.462047 1.882561) (xy -35.847413 2.585032) (xy -36.344416 3.496600) (xy -36.968349 4.644473) (xy -37.734505 6.055862) (xy -38.448352 7.371328)
     (xy -39.211065 8.772709) (xy -39.990518 10.197398) (xy -40.752522 11.583432) (xy -41.462889 12.868846) (xy -42.087428 13.991677) (xy -42.591950 14.889960) (xy -42.760601 15.186713) (xy -44.181174 17.673426)
     (xy -47.324922 17.655125) (xy -48.528743 17.641712) (xy -49.421424 17.615166) (xy -50.046938 17.572029) (xy -50.449259 17.508844) (xy -50.672359 17.422152) (xy -50.713269 17.388692) (xy -50.828118 17.179692)
     (xy -51.064306 16.674765) (xy -51.407761 15.906407) (xy -51.844412 14.907114) (xy -52.360186 13.709384) (xy -52.941012 12.345713) (xy -53.572818 10.848598) (xy -54.241531 9.250536) (xy -54.347715 8.995565)
     (xy -55.024370 7.372504) (xy -55.667685 5.834740) (xy -56.263243 4.416365) (xy -56.796626 3.151472) (xy -57.253416 2.074155) (xy -57.619196 1.218506) (xy -57.879548 0.618619) (xy -58.020053 0.308586)
     (xy -58.028389 0.292069) (xy -58.319215 -0.266434) (xy -58.576999 0.355244) (xy -58.691508 0.650729) (xy -58.913833 1.242161) (xy -59.230010 2.091771) (xy -59.626075 3.161788) (xy -60.088065 4.414440)
     (xy -60.602016 5.811956) (xy -61.153963 7.316566) (xy -61.499177 8.259440) (xy -62.068116 9.810609) (xy -62.608842 11.277417) (xy -63.107227 12.622077) (xy -63.549143 13.806798) (xy -63.920462 14.793791)
     (xy -64.207057 15.545266) (xy -64.394799 16.023434) (xy -64.454215 16.163636) (xy -64.616205 16.482311) (xy -64.793003 16.671362) (xy -65.076873 16.769648) (xy -65.560082 16.816027) (xy -66.055385 16.837976)
     (xy -66.642320 16.845305) (xy -67.428067 16.832314) (xy -68.346107 16.802637) (xy -69.329922 16.759907) (xy -70.312995 16.707757) (xy -71.228808 16.649822) (xy -72.010842 16.589733) (xy -72.592581 16.531125)
     (xy -72.907506 16.477631) (xy -72.941419 16.461844) (xy -72.921395 16.268767) (xy -72.799397 15.810299) (xy -72.595421 15.154697) (xy -72.329461 14.370220) (xy -72.324994 14.357514) (xy -72.142772 13.840361)
     (xy -71.854189 13.022498) (xy -71.471330 11.938132) (xy -71.006280 10.621471) (xy -70.471125 9.106721) (xy -69.877950 7.428089) (xy -69.238842 5.619783) (xy -68.565886 3.716008) (xy -67.871168 1.750972)
     (xy -67.628883 1.065734) (xy -66.914307 -0.956509) (xy -66.206061 -2.963316) (xy -65.517795 -4.915858) (xy -64.863156 -6.775309) (xy -64.384342 -8.137208) (xy -53.062088 -8.137208) (xy -52.443928 -6.688534)
     (xy -52.262819 -6.250749) (xy -51.975034 -5.538841) (xy -51.600690 -4.603820) (xy -51.159903 -3.496694) (xy -50.672789 -2.268475) (xy -50.159465 -0.970172) (xy -49.640048 0.347205) (xy -49.134655 1.632646)
     (xy -48.663401 2.835142) (xy -48.246403 3.903683) (xy -47.903779 4.787258) (xy -47.655644 5.434859) (xy -47.534680 5.759916) (xy -47.436215 5.941757) (xy -47.300586 5.894932) (xy -47.061466 5.585512)
     (xy -46.990081 5.481328) (xy -46.803941 5.181922) (xy -46.467006 4.613709) (xy -46.002808 3.817410) (xy -45.434879 2.833745) (xy -44.786754 1.703436) (xy -44.081963 0.467204) (xy -43.517815 -0.527108)
     (xy -42.581210 -2.183885) (xy -41.807743 -3.558889) (xy -41.183625 -4.678400) (xy -40.695071 -5.568698) (xy -40.328290 -6.256063) (xy -40.069498 -6.766774) (xy -39.904905 -7.127111) (xy -39.820724 -7.363355)
     (xy -39.803169 -7.501785) (xy -39.828067 -7.560003) (xy -40.033825 -7.602499) (xy -40.545329 -7.655410) (xy -41.313316 -7.716261) (xy -42.288522 -7.782575) (xy -43.421681 -7.851876) (xy -44.663531 -7.921688)
     (xy -45.964807 -7.989535) (xy -47.276245 -8.052941) (xy -48.548581 -8.109430) (xy -49.732550 -8.156526) (xy -50.778889 -8.191752) (xy -51.638333 -8.212634) (xy -52.261618 -8.216693) (xy -52.597128 -8.201788)
     (xy -53.062088 -8.137208) (xy -64.384342 -8.137208) (xy -64.255793 -8.502840) (xy -63.709356 -10.059625) (xy -63.237492 -11.406836) (xy -62.853849 -12.505645) (xy -62.572078 -13.317226) (xy -62.523778 -13.457253)
     (xy -61.406790 -16.701218) (xy -60.321926 -16.614139) )(layer F.SilkS) (width  0.010000)
  )
  (fp_poly (pts (xy -27.157695 -11.545455) (xy -26.782134 -10.311035) (xy -26.350122 -8.874623) (xy -25.870213 -7.265775) (xy -25.350959 -5.514050) (xy -24.800914 -3.649005) (xy -24.228629 -1.700197) (xy -23.642659 0.302817)
     (xy -23.051556 2.330478) (xy -22.463874 4.353230) (xy -21.888165 6.341514) (xy -21.332982 8.265775) (xy -20.806879 10.096454) (xy -20.318408 11.803993) (xy -19.876122 13.358836) (xy -19.488575 14.731424)
     (xy -19.164319 15.892201) (xy -18.911908 16.811610) (xy -18.739894 17.460091) (xy -18.656830 17.808089) (xy -18.650349 17.854172) (xy -18.804106 18.039399) (xy -19.196091 18.256005) (xy -19.481291 18.367219)
     (xy -20.067308 18.558167) (xy -20.405083 18.635073) (xy -20.578984 18.608680) (xy -20.658681 18.517132) (xy -20.783054 18.209336) (xy -21.000770 17.560944) (xy -21.311222 16.573955) (xy -21.713801 15.250369)
     (xy -22.207898 13.592185) (xy -22.792904 11.601403) (xy -23.429391 9.413986) (xy -23.863640 7.922653) (xy -24.379610 6.162168) (xy -24.956322 4.203451) (xy -25.572794 2.117425) (xy -26.208048 -0.024987)
     (xy -26.841102 -2.152864) (xy -27.450977 -4.195283) (xy -27.788405 -5.321411) (xy -28.296835 -7.019996) (xy -28.776380 -8.630238) (xy -29.216803 -10.117191) (xy -29.607866 -11.445911) (xy -29.939333 -12.581451)
     (xy -30.200964 -13.488867) (xy -30.382524 -14.133212) (xy -30.473775 -14.479541) (xy -30.480379 -14.510457) (xy -30.517959 -14.929198) (xy -30.380023 -15.149859) (xy -30.161894 -15.254651) (xy -29.690356 -15.381818)
     (xy -29.113471 -15.474146) (xy -29.058655 -15.479591) (xy -28.383014 -15.541958) (xy -27.157695 -11.545455) )(layer F.SilkS) (width  0.010000)
  )
  (fp_poly (pts (xy -34.706639 1.763971) (xy -34.519066 2.154928) (xy -34.315037 2.730591) (xy -34.281774 2.839756) (xy -33.905480 4.103280) (xy -35.871852 7.928522) (xy -36.711579 9.545104) (xy -37.531631 11.091680)
     (xy -38.312286 12.533192) (xy -39.033823 13.834578) (xy -39.676520 14.960777) (xy -40.220657 15.876730) (xy -40.646511 16.547377) (xy -40.934363 16.937655) (xy -40.947673 16.952318) (xy -41.468213 17.292775)
     (xy -42.176465 17.485192) (xy -42.731895 17.579718) (xy -43.159309 17.672258) (xy -43.273757 17.706719) (xy -43.487351 17.679952) (xy -43.517482 17.591085) (xy -43.434684 17.373914) (xy -43.205157 16.902409)
     (xy -42.857196 16.231373) (xy -42.419102 15.415608) (xy -42.017238 14.685718) (xy -41.544272 13.828787) (xy -40.941198 12.725374) (xy -40.244464 11.442779) (xy -39.490518 10.048301) (xy -38.715805 8.609241)
     (xy -37.956775 7.192897) (xy -37.770293 6.843792) (xy -37.104402 5.604582) (xy -36.485703 4.468996) (xy -35.935204 3.474374) (xy -35.473912 2.658054) (xy -35.122838 2.057375) (xy -34.902989 1.709678)
     (xy -34.840830 1.637153) (xy -34.706639 1.763971) )(layer F.SilkS) (width  0.010000)
  )
  (fp_poly (pts (xy -58.000220 1.353640) (xy -57.799736 1.732250) (xy -57.553774 2.301662) (xy -57.481597 2.473042) (xy -57.000279 3.613917) (xy -58.692811 8.068147) (xy -59.188632 9.374566) (xy -59.683928 10.682442)
     (xy -60.152091 11.921308) (xy -60.566516 13.020698) (xy -60.900594 13.910144) (xy -61.078833 14.387412) (xy -61.401959 15.236589) (xy -61.669341 15.818146) (xy -61.948843 16.197510) (xy -62.308329 16.440107)
     (xy -62.815663 16.611363) (xy -63.538711 16.776704) (xy -63.562490 16.781835) (xy -63.959655 16.850748) (xy -64.095720 16.765807) (xy -64.056506 16.449606) (xy -64.035859 16.354882) (xy -63.935570 16.012876)
     (xy -63.724563 15.378653) (xy -63.417380 14.492428) (xy -63.028562 13.394414) (xy -62.572653 12.124823) (xy -62.064193 10.723869) (xy -61.517724 9.231764) (xy -60.947789 7.688723) (xy -60.368930 6.134957)
     (xy -59.795688 4.610680) (xy -59.644097 4.210279) (xy -59.192976 3.023528) (xy -58.845951 2.147737) (xy -58.578091 1.562879) (xy -58.364468 1.248928) (xy -58.180154 1.185857) (xy -58.000220 1.353640) )(layer F.SilkS) (width  0.010000)
  )
  (fp_poly (pts (xy -56.152491 -17.025673) (xy -55.273637 -17.010916) (xy -54.187658 -16.983716) (xy -52.968426 -16.946024) (xy -51.689815 -16.899788) (xy -51.155244 -16.878389) (xy -49.923195 -16.830133) (xy -48.418846 -16.775363)
     (xy -46.725021 -16.716847) (xy -44.924544 -16.657355) (xy -43.100239 -16.599657) (xy -41.334929 -16.546522) (xy -40.586713 -16.524976) (xy -38.209020 -16.455795) (xy -36.167074 -16.392229) (xy -34.441438 -16.333287)
     (xy -33.012675 -16.277980) (xy -31.861350 -16.225318) (xy -30.968024 -16.174311) (xy -30.313262 -16.123969) (xy -29.877627 -16.073301) (xy -29.641683 -16.021318) (xy -29.585992 -15.967030) (xy -29.587277 -15.964735)
     (xy -29.738625 -15.907436) (xy -30.122764 -15.867848) (xy -30.757448 -15.846037) (xy -31.660436 -15.842069) (xy -32.849483 -15.856011) (xy -34.342345 -15.887928) (xy -36.156779 -15.937886) (xy -38.011188 -15.996092)
     (xy -39.407759 -16.044915) (xy -40.990952 -16.105545) (xy -42.711932 -16.175686) (xy -44.521859 -16.253042) (xy -46.371897 -16.335319) (xy -48.213209 -16.420219) (xy -49.996955 -16.505449) (xy -51.674300 -16.588710)
     (xy -53.196405 -16.667709) (xy -54.514433 -16.740149) (xy -55.579545 -16.803735) (xy -56.342906 -16.856171) (xy -56.395105 -16.860262) (xy -58.171328 -17.001475) (xy -56.750349 -17.026038) (xy -56.152491 -17.025673) )(layer F.SilkS) (width  0.010000)
  )
  (fp_poly (pts (xy 51.257500 -11.722646) (xy 51.882863 -11.707319) (xy 52.773135 -11.665657) (xy 53.839449 -11.603571) (xy 54.992935 -11.526972) (xy 56.144724 -11.441768) (xy 57.205949 -11.353871) (xy 58.087739 -11.269191)
     (xy 58.107436 -11.267089) (xy 59.109278 -11.159853) (xy 59.750443 -9.913429) (xy 60.054151 -9.297503) (xy 60.280114 -8.790627) (xy 60.387809 -8.485010) (xy 60.391609 -8.454497) (xy 60.237077 -8.301002)
     (xy 59.815306 -8.044603) (xy 59.189037 -7.713975) (xy 58.421007 -7.337796) (xy 57.573957 -6.944741) (xy 56.710625 -6.563489) (xy 55.893750 -6.222714) (xy 55.186072 -5.951095) (xy 54.650329 -5.777307)
     (xy 54.434273 -5.731530) (xy 53.813824 -5.734121) (xy 53.517234 -5.887062) (xy 53.359204 -6.151442) (xy 53.106390 -6.653409) (xy 52.802930 -7.303598) (xy 52.667004 -7.608453) (xy 52.088146 -8.848572)
     (xy 51.516970 -9.928801) (xy 50.988070 -10.787723) (xy 50.574356 -11.323427) (xy 50.205209 -11.723077) (xy 51.257500 -11.722646) )(layer F.SilkS) (width  0.010000)
  )
  (fp_poly (pts (xy 60.643678 -12.025672) (xy 60.823582 -11.852657) (xy 61.120943 -11.453565) (xy 61.475628 -10.909990) (xy 61.523645 -10.831598) (xy 62.211625 -9.699749) (xy 61.735768 -9.290434) (xy 61.319456 -8.973555)
     (xy 61.047712 -8.903802) (xy 60.828957 -9.062908) (xy 60.796774 -9.103147) (xy 60.623751 -9.367918) (xy 60.343946 -9.835955) (xy 60.060632 -10.330542) (xy 59.495690 -11.335908) (xy 59.973691 -11.711903)
     (xy 60.348949 -11.950238) (xy 60.626028 -12.029554) (xy 60.643678 -12.025672) )(layer F.SilkS) (width  0.010000)
  )
  (fp_poly (pts (xy 54.826957 -12.397820) (xy 55.835596 -12.371710) (xy 56.826349 -12.333802) (xy 57.737140 -12.285786) (xy 58.505895 -12.229352) (xy 59.070537 -12.166191) (xy 59.368992 -12.097992) (xy 59.392785 -12.082460)
     (xy 59.289186 -12.024054) (xy 58.882606 -11.979556) (xy 58.225057 -11.949364) (xy 57.368545 -11.933879) (xy 56.365081 -11.933502) (xy 55.266671 -11.948632) (xy 54.125326 -11.979670) (xy 52.993054 -12.027014)
     (xy 52.887063 -12.032416) (xy 52.222618 -12.094496) (xy 51.804974 -12.192578) (xy 51.688112 -12.292244) (xy 51.855050 -12.350477) (xy 52.314478 -12.388461) (xy 53.004323 -12.407886) (xy 53.862507 -12.410442)
     (xy 54.826957 -12.397820) )(layer F.SilkS) (width  0.010000)
  )
  (fp_poly (pts (xy -9.158734 2.733866) (xy -8.969930 2.841958) (xy -9.062573 2.945505) (xy -9.471482 3.000504) (xy -9.891964 3.007096) (xy -10.446758 2.985263) (xy -10.669095 2.933816) (xy -10.580934 2.847395)
     (xy -10.568531 2.841958) (xy -10.105393 2.718437) (xy -9.588466 2.682406) (xy -9.158734 2.733866) )(layer F.SilkS) (width  0.010000)
  )
  (fp_poly (pts (xy -13.977018 -6.359653) (xy -13.676558 -6.222740) (xy -13.385512 -5.934687) (xy -13.061073 -5.446512) (xy -12.660432 -4.709236) (xy -12.389248 -4.174126) (xy -12.095216 -3.540635) (xy -11.752896 -2.731665)
     (xy -11.388050 -1.816908) (xy -11.026443 -0.866054) (xy -10.693838 0.051206) (xy -10.416000 0.865179) (xy -10.218691 1.506174) (xy -10.127676 1.904501) (xy -10.124475 1.952117) (xy -10.254404 2.234753)
     (xy -10.678269 2.444125) (xy -10.790559 2.477373) (xy -11.467712 2.631257) (xy -11.897518 2.629855) (xy -12.155210 2.466683) (xy -12.227555 2.353496) (xy -12.346593 2.054350) (xy -12.546436 1.475206)
     (xy -12.807917 0.676952) (xy -13.111868 -0.279523) (xy -13.439122 -1.333329) (xy -13.770511 -2.423578) (xy -14.086867 -3.489380) (xy -14.310394 -4.262937) (xy -14.524151 -5.006744) (xy -14.707636 -5.632435)
     (xy -14.835383 -6.053818) (xy -14.874553 -6.172378) (xy -14.798963 -6.333918) (xy -14.399300 -6.393743) (xy -14.329700 -6.394406) (xy -13.977018 -6.359653) )(layer F.SilkS) (width  0.010000)
  )
  (fp_poly (pts (xy -9.953059 0.788590) (xy -9.716518 1.112966) (xy -9.689901 1.154545) (xy -9.371344 1.688413) (xy -9.253349 1.992194) (xy -9.321305 2.118465) (xy -9.418382 2.131468) (xy -9.613630 1.985148)
     (xy -9.749909 1.731818) (xy -9.969855 1.098995) (xy -10.037538 0.784259) (xy -9.953059 0.788590) )(layer F.SilkS) (width  0.010000)
  )
  (fp_poly (pts (xy -51.507790 -7.849368) (xy -51.253110 -7.833461) (xy -51.036845 -7.817978) (xy -50.845804 -7.777326) (xy -50.666793 -7.685912) (xy -50.486619 -7.518144) (xy -50.292091 -7.248428) (xy -50.070016 -6.851171)
     (xy -49.807201 -6.300781) (xy -49.490453 -5.571663) (xy -49.106580 -4.638227) (xy -48.642389 -3.474878) (xy -48.084688 -2.056023) (xy -47.420285 -0.356070) (xy -46.715375 1.447679) (xy -46.044781 3.161793)
     (xy -46.625818 4.186949) (xy -47.206856 5.212105) (xy -47.502981 4.639462) (xy -47.699537 4.215463) (xy -47.972301 3.570684) (xy -48.274304 2.817552) (xy -48.399069 2.494648) (xy -48.638755 1.873003)
     (xy -48.982117 0.991290) (xy -49.401686 -0.080404) (xy -49.869994 -1.271996) (xy -50.359571 -2.513401) (xy -50.623086 -3.179724) (xy -51.068916 -4.323894) (xy -51.463121 -5.370353) (xy -51.788441 -6.270394)
     (xy -52.027618 -6.975311) (xy -52.163394 -7.436399) (xy -52.186955 -7.593061) (xy -52.053737 -7.805324) (xy -51.709230 -7.861388) (xy -51.507790 -7.849368) )(layer F.SilkS) (width  0.010000)
  )
  (fp_poly (pts (xy -48.909501 -7.702500) (xy -48.146500 -7.684121) (xy -47.209299 -7.651877) (xy -46.155851 -7.608608) (xy -45.044106 -7.557152) (xy -43.932016 -7.500350) (xy -42.877533 -7.441041) (xy -41.938606 -7.382063)
     (xy -41.173189 -7.326258) (xy -40.639231 -7.276464) (xy -40.394685 -7.235521) (xy -40.387088 -7.230912) (xy -40.433484 -7.046051) (xy -40.634313 -6.600538) (xy -40.964102 -5.940040) (xy -41.397377 -5.110226)
     (xy -41.908666 -4.156764) (xy -42.472495 -3.125323) (xy -43.063390 -2.061570) (xy -43.655880 -1.011175) (xy -44.224490 -0.019805) (xy -44.743747 0.866871) (xy -45.188178 1.603184) (xy -45.532311 2.143468)
     (xy -45.750671 2.442052) (xy -45.807454 2.486713) (xy -45.908322 2.328345) (xy -46.117766 1.882887) (xy -46.416819 1.194808) (xy -46.786511 0.308576) (xy -47.207875 -0.731339) (xy -47.569017 -1.643007)
     (xy -48.181867 -3.204841) (xy -48.676861 -4.467831) (xy -49.065223 -5.464097) (xy -49.358180 -6.225760) (xy -49.566958 -6.784938) (xy -49.702781 -7.173751) (xy -49.776876 -7.424319) (xy -49.800467 -7.568762)
     (xy -49.784781 -7.639199) (xy -49.741043 -7.667751) (xy -49.681102 -7.686303) (xy -49.440352 -7.704173) (xy -48.909501 -7.702500) )(layer F.SilkS) (width  0.010000)
  )
)
