M48
;DRILL file {KiCad 4.0.5} date 12/17/17 14:59:48
;FORMAT={-:-/ absolute / inch / decimal}
FMAT,2
INCH,TZ
T1C0.039
%
G90
G05
M72
T1
X5.3Y-4.675
X5.4Y-4.675
X5.5Y-4.675
X5.6Y-4.675
X5.7Y-4.675
X5.8Y-4.675
X5.9Y-4.675
X6.Y-4.675
X6.1Y-4.675
X6.2Y-4.675
X6.3Y-4.675
X6.4Y-4.675
X6.5Y-4.675
X6.6Y-4.675
T0
M30
