(module tft_14 (layer F.Cu) (tedit 5A2D91AB)
  (fp_text reference REF** (at 2.4 3.2) (layer F.SilkS)
    (effects (font (size 1 1) (thickness 0.15)))
  )
  (fp_text value tft_14 (at 2.4 -3.6) (layer F.Fab)
    (effects (font (size 1 1) (thickness 0.15)))
  )
  (pad 1 smd rect (at -3.2 0) (size 0.4 3.5) (layers F.Cu F.Paste F.Mask))
  (pad 2 smd rect (at -2.4 0) (size 0.4 3.5) (layers F.Cu F.Paste F.Mask))
  (pad 3 smd rect (at -1.6 0) (size 0.4 3.5) (layers F.Cu F.Paste F.Mask))
  (pad 4 smd rect (at -0.8 0) (size 0.4 3.5) (layers F.Cu F.Paste F.Mask))
  (pad 5 smd rect (at 0 0) (size 0.4 3.5) (layers F.Cu F.Paste F.Mask))
  (pad 6 smd rect (at 0.8 0) (size 0.4 3.5) (layers F.Cu F.Paste F.Mask))
  (pad 7 smd rect (at 1.6 0) (size 0.4 3.5) (layers F.Cu F.Paste F.Mask))
  (pad 8 smd rect (at 2.4 0) (size 0.4 3.5) (layers F.Cu F.Paste F.Mask))
  (pad 9 smd rect (at 3.2 0) (size 0.4 3.5) (layers F.Cu F.Paste F.Mask))
  (pad 10 smd rect (at 4 0) (size 0.4 3.5) (layers F.Cu F.Paste F.Mask))
  (pad 11 smd rect (at 4.8 0) (size 0.4 3.5) (layers F.Cu F.Paste F.Mask))
  (pad 12 smd rect (at 5.6 0) (size 0.4 3.5) (layers F.Cu F.Paste F.Mask))
  (pad 13 smd rect (at 6.4 0) (size 0.4 3.5) (layers F.Cu F.Paste F.Mask))
  (pad 14 smd rect (at 7.2 0) (size 0.4 3.5) (layers F.Cu F.Paste F.Mask))
)
