M48
;DRILL file {KiCad 4.0.5} date 04/15/18 18:07:44
;FORMAT={-:-/ absolute / metric / decimal}
FMAT,2
METRIC,TZ
T1C0.400
T2C0.500
T3C0.550
T4C1.000
T5C1.501
T6C1.999
%
G90
G05
M71
T1
X46.736Y-46.736
X46.736Y-66.04
X47.752Y-81.788
X50.8Y-99.06
X51.308Y-46.228
X56.388Y-51.816
X58.42Y-47.244
X59.436Y-44.196
X59.944Y-53.848
X68.58Y-57.912
X72.136Y-46.228
X77.724Y-97.536
X78.232Y-54.864
X79.756Y-42.164
X85.852Y-48.768
X85.852Y-70.104
X87.884Y-69.088
X88.392Y-73.152
X89.408Y-65.532
X90.424Y-72.644
X90.932Y-48.768
X90.932Y-68.58
X92.964Y-84.836
X94.996Y-65.024
X96.52Y-53.848
X97.028Y-70.104
X97.536Y-58.42
X100.584Y-83.312
X101.092Y-86.36
X101.6Y-82.296
X102.616Y-57.912
X102.616Y-60.452
X104.648Y-60.96
X105.664Y-77.724
X106.172Y-50.8
X106.68Y-58.42
X107.696Y-51.816
X107.696Y-54.864
X107.696Y-67.056
X109.22Y-64.516
X111.76Y-67.056
X115.316Y-70.612
X115.824Y-46.228
X116.84Y-47.752
X116.84Y-61.468
X117.348Y-64.008
X120.904Y-68.072
X121.412Y-72.644
X129.54Y-54.356
X130.048Y-41.656
X130.048Y-50.8
X130.556Y-59.436
X135.128Y-57.404
X135.636Y-46.228
X144.78Y-41.656
X149.86Y-51.308
X150.368Y-74.168
X154.432Y-55.88
X161.544Y-56.896
T4
X82.296Y-42.164
X82.296Y-44.704
X82.296Y-47.244
X161.544Y-42.672
X161.544Y-45.212
T5
X43.18Y-93.472
X43.18Y-103.632
T6
X149.86Y-103.632
X160.02Y-103.632
T2
X45.268Y-40.489G85X45.268Y-41.139
G05
X52.268Y-40.489G85X52.268Y-41.139
G05
T3
X46.418Y-43.514G85X46.118Y-43.514
G05
X51.418Y-43.514G85X51.118Y-43.514
G05
T0
M30
