G04 #@! TF.FileFunction,Soldermask,Top*
%FSLAX46Y46*%
G04 Gerber Fmt 4.6, Leading zero omitted, Abs format (unit mm)*
G04 Created by KiCad (PCBNEW 4.0.5) date 04/15/18 18:11:05*
%MOMM*%
%LPD*%
G01*
G04 APERTURE LIST*
%ADD10C,0.100000*%
%ADD11C,9.000000*%
%ADD12R,2.500000X2.000000*%
%ADD13R,2.000000X2.500000*%
%ADD14R,2.000000X1.600000*%
%ADD15R,2.000000X1.700000*%
%ADD16R,3.500000X1.800000*%
%ADD17C,2.999740*%
%ADD18C,4.000500*%
%ADD19R,1.700000X1.700000*%
%ADD20O,1.700000X1.700000*%
%ADD21R,0.400000X1.350000*%
%ADD22O,1.250000X0.950000*%
%ADD23O,1.000000X1.550000*%
%ADD24R,1.900000X0.800000*%
%ADD25R,0.900000X0.800000*%
%ADD26R,1.700000X2.000000*%
%ADD27R,3.000000X1.500000*%
%ADD28C,0.900000*%
%ADD29R,1.500000X0.700000*%
%ADD30R,0.800000X1.000000*%
%ADD31R,3.500000X0.400000*%
G04 APERTURE END LIST*
D10*
D11*
X148336000Y-65532000D03*
X155956000Y-73152000D03*
X140716000Y-73152000D03*
X148336000Y-80772000D03*
D12*
X121920000Y-45244000D03*
X121920000Y-49244000D03*
D13*
X54832000Y-93472000D03*
X50832000Y-93472000D03*
D14*
X153448000Y-97028000D03*
X157448000Y-97028000D03*
D15*
X112300000Y-100584000D03*
X116300000Y-100584000D03*
X100616000Y-100584000D03*
X104616000Y-100584000D03*
X88932000Y-100584000D03*
X92932000Y-100584000D03*
D16*
X157948000Y-90424000D03*
X152948000Y-90424000D03*
D17*
X43180000Y-93472000D03*
X43180000Y-103632000D03*
D18*
X149860000Y-103632000D03*
X160020000Y-103632000D03*
D19*
X161544000Y-42672000D03*
D20*
X161544000Y-45212000D03*
D19*
X82296000Y-47244000D03*
D20*
X82296000Y-44704000D03*
X82296000Y-42164000D03*
D21*
X50068000Y-43514000D03*
X49418000Y-43514000D03*
X48768000Y-43514000D03*
X48118000Y-43514000D03*
X47468000Y-43514000D03*
D22*
X51268000Y-43514000D03*
X46268000Y-43514000D03*
D23*
X52268000Y-40814000D03*
X45268000Y-40814000D03*
D24*
X63476000Y-103566000D03*
X63476000Y-101666000D03*
X60476000Y-102616000D03*
D25*
X139716000Y-101666000D03*
X139716000Y-103566000D03*
X141716000Y-102616000D03*
D15*
X136620000Y-51308000D03*
X132620000Y-51308000D03*
D26*
X138176000Y-60928000D03*
X138176000Y-56928000D03*
X156464000Y-51848000D03*
X156464000Y-55848000D03*
D15*
X74644000Y-97536000D03*
X70644000Y-97536000D03*
X70644000Y-104140000D03*
X74644000Y-104140000D03*
X51848000Y-101092000D03*
X55848000Y-101092000D03*
D26*
X63500000Y-96488000D03*
X63500000Y-92488000D03*
X131572000Y-100108000D03*
X131572000Y-104108000D03*
D27*
X50800000Y-66548000D03*
X55880000Y-66548000D03*
X50800000Y-64516000D03*
X55880000Y-64516000D03*
X48260000Y-72136000D03*
X43180000Y-72136000D03*
X48260000Y-74168000D03*
X43180000Y-74168000D03*
X50800000Y-81788000D03*
X55880000Y-81788000D03*
X50800000Y-79756000D03*
X55880000Y-79756000D03*
X147828000Y-52832000D03*
X142748000Y-52832000D03*
X147828000Y-54864000D03*
X142748000Y-54864000D03*
X58420000Y-74168000D03*
X63500000Y-74168000D03*
X58420000Y-72136000D03*
X63500000Y-72136000D03*
D28*
X165430000Y-55856000D03*
X165430000Y-52856000D03*
D29*
X163670000Y-56606000D03*
X163670000Y-53606000D03*
X163670000Y-52106000D03*
D30*
X166530000Y-58006000D03*
X166530000Y-50706000D03*
X164320000Y-50706000D03*
X164320000Y-58006000D03*
D31*
X94488000Y-66396000D03*
X94488000Y-67196000D03*
X94488000Y-67996000D03*
X94488000Y-68796000D03*
X94488000Y-69596000D03*
X94488000Y-70396000D03*
X94488000Y-71196000D03*
X94488000Y-71996000D03*
X94488000Y-72796000D03*
X94488000Y-73596000D03*
X94488000Y-74396000D03*
X94488000Y-75196000D03*
X94488000Y-75996000D03*
X94488000Y-76796000D03*
M02*
