G04 #@! TF.FileFunction,Legend,Bot*
%FSLAX46Y46*%
G04 Gerber Fmt 4.6, Leading zero omitted, Abs format (unit mm)*
G04 Created by KiCad (PCBNEW 4.0.5) date 04/15/18 18:07:20*
%MOMM*%
%LPD*%
G01*
G04 APERTURE LIST*
%ADD10C,0.100000*%
%ADD11C,0.300000*%
%ADD12C,0.120000*%
%ADD13C,0.150000*%
%ADD14C,0.500000*%
G04 APERTURE END LIST*
D10*
D11*
X41567571Y-79383429D02*
X40567571Y-79383429D01*
X40710429Y-79383429D02*
X40639000Y-79454857D01*
X40567571Y-79597715D01*
X40567571Y-79812000D01*
X40639000Y-79954857D01*
X40781857Y-80026286D01*
X41567571Y-80026286D01*
X40781857Y-80026286D02*
X40639000Y-80097715D01*
X40567571Y-80240572D01*
X40567571Y-80454857D01*
X40639000Y-80597715D01*
X40781857Y-80669143D01*
X41567571Y-80669143D01*
X41567571Y-82026286D02*
X40781857Y-82026286D01*
X40639000Y-81954857D01*
X40567571Y-81812000D01*
X40567571Y-81526286D01*
X40639000Y-81383429D01*
X41496143Y-82026286D02*
X41567571Y-81883429D01*
X41567571Y-81526286D01*
X41496143Y-81383429D01*
X41353286Y-81312000D01*
X41210429Y-81312000D01*
X41067571Y-81383429D01*
X40996143Y-81526286D01*
X40996143Y-81883429D01*
X40924714Y-82026286D01*
X40567571Y-83383429D02*
X41567571Y-83383429D01*
X40567571Y-82740572D02*
X41353286Y-82740572D01*
X41496143Y-82812000D01*
X41567571Y-82954858D01*
X41567571Y-83169143D01*
X41496143Y-83312000D01*
X41424714Y-83383429D01*
X40567571Y-84740572D02*
X41781857Y-84740572D01*
X41924714Y-84669143D01*
X41996143Y-84597715D01*
X42067571Y-84454858D01*
X42067571Y-84240572D01*
X41996143Y-84097715D01*
X41496143Y-84740572D02*
X41567571Y-84597715D01*
X41567571Y-84312001D01*
X41496143Y-84169143D01*
X41424714Y-84097715D01*
X41281857Y-84026286D01*
X40853286Y-84026286D01*
X40710429Y-84097715D01*
X40639000Y-84169143D01*
X40567571Y-84312001D01*
X40567571Y-84597715D01*
X40639000Y-84740572D01*
X41424714Y-85454858D02*
X41496143Y-85526286D01*
X41567571Y-85454858D01*
X41496143Y-85383429D01*
X41424714Y-85454858D01*
X41567571Y-85454858D01*
X40567571Y-85954858D02*
X40567571Y-86526287D01*
X41567571Y-86169144D02*
X40281857Y-86169144D01*
X40139000Y-86240572D01*
X40067571Y-86383430D01*
X40067571Y-86526287D01*
X41567571Y-87026287D02*
X40567571Y-87026287D01*
X40853286Y-87026287D02*
X40710429Y-87097715D01*
X40639000Y-87169144D01*
X40567571Y-87312001D01*
X40567571Y-87454858D01*
X44117571Y-77454857D02*
X43117571Y-77454857D01*
X43260429Y-77454857D02*
X43189000Y-77526285D01*
X43117571Y-77669143D01*
X43117571Y-77883428D01*
X43189000Y-78026285D01*
X43331857Y-78097714D01*
X44117571Y-78097714D01*
X43331857Y-78097714D02*
X43189000Y-78169143D01*
X43117571Y-78312000D01*
X43117571Y-78526285D01*
X43189000Y-78669143D01*
X43331857Y-78740571D01*
X44117571Y-78740571D01*
X44117571Y-80097714D02*
X43331857Y-80097714D01*
X43189000Y-80026285D01*
X43117571Y-79883428D01*
X43117571Y-79597714D01*
X43189000Y-79454857D01*
X44046143Y-80097714D02*
X44117571Y-79954857D01*
X44117571Y-79597714D01*
X44046143Y-79454857D01*
X43903286Y-79383428D01*
X43760429Y-79383428D01*
X43617571Y-79454857D01*
X43546143Y-79597714D01*
X43546143Y-79954857D01*
X43474714Y-80097714D01*
X43117571Y-81454857D02*
X44117571Y-81454857D01*
X43117571Y-80812000D02*
X43903286Y-80812000D01*
X44046143Y-80883428D01*
X44117571Y-81026286D01*
X44117571Y-81240571D01*
X44046143Y-81383428D01*
X43974714Y-81454857D01*
X43117571Y-82812000D02*
X44331857Y-82812000D01*
X44474714Y-82740571D01*
X44546143Y-82669143D01*
X44617571Y-82526286D01*
X44617571Y-82312000D01*
X44546143Y-82169143D01*
X44046143Y-82812000D02*
X44117571Y-82669143D01*
X44117571Y-82383429D01*
X44046143Y-82240571D01*
X43974714Y-82169143D01*
X43831857Y-82097714D01*
X43403286Y-82097714D01*
X43260429Y-82169143D01*
X43189000Y-82240571D01*
X43117571Y-82383429D01*
X43117571Y-82669143D01*
X43189000Y-82812000D01*
X43974714Y-83526286D02*
X44046143Y-83597714D01*
X44117571Y-83526286D01*
X44046143Y-83454857D01*
X43974714Y-83526286D01*
X44117571Y-83526286D01*
X44046143Y-84169143D02*
X44117571Y-84312000D01*
X44117571Y-84597715D01*
X44046143Y-84740572D01*
X43903286Y-84812000D01*
X43831857Y-84812000D01*
X43689000Y-84740572D01*
X43617571Y-84597715D01*
X43617571Y-84383429D01*
X43546143Y-84240572D01*
X43403286Y-84169143D01*
X43331857Y-84169143D01*
X43189000Y-84240572D01*
X43117571Y-84383429D01*
X43117571Y-84597715D01*
X43189000Y-84740572D01*
X43117571Y-85240572D02*
X43117571Y-85812001D01*
X42617571Y-85454858D02*
X43903286Y-85454858D01*
X44046143Y-85526286D01*
X44117571Y-85669144D01*
X44117571Y-85812001D01*
X44117571Y-86526287D02*
X44046143Y-86383429D01*
X43974714Y-86312001D01*
X43831857Y-86240572D01*
X43403286Y-86240572D01*
X43260429Y-86312001D01*
X43189000Y-86383429D01*
X43117571Y-86526287D01*
X43117571Y-86740572D01*
X43189000Y-86883429D01*
X43260429Y-86954858D01*
X43403286Y-87026287D01*
X43831857Y-87026287D01*
X43974714Y-86954858D01*
X44046143Y-86883429D01*
X44117571Y-86740572D01*
X44117571Y-86526287D01*
X44117571Y-87669144D02*
X43117571Y-87669144D01*
X43403286Y-87669144D02*
X43260429Y-87740572D01*
X43189000Y-87812001D01*
X43117571Y-87954858D01*
X43117571Y-88097715D01*
X44046143Y-89169143D02*
X44117571Y-89026286D01*
X44117571Y-88740572D01*
X44046143Y-88597715D01*
X43903286Y-88526286D01*
X43331857Y-88526286D01*
X43189000Y-88597715D01*
X43117571Y-88740572D01*
X43117571Y-89026286D01*
X43189000Y-89169143D01*
X43331857Y-89240572D01*
X43474714Y-89240572D01*
X43617571Y-88526286D01*
X143587429Y-90076571D02*
X143587429Y-88576571D01*
X143087429Y-89648000D01*
X142587429Y-88576571D01*
X142587429Y-90076571D01*
X141944572Y-89648000D02*
X141230286Y-89648000D01*
X142087429Y-90076571D02*
X141587429Y-88576571D01*
X141087429Y-90076571D01*
X140587429Y-88576571D02*
X140587429Y-89790857D01*
X140516001Y-89933714D01*
X140444572Y-90005143D01*
X140301715Y-90076571D01*
X140016001Y-90076571D01*
X139873143Y-90005143D01*
X139801715Y-89933714D01*
X139730286Y-89790857D01*
X139730286Y-88576571D01*
X138230286Y-88648000D02*
X138373143Y-88576571D01*
X138587429Y-88576571D01*
X138801714Y-88648000D01*
X138944572Y-88790857D01*
X139016000Y-88933714D01*
X139087429Y-89219429D01*
X139087429Y-89433714D01*
X139016000Y-89719429D01*
X138944572Y-89862286D01*
X138801714Y-90005143D01*
X138587429Y-90076571D01*
X138444572Y-90076571D01*
X138230286Y-90005143D01*
X138158857Y-89933714D01*
X138158857Y-89433714D01*
X138444572Y-89433714D01*
X136373143Y-90076571D02*
X136373143Y-88576571D01*
X135873143Y-89648000D01*
X135373143Y-88576571D01*
X135373143Y-90076571D01*
X134873143Y-88576571D02*
X134373143Y-90076571D01*
X133873143Y-88576571D01*
X133373143Y-90076571D02*
X133373143Y-88576571D01*
X132801715Y-88576571D01*
X132658857Y-88648000D01*
X132587429Y-88719429D01*
X132516000Y-88862286D01*
X132516000Y-89076571D01*
X132587429Y-89219429D01*
X132658857Y-89290857D01*
X132801715Y-89362286D01*
X133373143Y-89362286D01*
X130301715Y-90648000D02*
X130373143Y-90576571D01*
X130516000Y-90362286D01*
X130587429Y-90219429D01*
X130658858Y-90005143D01*
X130730286Y-89648000D01*
X130730286Y-89362286D01*
X130658858Y-89005143D01*
X130587429Y-88790857D01*
X130516000Y-88648000D01*
X130373143Y-88433714D01*
X130301715Y-88362286D01*
X129873143Y-89076571D02*
X129587429Y-90076571D01*
X129301715Y-89362286D01*
X129016000Y-90076571D01*
X128730286Y-89076571D01*
X128158857Y-90076571D02*
X128158857Y-89076571D01*
X128158857Y-88576571D02*
X128230286Y-88648000D01*
X128158857Y-88719429D01*
X128087429Y-88648000D01*
X128158857Y-88576571D01*
X128158857Y-88719429D01*
X127658857Y-89076571D02*
X127087428Y-89076571D01*
X127444571Y-88576571D02*
X127444571Y-89862286D01*
X127373143Y-90005143D01*
X127230285Y-90076571D01*
X127087428Y-90076571D01*
X126587428Y-90076571D02*
X126587428Y-88576571D01*
X125944571Y-90076571D02*
X125944571Y-89290857D01*
X126016000Y-89148000D01*
X126158857Y-89076571D01*
X126373142Y-89076571D01*
X126516000Y-89148000D01*
X126587428Y-89219429D01*
X125015999Y-90076571D02*
X125158857Y-90005143D01*
X125230285Y-89933714D01*
X125301714Y-89790857D01*
X125301714Y-89362286D01*
X125230285Y-89219429D01*
X125158857Y-89148000D01*
X125015999Y-89076571D01*
X124801714Y-89076571D01*
X124658857Y-89148000D01*
X124587428Y-89219429D01*
X124515999Y-89362286D01*
X124515999Y-89790857D01*
X124587428Y-89933714D01*
X124658857Y-90005143D01*
X124801714Y-90076571D01*
X125015999Y-90076571D01*
X123230285Y-89076571D02*
X123230285Y-90076571D01*
X123873142Y-89076571D02*
X123873142Y-89862286D01*
X123801714Y-90005143D01*
X123658856Y-90076571D01*
X123444571Y-90076571D01*
X123301714Y-90005143D01*
X123230285Y-89933714D01*
X122730285Y-89076571D02*
X122158856Y-89076571D01*
X122515999Y-88576571D02*
X122515999Y-89862286D01*
X122444571Y-90005143D01*
X122301713Y-90076571D01*
X122158856Y-90076571D01*
X120515999Y-90076571D02*
X120515999Y-88576571D01*
X120515999Y-89148000D02*
X120373142Y-89076571D01*
X120087428Y-89076571D01*
X119944571Y-89148000D01*
X119873142Y-89219429D01*
X119801713Y-89362286D01*
X119801713Y-89790857D01*
X119873142Y-89933714D01*
X119944571Y-90005143D01*
X120087428Y-90076571D01*
X120373142Y-90076571D01*
X120515999Y-90005143D01*
X118515999Y-90076571D02*
X118515999Y-89290857D01*
X118587428Y-89148000D01*
X118730285Y-89076571D01*
X119015999Y-89076571D01*
X119158856Y-89148000D01*
X118515999Y-90005143D02*
X118658856Y-90076571D01*
X119015999Y-90076571D01*
X119158856Y-90005143D01*
X119230285Y-89862286D01*
X119230285Y-89719429D01*
X119158856Y-89576571D01*
X119015999Y-89505143D01*
X118658856Y-89505143D01*
X118515999Y-89433714D01*
X118015999Y-89076571D02*
X117444570Y-89076571D01*
X117801713Y-88576571D02*
X117801713Y-89862286D01*
X117730285Y-90005143D01*
X117587427Y-90076571D01*
X117444570Y-90076571D01*
X117158856Y-89076571D02*
X116587427Y-89076571D01*
X116944570Y-88576571D02*
X116944570Y-89862286D01*
X116873142Y-90005143D01*
X116730284Y-90076571D01*
X116587427Y-90076571D01*
X115515999Y-90005143D02*
X115658856Y-90076571D01*
X115944570Y-90076571D01*
X116087427Y-90005143D01*
X116158856Y-89862286D01*
X116158856Y-89290857D01*
X116087427Y-89148000D01*
X115944570Y-89076571D01*
X115658856Y-89076571D01*
X115515999Y-89148000D01*
X115444570Y-89290857D01*
X115444570Y-89433714D01*
X116158856Y-89576571D01*
X114801713Y-90076571D02*
X114801713Y-89076571D01*
X114801713Y-89362286D02*
X114730285Y-89219429D01*
X114658856Y-89148000D01*
X114515999Y-89076571D01*
X114373142Y-89076571D01*
X114015999Y-89076571D02*
X113658856Y-90076571D01*
X113301714Y-89076571D02*
X113658856Y-90076571D01*
X113801714Y-90433714D01*
X113873142Y-90505143D01*
X114015999Y-90576571D01*
X112873142Y-90648000D02*
X112801714Y-90576571D01*
X112658857Y-90362286D01*
X112587428Y-90219429D01*
X112515999Y-90005143D01*
X112444571Y-89648000D01*
X112444571Y-89362286D01*
X112515999Y-89005143D01*
X112587428Y-88790857D01*
X112658857Y-88648000D01*
X112801714Y-88433714D01*
X112873142Y-88362286D01*
X144516000Y-92626571D02*
X144516000Y-91126571D01*
X143944572Y-91126571D01*
X143801714Y-91198000D01*
X143730286Y-91269429D01*
X143658857Y-91412286D01*
X143658857Y-91626571D01*
X143730286Y-91769429D01*
X143801714Y-91840857D01*
X143944572Y-91912286D01*
X144516000Y-91912286D01*
X142373143Y-92555143D02*
X142516000Y-92626571D01*
X142801714Y-92626571D01*
X142944572Y-92555143D01*
X143016000Y-92483714D01*
X143087429Y-92340857D01*
X143087429Y-91912286D01*
X143016000Y-91769429D01*
X142944572Y-91698000D01*
X142801714Y-91626571D01*
X142516000Y-91626571D01*
X142373143Y-91698000D01*
X141730286Y-92626571D02*
X141730286Y-91126571D01*
X141730286Y-91698000D02*
X141587429Y-91626571D01*
X141301715Y-91626571D01*
X141158858Y-91698000D01*
X141087429Y-91769429D01*
X141016000Y-91912286D01*
X141016000Y-92340857D01*
X141087429Y-92483714D01*
X141158858Y-92555143D01*
X141301715Y-92626571D01*
X141587429Y-92626571D01*
X141730286Y-92555143D01*
X138587429Y-92626571D02*
X138587429Y-91126571D01*
X138587429Y-92555143D02*
X138730286Y-92626571D01*
X139016000Y-92626571D01*
X139158858Y-92555143D01*
X139230286Y-92483714D01*
X139301715Y-92340857D01*
X139301715Y-91912286D01*
X139230286Y-91769429D01*
X139158858Y-91698000D01*
X139016000Y-91626571D01*
X138730286Y-91626571D01*
X138587429Y-91698000D01*
X137301715Y-92555143D02*
X137444572Y-92626571D01*
X137730286Y-92626571D01*
X137873143Y-92555143D01*
X137944572Y-92412286D01*
X137944572Y-91840857D01*
X137873143Y-91698000D01*
X137730286Y-91626571D01*
X137444572Y-91626571D01*
X137301715Y-91698000D01*
X137230286Y-91840857D01*
X137230286Y-91983714D01*
X137944572Y-92126571D01*
X136658858Y-92555143D02*
X136516001Y-92626571D01*
X136230286Y-92626571D01*
X136087429Y-92555143D01*
X136016001Y-92412286D01*
X136016001Y-92340857D01*
X136087429Y-92198000D01*
X136230286Y-92126571D01*
X136444572Y-92126571D01*
X136587429Y-92055143D01*
X136658858Y-91912286D01*
X136658858Y-91840857D01*
X136587429Y-91698000D01*
X136444572Y-91626571D01*
X136230286Y-91626571D01*
X136087429Y-91698000D01*
X135373143Y-92626571D02*
X135373143Y-91626571D01*
X135373143Y-91126571D02*
X135444572Y-91198000D01*
X135373143Y-91269429D01*
X135301715Y-91198000D01*
X135373143Y-91126571D01*
X135373143Y-91269429D01*
X134016000Y-91626571D02*
X134016000Y-92840857D01*
X134087429Y-92983714D01*
X134158857Y-93055143D01*
X134301714Y-93126571D01*
X134516000Y-93126571D01*
X134658857Y-93055143D01*
X134016000Y-92555143D02*
X134158857Y-92626571D01*
X134444571Y-92626571D01*
X134587429Y-92555143D01*
X134658857Y-92483714D01*
X134730286Y-92340857D01*
X134730286Y-91912286D01*
X134658857Y-91769429D01*
X134587429Y-91698000D01*
X134444571Y-91626571D01*
X134158857Y-91626571D01*
X134016000Y-91698000D01*
X133301714Y-91626571D02*
X133301714Y-92626571D01*
X133301714Y-91769429D02*
X133230286Y-91698000D01*
X133087428Y-91626571D01*
X132873143Y-91626571D01*
X132730286Y-91698000D01*
X132658857Y-91840857D01*
X132658857Y-92626571D01*
X130801714Y-92626571D02*
X130801714Y-91126571D01*
X130801714Y-91698000D02*
X130658857Y-91626571D01*
X130373143Y-91626571D01*
X130230286Y-91698000D01*
X130158857Y-91769429D01*
X130087428Y-91912286D01*
X130087428Y-92340857D01*
X130158857Y-92483714D01*
X130230286Y-92555143D01*
X130373143Y-92626571D01*
X130658857Y-92626571D01*
X130801714Y-92555143D01*
X129587428Y-91626571D02*
X129230285Y-92626571D01*
X128873143Y-91626571D02*
X129230285Y-92626571D01*
X129373143Y-92983714D01*
X129444571Y-93055143D01*
X129587428Y-93126571D01*
X127158857Y-92626571D02*
X127158857Y-91126571D01*
X126658857Y-92198000D01*
X126158857Y-91126571D01*
X126158857Y-92626571D01*
X124801714Y-92626571D02*
X124801714Y-91840857D01*
X124873143Y-91698000D01*
X125016000Y-91626571D01*
X125301714Y-91626571D01*
X125444571Y-91698000D01*
X124801714Y-92555143D02*
X124944571Y-92626571D01*
X125301714Y-92626571D01*
X125444571Y-92555143D01*
X125516000Y-92412286D01*
X125516000Y-92269429D01*
X125444571Y-92126571D01*
X125301714Y-92055143D01*
X124944571Y-92055143D01*
X124801714Y-91983714D01*
X124301714Y-91626571D02*
X123730285Y-91626571D01*
X124087428Y-91126571D02*
X124087428Y-92412286D01*
X124016000Y-92555143D01*
X123873142Y-92626571D01*
X123730285Y-92626571D01*
X123444571Y-91626571D02*
X122873142Y-91626571D01*
X123230285Y-91126571D02*
X123230285Y-92412286D01*
X123158857Y-92555143D01*
X123015999Y-92626571D01*
X122873142Y-92626571D01*
X122373142Y-92626571D02*
X122373142Y-91626571D01*
X122373142Y-91126571D02*
X122444571Y-91198000D01*
X122373142Y-91269429D01*
X122301714Y-91198000D01*
X122373142Y-91126571D01*
X122373142Y-91269429D01*
X121730285Y-92555143D02*
X121587428Y-92626571D01*
X121301713Y-92626571D01*
X121158856Y-92555143D01*
X121087428Y-92412286D01*
X121087428Y-92340857D01*
X121158856Y-92198000D01*
X121301713Y-92126571D01*
X121515999Y-92126571D01*
X121658856Y-92055143D01*
X121730285Y-91912286D01*
X121730285Y-91840857D01*
X121658856Y-91698000D01*
X121515999Y-91626571D01*
X121301713Y-91626571D01*
X121158856Y-91698000D01*
X119301713Y-91840857D02*
X118801713Y-91840857D01*
X118587427Y-92626571D02*
X119301713Y-92626571D01*
X119301713Y-91126571D01*
X118587427Y-91126571D01*
X117658856Y-91912286D02*
X117658856Y-92626571D01*
X118158856Y-91126571D02*
X117658856Y-91912286D01*
X117158856Y-91126571D01*
X116658856Y-92626571D02*
X116658856Y-91126571D01*
X115801713Y-92626571D01*
X115801713Y-91126571D01*
X115158856Y-92198000D02*
X114444570Y-92198000D01*
X115301713Y-92626571D02*
X114801713Y-91126571D01*
X114301713Y-92626571D01*
X112944570Y-92626571D02*
X113444570Y-91912286D01*
X113801713Y-92626571D02*
X113801713Y-91126571D01*
X113230285Y-91126571D01*
X113087427Y-91198000D01*
X113015999Y-91269429D01*
X112944570Y-91412286D01*
X112944570Y-91626571D01*
X113015999Y-91769429D01*
X113087427Y-91840857D01*
X113230285Y-91912286D01*
X113801713Y-91912286D01*
X112301713Y-92626571D02*
X112301713Y-91126571D01*
X111944570Y-91126571D01*
X111730285Y-91198000D01*
X111587427Y-91340857D01*
X111515999Y-91483714D01*
X111444570Y-91769429D01*
X111444570Y-91983714D01*
X111515999Y-92269429D01*
X111587427Y-92412286D01*
X111730285Y-92555143D01*
X111944570Y-92626571D01*
X112301713Y-92626571D01*
X145730286Y-95105143D02*
X145516000Y-95176571D01*
X145158857Y-95176571D01*
X145016000Y-95105143D01*
X144944571Y-95033714D01*
X144873143Y-94890857D01*
X144873143Y-94748000D01*
X144944571Y-94605143D01*
X145016000Y-94533714D01*
X145158857Y-94462286D01*
X145444571Y-94390857D01*
X145587429Y-94319429D01*
X145658857Y-94248000D01*
X145730286Y-94105143D01*
X145730286Y-93962286D01*
X145658857Y-93819429D01*
X145587429Y-93748000D01*
X145444571Y-93676571D01*
X145087429Y-93676571D01*
X144873143Y-93748000D01*
X144016000Y-95176571D02*
X144158858Y-95105143D01*
X144230286Y-95033714D01*
X144301715Y-94890857D01*
X144301715Y-94462286D01*
X144230286Y-94319429D01*
X144158858Y-94248000D01*
X144016000Y-94176571D01*
X143801715Y-94176571D01*
X143658858Y-94248000D01*
X143587429Y-94319429D01*
X143516000Y-94462286D01*
X143516000Y-94890857D01*
X143587429Y-95033714D01*
X143658858Y-95105143D01*
X143801715Y-95176571D01*
X144016000Y-95176571D01*
X143087429Y-94176571D02*
X142516000Y-94176571D01*
X142873143Y-95176571D02*
X142873143Y-93890857D01*
X142801715Y-93748000D01*
X142658857Y-93676571D01*
X142516000Y-93676571D01*
X142230286Y-94176571D02*
X141658857Y-94176571D01*
X142016000Y-93676571D02*
X142016000Y-94962286D01*
X141944572Y-95105143D01*
X141801714Y-95176571D01*
X141658857Y-95176571D01*
X141301714Y-94176571D02*
X141016000Y-95176571D01*
X140730286Y-94462286D01*
X140444571Y-95176571D01*
X140158857Y-94176571D01*
X138944571Y-95176571D02*
X138944571Y-94390857D01*
X139016000Y-94248000D01*
X139158857Y-94176571D01*
X139444571Y-94176571D01*
X139587428Y-94248000D01*
X138944571Y-95105143D02*
X139087428Y-95176571D01*
X139444571Y-95176571D01*
X139587428Y-95105143D01*
X139658857Y-94962286D01*
X139658857Y-94819429D01*
X139587428Y-94676571D01*
X139444571Y-94605143D01*
X139087428Y-94605143D01*
X138944571Y-94533714D01*
X138230285Y-95176571D02*
X138230285Y-94176571D01*
X138230285Y-94462286D02*
X138158857Y-94319429D01*
X138087428Y-94248000D01*
X137944571Y-94176571D01*
X137801714Y-94176571D01*
X136730286Y-95105143D02*
X136873143Y-95176571D01*
X137158857Y-95176571D01*
X137301714Y-95105143D01*
X137373143Y-94962286D01*
X137373143Y-94390857D01*
X137301714Y-94248000D01*
X137158857Y-94176571D01*
X136873143Y-94176571D01*
X136730286Y-94248000D01*
X136658857Y-94390857D01*
X136658857Y-94533714D01*
X137373143Y-94676571D01*
X134873143Y-95176571D02*
X134873143Y-93676571D01*
X134873143Y-94248000D02*
X134730286Y-94176571D01*
X134444572Y-94176571D01*
X134301715Y-94248000D01*
X134230286Y-94319429D01*
X134158857Y-94462286D01*
X134158857Y-94890857D01*
X134230286Y-95033714D01*
X134301715Y-95105143D01*
X134444572Y-95176571D01*
X134730286Y-95176571D01*
X134873143Y-95105143D01*
X133658857Y-94176571D02*
X133301714Y-95176571D01*
X132944572Y-94176571D02*
X133301714Y-95176571D01*
X133444572Y-95533714D01*
X133516000Y-95605143D01*
X133658857Y-95676571D01*
X131301715Y-94748000D02*
X130587429Y-94748000D01*
X131444572Y-95176571D02*
X130944572Y-93676571D01*
X130444572Y-95176571D01*
X129301715Y-94176571D02*
X129301715Y-95176571D01*
X129944572Y-94176571D02*
X129944572Y-94962286D01*
X129873144Y-95105143D01*
X129730286Y-95176571D01*
X129516001Y-95176571D01*
X129373144Y-95105143D01*
X129301715Y-95033714D01*
X127944572Y-94176571D02*
X127944572Y-95390857D01*
X128016001Y-95533714D01*
X128087429Y-95605143D01*
X128230286Y-95676571D01*
X128444572Y-95676571D01*
X128587429Y-95605143D01*
X127944572Y-95105143D02*
X128087429Y-95176571D01*
X128373143Y-95176571D01*
X128516001Y-95105143D01*
X128587429Y-95033714D01*
X128658858Y-94890857D01*
X128658858Y-94462286D01*
X128587429Y-94319429D01*
X128516001Y-94248000D01*
X128373143Y-94176571D01*
X128087429Y-94176571D01*
X127944572Y-94248000D01*
X126587429Y-94176571D02*
X126587429Y-95176571D01*
X127230286Y-94176571D02*
X127230286Y-94962286D01*
X127158858Y-95105143D01*
X127016000Y-95176571D01*
X126801715Y-95176571D01*
X126658858Y-95105143D01*
X126587429Y-95033714D01*
X125944572Y-95105143D02*
X125801715Y-95176571D01*
X125516000Y-95176571D01*
X125373143Y-95105143D01*
X125301715Y-94962286D01*
X125301715Y-94890857D01*
X125373143Y-94748000D01*
X125516000Y-94676571D01*
X125730286Y-94676571D01*
X125873143Y-94605143D01*
X125944572Y-94462286D01*
X125944572Y-94390857D01*
X125873143Y-94248000D01*
X125730286Y-94176571D01*
X125516000Y-94176571D01*
X125373143Y-94248000D01*
X124873143Y-94176571D02*
X124301714Y-94176571D01*
X124658857Y-93676571D02*
X124658857Y-94962286D01*
X124587429Y-95105143D01*
X124444571Y-95176571D01*
X124301714Y-95176571D01*
X123801714Y-95176571D02*
X123801714Y-94176571D01*
X123801714Y-93676571D02*
X123873143Y-93748000D01*
X123801714Y-93819429D01*
X123730286Y-93748000D01*
X123801714Y-93676571D01*
X123801714Y-93819429D01*
X123087428Y-94176571D02*
X123087428Y-95176571D01*
X123087428Y-94319429D02*
X123016000Y-94248000D01*
X122873142Y-94176571D01*
X122658857Y-94176571D01*
X122516000Y-94248000D01*
X122444571Y-94390857D01*
X122444571Y-95176571D01*
X120658857Y-94748000D02*
X119944571Y-94748000D01*
X120801714Y-95176571D02*
X120301714Y-93676571D01*
X119801714Y-95176571D01*
X119301714Y-95176571D02*
X119301714Y-93676571D01*
X117873142Y-95176571D02*
X118587428Y-95176571D01*
X118587428Y-93676571D01*
X116658856Y-95176571D02*
X117373142Y-95176571D01*
X117373142Y-93676571D01*
X116158856Y-94390857D02*
X115658856Y-94390857D01*
X115444570Y-95176571D02*
X116158856Y-95176571D01*
X116158856Y-93676571D01*
X115444570Y-93676571D01*
X113944570Y-95176571D02*
X114444570Y-94462286D01*
X114801713Y-95176571D02*
X114801713Y-93676571D01*
X114230285Y-93676571D01*
X114087427Y-93748000D01*
X114015999Y-93819429D01*
X113944570Y-93962286D01*
X113944570Y-94176571D01*
X114015999Y-94319429D01*
X114087427Y-94390857D01*
X114230285Y-94462286D01*
X114801713Y-94462286D01*
X113301713Y-94390857D02*
X112801713Y-94390857D01*
X112587427Y-95176571D02*
X113301713Y-95176571D01*
X113301713Y-93676571D01*
X112587427Y-93676571D01*
X112158856Y-93676571D02*
X111301713Y-93676571D01*
X111730284Y-95176571D02*
X111730284Y-93676571D01*
D12*
X65020000Y-58404000D02*
X65020000Y-56404000D01*
X67060000Y-56404000D02*
X67060000Y-58404000D01*
X54848000Y-50248000D02*
X52848000Y-50248000D01*
X52848000Y-47288000D02*
X54848000Y-47288000D01*
X46184000Y-47768000D02*
X46184000Y-49768000D01*
X43224000Y-49768000D02*
X43224000Y-47768000D01*
X80320000Y-74928000D02*
X79390000Y-74928000D01*
X77160000Y-74928000D02*
X78090000Y-74928000D01*
X77160000Y-74928000D02*
X77160000Y-72768000D01*
X80320000Y-74928000D02*
X80320000Y-73468000D01*
X124476000Y-59998000D02*
X126476000Y-59998000D01*
X126476000Y-57858000D02*
X124476000Y-57858000D01*
X148860000Y-49330000D02*
X150860000Y-49330000D01*
X150860000Y-47190000D02*
X148860000Y-47190000D01*
X124476000Y-64570000D02*
X126476000Y-64570000D01*
X126476000Y-62430000D02*
X124476000Y-62430000D01*
X124476000Y-69142000D02*
X126476000Y-69142000D01*
X126476000Y-67002000D02*
X124476000Y-67002000D01*
X124476000Y-55426000D02*
X126476000Y-55426000D01*
X126476000Y-53286000D02*
X124476000Y-53286000D01*
X74152000Y-57858000D02*
X72152000Y-57858000D01*
X72152000Y-59998000D02*
X74152000Y-59998000D01*
D13*
X149320000Y-44672000D02*
X149320000Y-40672000D01*
X145320000Y-44672000D02*
X149320000Y-44672000D01*
X145320000Y-40672000D02*
X145320000Y-44672000D01*
X149320000Y-40672000D02*
X145320000Y-40672000D01*
X130588000Y-40672000D02*
X130588000Y-44672000D01*
X134588000Y-40672000D02*
X130588000Y-40672000D01*
X134588000Y-44672000D02*
X134588000Y-40672000D01*
X130588000Y-44672000D02*
X134588000Y-44672000D01*
X68915000Y-40395000D02*
X68915000Y-40970000D01*
X63165000Y-40395000D02*
X63165000Y-41045000D01*
X63165000Y-51045000D02*
X63165000Y-50395000D01*
X68915000Y-51045000D02*
X68915000Y-50395000D01*
X68915000Y-40395000D02*
X63165000Y-40395000D01*
X68915000Y-51045000D02*
X63165000Y-51045000D01*
X68915000Y-40970000D02*
X70515000Y-40970000D01*
D12*
X48114000Y-61346000D02*
X46854000Y-61346000D01*
X41294000Y-61346000D02*
X42554000Y-61346000D01*
X48114000Y-57586000D02*
X48114000Y-61346000D01*
X41294000Y-55336000D02*
X41294000Y-61346000D01*
D14*
X112297981Y-44704000D02*
G75*
G03X112297981Y-44704000I-283981J0D01*
G01*
D13*
X93108000Y-44558000D02*
X111108000Y-44558000D01*
X111108000Y-38558000D02*
X111108000Y-64058000D01*
X93108000Y-38558000D02*
X93108000Y-64058000D01*
X93108000Y-64058000D02*
X111108000Y-64058000D01*
X93108000Y-38558000D02*
X111108000Y-38558000D01*
X64647143Y-57237334D02*
X64694762Y-57189715D01*
X64742381Y-57046858D01*
X64742381Y-56951620D01*
X64694762Y-56808762D01*
X64599524Y-56713524D01*
X64504286Y-56665905D01*
X64313810Y-56618286D01*
X64170952Y-56618286D01*
X63980476Y-56665905D01*
X63885238Y-56713524D01*
X63790000Y-56808762D01*
X63742381Y-56951620D01*
X63742381Y-57046858D01*
X63790000Y-57189715D01*
X63837619Y-57237334D01*
X64075714Y-58094477D02*
X64742381Y-58094477D01*
X63694762Y-57856381D02*
X64409048Y-57618286D01*
X64409048Y-58237334D01*
X54014666Y-51375143D02*
X54062285Y-51422762D01*
X54205142Y-51470381D01*
X54300380Y-51470381D01*
X54443238Y-51422762D01*
X54538476Y-51327524D01*
X54586095Y-51232286D01*
X54633714Y-51041810D01*
X54633714Y-50898952D01*
X54586095Y-50708476D01*
X54538476Y-50613238D01*
X54443238Y-50518000D01*
X54300380Y-50470381D01*
X54205142Y-50470381D01*
X54062285Y-50518000D01*
X54014666Y-50565619D01*
X53109904Y-50470381D02*
X53586095Y-50470381D01*
X53633714Y-50946571D01*
X53586095Y-50898952D01*
X53490857Y-50851333D01*
X53252761Y-50851333D01*
X53157523Y-50898952D01*
X53109904Y-50946571D01*
X53062285Y-51041810D01*
X53062285Y-51279905D01*
X53109904Y-51375143D01*
X53157523Y-51422762D01*
X53252761Y-51470381D01*
X53490857Y-51470381D01*
X53586095Y-51422762D01*
X53633714Y-51375143D01*
X47311143Y-48601334D02*
X47358762Y-48553715D01*
X47406381Y-48410858D01*
X47406381Y-48315620D01*
X47358762Y-48172762D01*
X47263524Y-48077524D01*
X47168286Y-48029905D01*
X46977810Y-47982286D01*
X46834952Y-47982286D01*
X46644476Y-48029905D01*
X46549238Y-48077524D01*
X46454000Y-48172762D01*
X46406381Y-48315620D01*
X46406381Y-48410858D01*
X46454000Y-48553715D01*
X46501619Y-48601334D01*
X46406381Y-49458477D02*
X46406381Y-49268000D01*
X46454000Y-49172762D01*
X46501619Y-49125143D01*
X46644476Y-49029905D01*
X46834952Y-48982286D01*
X47215905Y-48982286D01*
X47311143Y-49029905D01*
X47358762Y-49077524D01*
X47406381Y-49172762D01*
X47406381Y-49363239D01*
X47358762Y-49458477D01*
X47311143Y-49506096D01*
X47215905Y-49553715D01*
X46977810Y-49553715D01*
X46882571Y-49506096D01*
X46834952Y-49458477D01*
X46787333Y-49363239D01*
X46787333Y-49172762D01*
X46834952Y-49077524D01*
X46882571Y-49029905D01*
X46977810Y-48982286D01*
X76787619Y-74072762D02*
X76740000Y-73977524D01*
X76644762Y-73882286D01*
X76501905Y-73739429D01*
X76454286Y-73644190D01*
X76454286Y-73548952D01*
X76692381Y-73596571D02*
X76644762Y-73501333D01*
X76549524Y-73406095D01*
X76359048Y-73358476D01*
X76025714Y-73358476D01*
X75835238Y-73406095D01*
X75740000Y-73501333D01*
X75692381Y-73596571D01*
X75692381Y-73787048D01*
X75740000Y-73882286D01*
X75835238Y-73977524D01*
X76025714Y-74025143D01*
X76359048Y-74025143D01*
X76549524Y-73977524D01*
X76644762Y-73882286D01*
X76692381Y-73787048D01*
X76692381Y-73596571D01*
X75787619Y-74406095D02*
X75740000Y-74453714D01*
X75692381Y-74548952D01*
X75692381Y-74787048D01*
X75740000Y-74882286D01*
X75787619Y-74929905D01*
X75882857Y-74977524D01*
X75978095Y-74977524D01*
X76120952Y-74929905D01*
X76692381Y-74358476D01*
X76692381Y-74977524D01*
X125642666Y-57530381D02*
X125976000Y-57054190D01*
X126214095Y-57530381D02*
X126214095Y-56530381D01*
X125833142Y-56530381D01*
X125737904Y-56578000D01*
X125690285Y-56625619D01*
X125642666Y-56720857D01*
X125642666Y-56863714D01*
X125690285Y-56958952D01*
X125737904Y-57006571D01*
X125833142Y-57054190D01*
X126214095Y-57054190D01*
X124690285Y-57530381D02*
X125261714Y-57530381D01*
X124976000Y-57530381D02*
X124976000Y-56530381D01*
X125071238Y-56673238D01*
X125166476Y-56768476D01*
X125261714Y-56816095D01*
X150026666Y-46862381D02*
X150360000Y-46386190D01*
X150598095Y-46862381D02*
X150598095Y-45862381D01*
X150217142Y-45862381D01*
X150121904Y-45910000D01*
X150074285Y-45957619D01*
X150026666Y-46052857D01*
X150026666Y-46195714D01*
X150074285Y-46290952D01*
X150121904Y-46338571D01*
X150217142Y-46386190D01*
X150598095Y-46386190D01*
X149693333Y-45862381D02*
X149074285Y-45862381D01*
X149407619Y-46243333D01*
X149264761Y-46243333D01*
X149169523Y-46290952D01*
X149121904Y-46338571D01*
X149074285Y-46433810D01*
X149074285Y-46671905D01*
X149121904Y-46767143D01*
X149169523Y-46814762D01*
X149264761Y-46862381D01*
X149550476Y-46862381D01*
X149645714Y-46814762D01*
X149693333Y-46767143D01*
X125642666Y-62102381D02*
X125976000Y-61626190D01*
X126214095Y-62102381D02*
X126214095Y-61102381D01*
X125833142Y-61102381D01*
X125737904Y-61150000D01*
X125690285Y-61197619D01*
X125642666Y-61292857D01*
X125642666Y-61435714D01*
X125690285Y-61530952D01*
X125737904Y-61578571D01*
X125833142Y-61626190D01*
X126214095Y-61626190D01*
X124785523Y-61435714D02*
X124785523Y-62102381D01*
X125023619Y-61054762D02*
X125261714Y-61769048D01*
X124642666Y-61769048D01*
X125642666Y-66674381D02*
X125976000Y-66198190D01*
X126214095Y-66674381D02*
X126214095Y-65674381D01*
X125833142Y-65674381D01*
X125737904Y-65722000D01*
X125690285Y-65769619D01*
X125642666Y-65864857D01*
X125642666Y-66007714D01*
X125690285Y-66102952D01*
X125737904Y-66150571D01*
X125833142Y-66198190D01*
X126214095Y-66198190D01*
X124737904Y-65674381D02*
X125214095Y-65674381D01*
X125261714Y-66150571D01*
X125214095Y-66102952D01*
X125118857Y-66055333D01*
X124880761Y-66055333D01*
X124785523Y-66102952D01*
X124737904Y-66150571D01*
X124690285Y-66245810D01*
X124690285Y-66483905D01*
X124737904Y-66579143D01*
X124785523Y-66626762D01*
X124880761Y-66674381D01*
X125118857Y-66674381D01*
X125214095Y-66626762D01*
X125261714Y-66579143D01*
X125642666Y-52958381D02*
X125976000Y-52482190D01*
X126214095Y-52958381D02*
X126214095Y-51958381D01*
X125833142Y-51958381D01*
X125737904Y-52006000D01*
X125690285Y-52053619D01*
X125642666Y-52148857D01*
X125642666Y-52291714D01*
X125690285Y-52386952D01*
X125737904Y-52434571D01*
X125833142Y-52482190D01*
X126214095Y-52482190D01*
X125309333Y-51958381D02*
X124642666Y-51958381D01*
X125071238Y-52958381D01*
X73794857Y-61230381D02*
X74128191Y-60754190D01*
X74366286Y-61230381D02*
X74366286Y-60230381D01*
X73985333Y-60230381D01*
X73890095Y-60278000D01*
X73842476Y-60325619D01*
X73794857Y-60420857D01*
X73794857Y-60563714D01*
X73842476Y-60658952D01*
X73890095Y-60706571D01*
X73985333Y-60754190D01*
X74366286Y-60754190D01*
X72842476Y-61230381D02*
X73413905Y-61230381D01*
X73128191Y-61230381D02*
X73128191Y-60230381D01*
X73223429Y-60373238D01*
X73318667Y-60468476D01*
X73413905Y-60516095D01*
X72509143Y-60230381D02*
X71890095Y-60230381D01*
X72223429Y-60611333D01*
X72080571Y-60611333D01*
X71985333Y-60658952D01*
X71937714Y-60706571D01*
X71890095Y-60801810D01*
X71890095Y-61039905D01*
X71937714Y-61135143D01*
X71985333Y-61182762D01*
X72080571Y-61230381D01*
X72366286Y-61230381D01*
X72461524Y-61182762D01*
X72509143Y-61135143D01*
X148653333Y-46886762D02*
X148510476Y-46934381D01*
X148272380Y-46934381D01*
X148177142Y-46886762D01*
X148129523Y-46839143D01*
X148081904Y-46743905D01*
X148081904Y-46648667D01*
X148129523Y-46553429D01*
X148177142Y-46505810D01*
X148272380Y-46458190D01*
X148462857Y-46410571D01*
X148558095Y-46362952D01*
X148605714Y-46315333D01*
X148653333Y-46220095D01*
X148653333Y-46124857D01*
X148605714Y-46029619D01*
X148558095Y-45982000D01*
X148462857Y-45934381D01*
X148224761Y-45934381D01*
X148081904Y-45982000D01*
X147748571Y-45934381D02*
X147510476Y-46934381D01*
X147319999Y-46220095D01*
X147129523Y-46934381D01*
X146891428Y-45934381D01*
X146558095Y-46029619D02*
X146510476Y-45982000D01*
X146415238Y-45934381D01*
X146177142Y-45934381D01*
X146081904Y-45982000D01*
X146034285Y-46029619D01*
X145986666Y-46124857D01*
X145986666Y-46220095D01*
X146034285Y-46362952D01*
X146605714Y-46934381D01*
X145986666Y-46934381D01*
X133921333Y-39266762D02*
X133778476Y-39314381D01*
X133540380Y-39314381D01*
X133445142Y-39266762D01*
X133397523Y-39219143D01*
X133349904Y-39123905D01*
X133349904Y-39028667D01*
X133397523Y-38933429D01*
X133445142Y-38885810D01*
X133540380Y-38838190D01*
X133730857Y-38790571D01*
X133826095Y-38742952D01*
X133873714Y-38695333D01*
X133921333Y-38600095D01*
X133921333Y-38504857D01*
X133873714Y-38409619D01*
X133826095Y-38362000D01*
X133730857Y-38314381D01*
X133492761Y-38314381D01*
X133349904Y-38362000D01*
X133016571Y-38314381D02*
X132778476Y-39314381D01*
X132587999Y-38600095D01*
X132397523Y-39314381D01*
X132159428Y-38314381D01*
X131873714Y-38314381D02*
X131254666Y-38314381D01*
X131588000Y-38695333D01*
X131445142Y-38695333D01*
X131349904Y-38742952D01*
X131302285Y-38790571D01*
X131254666Y-38885810D01*
X131254666Y-39123905D01*
X131302285Y-39219143D01*
X131349904Y-39266762D01*
X131445142Y-39314381D01*
X131730857Y-39314381D01*
X131826095Y-39266762D01*
X131873714Y-39219143D01*
X66801905Y-38922381D02*
X66801905Y-39731905D01*
X66754286Y-39827143D01*
X66706667Y-39874762D01*
X66611429Y-39922381D01*
X66420952Y-39922381D01*
X66325714Y-39874762D01*
X66278095Y-39827143D01*
X66230476Y-39731905D01*
X66230476Y-38922381D01*
X65230476Y-39922381D02*
X65801905Y-39922381D01*
X65516191Y-39922381D02*
X65516191Y-38922381D01*
X65611429Y-39065238D01*
X65706667Y-39160476D01*
X65801905Y-39208095D01*
X39656381Y-58674095D02*
X40465905Y-58674095D01*
X40561143Y-58721714D01*
X40608762Y-58769333D01*
X40656381Y-58864571D01*
X40656381Y-59055048D01*
X40608762Y-59150286D01*
X40561143Y-59197905D01*
X40465905Y-59245524D01*
X39656381Y-59245524D01*
X39751619Y-59674095D02*
X39704000Y-59721714D01*
X39656381Y-59816952D01*
X39656381Y-60055048D01*
X39704000Y-60150286D01*
X39751619Y-60197905D01*
X39846857Y-60245524D01*
X39942095Y-60245524D01*
X40084952Y-60197905D01*
X40656381Y-59626476D01*
X40656381Y-60245524D01*
X91312905Y-41743381D02*
X91312905Y-42552905D01*
X91265286Y-42648143D01*
X91217667Y-42695762D01*
X91122429Y-42743381D01*
X90931952Y-42743381D01*
X90836714Y-42695762D01*
X90789095Y-42648143D01*
X90741476Y-42552905D01*
X90741476Y-41743381D01*
X90360524Y-41743381D02*
X89741476Y-41743381D01*
X90074810Y-42124333D01*
X89931952Y-42124333D01*
X89836714Y-42171952D01*
X89789095Y-42219571D01*
X89741476Y-42314810D01*
X89741476Y-42552905D01*
X89789095Y-42648143D01*
X89836714Y-42695762D01*
X89931952Y-42743381D01*
X90217667Y-42743381D01*
X90312905Y-42695762D01*
X90360524Y-42648143D01*
X95178571Y-45625570D02*
X95178571Y-45958904D01*
X95702381Y-46101761D02*
X95702381Y-45625570D01*
X94702381Y-45625570D01*
X94702381Y-46101761D01*
X95654762Y-46482713D02*
X95702381Y-46577951D01*
X95702381Y-46768427D01*
X95654762Y-46863666D01*
X95559524Y-46911285D01*
X95511905Y-46911285D01*
X95416667Y-46863666D01*
X95369048Y-46768427D01*
X95369048Y-46625570D01*
X95321429Y-46530332D01*
X95226190Y-46482713D01*
X95178571Y-46482713D01*
X95083333Y-46530332D01*
X95035714Y-46625570D01*
X95035714Y-46768427D01*
X95083333Y-46863666D01*
X95035714Y-47339856D02*
X96035714Y-47339856D01*
X95083333Y-47339856D02*
X95035714Y-47435094D01*
X95035714Y-47625571D01*
X95083333Y-47720809D01*
X95130952Y-47768428D01*
X95226190Y-47816047D01*
X95511905Y-47816047D01*
X95607143Y-47768428D01*
X95654762Y-47720809D01*
X95702381Y-47625571D01*
X95702381Y-47435094D01*
X95654762Y-47339856D01*
X95702381Y-48244618D02*
X95035714Y-48244618D01*
X95226190Y-48244618D02*
X95130952Y-48292237D01*
X95083333Y-48339856D01*
X95035714Y-48435094D01*
X95035714Y-48530333D01*
X95654762Y-49244619D02*
X95702381Y-49149381D01*
X95702381Y-48958904D01*
X95654762Y-48863666D01*
X95559524Y-48816047D01*
X95178571Y-48816047D01*
X95083333Y-48863666D01*
X95035714Y-48958904D01*
X95035714Y-49149381D01*
X95083333Y-49244619D01*
X95178571Y-49292238D01*
X95273810Y-49292238D01*
X95369048Y-48816047D01*
X95654762Y-49673190D02*
X95702381Y-49768428D01*
X95702381Y-49958904D01*
X95654762Y-50054143D01*
X95559524Y-50101762D01*
X95511905Y-50101762D01*
X95416667Y-50054143D01*
X95369048Y-49958904D01*
X95369048Y-49816047D01*
X95321429Y-49720809D01*
X95226190Y-49673190D01*
X95178571Y-49673190D01*
X95083333Y-49720809D01*
X95035714Y-49816047D01*
X95035714Y-49958904D01*
X95083333Y-50054143D01*
X95654762Y-50482714D02*
X95702381Y-50577952D01*
X95702381Y-50768428D01*
X95654762Y-50863667D01*
X95559524Y-50911286D01*
X95511905Y-50911286D01*
X95416667Y-50863667D01*
X95369048Y-50768428D01*
X95369048Y-50625571D01*
X95321429Y-50530333D01*
X95226190Y-50482714D01*
X95178571Y-50482714D01*
X95083333Y-50530333D01*
X95035714Y-50625571D01*
X95035714Y-50768428D01*
X95083333Y-50863667D01*
X95702381Y-51339857D02*
X95035714Y-51339857D01*
X94702381Y-51339857D02*
X94750000Y-51292238D01*
X94797619Y-51339857D01*
X94750000Y-51387476D01*
X94702381Y-51339857D01*
X94797619Y-51339857D01*
X95035714Y-51673190D02*
X95035714Y-52054142D01*
X95702381Y-51816047D02*
X94845238Y-51816047D01*
X94750000Y-51863666D01*
X94702381Y-51958904D01*
X94702381Y-52054142D01*
X95654762Y-53101762D02*
X95702381Y-53244619D01*
X95702381Y-53482715D01*
X95654762Y-53577953D01*
X95607143Y-53625572D01*
X95511905Y-53673191D01*
X95416667Y-53673191D01*
X95321429Y-53625572D01*
X95273810Y-53577953D01*
X95226190Y-53482715D01*
X95178571Y-53292238D01*
X95130952Y-53197000D01*
X95083333Y-53149381D01*
X94988095Y-53101762D01*
X94892857Y-53101762D01*
X94797619Y-53149381D01*
X94750000Y-53197000D01*
X94702381Y-53292238D01*
X94702381Y-53530334D01*
X94750000Y-53673191D01*
X95035714Y-54006524D02*
X95702381Y-54244619D01*
X95035714Y-54482715D02*
X95702381Y-54244619D01*
X95940476Y-54149381D01*
X95988095Y-54101762D01*
X96035714Y-54006524D01*
X95654762Y-54816048D02*
X95702381Y-54911286D01*
X95702381Y-55101762D01*
X95654762Y-55197001D01*
X95559524Y-55244620D01*
X95511905Y-55244620D01*
X95416667Y-55197001D01*
X95369048Y-55101762D01*
X95369048Y-54958905D01*
X95321429Y-54863667D01*
X95226190Y-54816048D01*
X95178571Y-54816048D01*
X95083333Y-54863667D01*
X95035714Y-54958905D01*
X95035714Y-55101762D01*
X95083333Y-55197001D01*
X95035714Y-55530334D02*
X95035714Y-55911286D01*
X94702381Y-55673191D02*
X95559524Y-55673191D01*
X95654762Y-55720810D01*
X95702381Y-55816048D01*
X95702381Y-55911286D01*
X95654762Y-56625573D02*
X95702381Y-56530335D01*
X95702381Y-56339858D01*
X95654762Y-56244620D01*
X95559524Y-56197001D01*
X95178571Y-56197001D01*
X95083333Y-56244620D01*
X95035714Y-56339858D01*
X95035714Y-56530335D01*
X95083333Y-56625573D01*
X95178571Y-56673192D01*
X95273810Y-56673192D01*
X95369048Y-56197001D01*
X95702381Y-57101763D02*
X95035714Y-57101763D01*
X95130952Y-57101763D02*
X95083333Y-57149382D01*
X95035714Y-57244620D01*
X95035714Y-57387478D01*
X95083333Y-57482716D01*
X95178571Y-57530335D01*
X95702381Y-57530335D01*
X95178571Y-57530335D02*
X95083333Y-57577954D01*
X95035714Y-57673192D01*
X95035714Y-57816049D01*
X95083333Y-57911287D01*
X95178571Y-57958906D01*
X95702381Y-57958906D01*
X95654762Y-58387477D02*
X95702381Y-58482715D01*
X95702381Y-58673191D01*
X95654762Y-58768430D01*
X95559524Y-58816049D01*
X95511905Y-58816049D01*
X95416667Y-58768430D01*
X95369048Y-58673191D01*
X95369048Y-58530334D01*
X95321429Y-58435096D01*
X95226190Y-58387477D01*
X95178571Y-58387477D01*
X95083333Y-58435096D01*
X95035714Y-58530334D01*
X95035714Y-58673191D01*
X95083333Y-58768430D01*
X96829571Y-45601619D02*
X96829571Y-45934953D01*
X97353381Y-46077810D02*
X97353381Y-45601619D01*
X96353381Y-45601619D01*
X96353381Y-46077810D01*
X97305762Y-46458762D02*
X97353381Y-46601619D01*
X97353381Y-46839715D01*
X97305762Y-46934953D01*
X97258143Y-46982572D01*
X97162905Y-47030191D01*
X97067667Y-47030191D01*
X96972429Y-46982572D01*
X96924810Y-46934953D01*
X96877190Y-46839715D01*
X96829571Y-46649238D01*
X96781952Y-46554000D01*
X96734333Y-46506381D01*
X96639095Y-46458762D01*
X96543857Y-46458762D01*
X96448619Y-46506381D01*
X96401000Y-46554000D01*
X96353381Y-46649238D01*
X96353381Y-46887334D01*
X96401000Y-47030191D01*
X97353381Y-47458762D02*
X96353381Y-47458762D01*
X96353381Y-47839715D01*
X96401000Y-47934953D01*
X96448619Y-47982572D01*
X96543857Y-48030191D01*
X96686714Y-48030191D01*
X96781952Y-47982572D01*
X96829571Y-47934953D01*
X96877190Y-47839715D01*
X96877190Y-47458762D01*
X96353381Y-48363524D02*
X96353381Y-48982572D01*
X96734333Y-48649238D01*
X96734333Y-48792096D01*
X96781952Y-48887334D01*
X96829571Y-48934953D01*
X96924810Y-48982572D01*
X97162905Y-48982572D01*
X97258143Y-48934953D01*
X97305762Y-48887334D01*
X97353381Y-48792096D01*
X97353381Y-48506381D01*
X97305762Y-48411143D01*
X97258143Y-48363524D01*
X96448619Y-49363524D02*
X96401000Y-49411143D01*
X96353381Y-49506381D01*
X96353381Y-49744477D01*
X96401000Y-49839715D01*
X96448619Y-49887334D01*
X96543857Y-49934953D01*
X96639095Y-49934953D01*
X96781952Y-49887334D01*
X97353381Y-49315905D01*
X97353381Y-49934953D01*
X96972429Y-50363524D02*
X96972429Y-51125429D01*
X96353381Y-51506381D02*
X97353381Y-51744476D01*
X96639095Y-51934953D01*
X97353381Y-52125429D01*
X96353381Y-52363524D01*
X97353381Y-53315905D02*
X96877190Y-52982571D01*
X97353381Y-52744476D02*
X96353381Y-52744476D01*
X96353381Y-53125429D01*
X96401000Y-53220667D01*
X96448619Y-53268286D01*
X96543857Y-53315905D01*
X96686714Y-53315905D01*
X96781952Y-53268286D01*
X96829571Y-53220667D01*
X96877190Y-53125429D01*
X96877190Y-52744476D01*
X96353381Y-53934952D02*
X96353381Y-54125429D01*
X96401000Y-54220667D01*
X96496238Y-54315905D01*
X96686714Y-54363524D01*
X97020048Y-54363524D01*
X97210524Y-54315905D01*
X97305762Y-54220667D01*
X97353381Y-54125429D01*
X97353381Y-53934952D01*
X97305762Y-53839714D01*
X97210524Y-53744476D01*
X97020048Y-53696857D01*
X96686714Y-53696857D01*
X96496238Y-53744476D01*
X96401000Y-53839714D01*
X96353381Y-53934952D01*
X96353381Y-54982571D02*
X96353381Y-55173048D01*
X96401000Y-55268286D01*
X96496238Y-55363524D01*
X96686714Y-55411143D01*
X97020048Y-55411143D01*
X97210524Y-55363524D01*
X97305762Y-55268286D01*
X97353381Y-55173048D01*
X97353381Y-54982571D01*
X97305762Y-54887333D01*
X97210524Y-54792095D01*
X97020048Y-54744476D01*
X96686714Y-54744476D01*
X96496238Y-54792095D01*
X96401000Y-54887333D01*
X96353381Y-54982571D01*
X97353381Y-55839714D02*
X96353381Y-55839714D01*
X97067667Y-56173048D01*
X96353381Y-56506381D01*
X97353381Y-56506381D01*
M02*
