G04 #@! TF.FileFunction,Soldermask,Bot*
%FSLAX46Y46*%
G04 Gerber Fmt 4.6, Leading zero omitted, Abs format (unit mm)*
G04 Created by KiCad (PCBNEW 4.0.5) date 07/13/18 23:08:39*
%MOMM*%
%LPD*%
G01*
G04 APERTURE LIST*
%ADD10C,0.100000*%
%ADD11R,2.500000X2.400000*%
%ADD12R,1.600000X2.000000*%
%ADD13R,2.000000X1.600000*%
%ADD14R,2.000000X2.500000*%
%ADD15R,1.800000X3.500000*%
%ADD16R,5.000000X2.400000*%
%ADD17R,1.700000X1.700000*%
%ADD18O,1.700000X1.700000*%
%ADD19R,0.400000X1.400000*%
%ADD20R,1.900000X1.900000*%
%ADD21R,0.800000X0.900000*%
%ADD22R,1.700000X2.000000*%
%ADD23R,2.000000X1.700000*%
%ADD24C,0.900000*%
%ADD25R,1.500000X0.700000*%
%ADD26R,0.800000X1.000000*%
%ADD27R,2.000000X1.000000*%
%ADD28R,1.750000X0.450000*%
%ADD29R,1.560000X0.650000*%
%ADD30O,2.500000X0.900000*%
%ADD31O,0.900000X2.500000*%
%ADD32R,6.000000X6.000000*%
%ADD33R,0.600000X1.550000*%
%ADD34R,1.450000X0.450000*%
G04 APERTURE END LIST*
D10*
D11*
X160655000Y-87020000D03*
X160655000Y-93320000D03*
D12*
X152400000Y-75470000D03*
X152400000Y-79470000D03*
D13*
X98520000Y-38735000D03*
X94520000Y-38735000D03*
D14*
X87090000Y-41910000D03*
X83090000Y-41910000D03*
D12*
X86360000Y-51530000D03*
X86360000Y-47530000D03*
X115570000Y-53435000D03*
X115570000Y-49435000D03*
D15*
X160655000Y-79970000D03*
X160655000Y-74970000D03*
D16*
X139700000Y-74605000D03*
X139700000Y-81605000D03*
D17*
X78105000Y-86995000D03*
D18*
X78105000Y-89535000D03*
D17*
X123190000Y-41275000D03*
D18*
X123190000Y-38735000D03*
X123190000Y-36195000D03*
D19*
X83155000Y-37575000D03*
X83805000Y-37575000D03*
X84455000Y-37575000D03*
X85105000Y-37575000D03*
X85755000Y-37575000D03*
D20*
X80455000Y-34925000D03*
X83255000Y-34925000D03*
X85655000Y-34925000D03*
X88455000Y-34925000D03*
D21*
X143825000Y-68945000D03*
X141925000Y-68945000D03*
X142875000Y-66945000D03*
X149545000Y-66945000D03*
X151445000Y-66945000D03*
X150495000Y-68945000D03*
D22*
X167005000Y-56610000D03*
X167005000Y-52610000D03*
D23*
X171355000Y-69215000D03*
X175355000Y-69215000D03*
X90900000Y-59690000D03*
X86900000Y-59690000D03*
D22*
X175260000Y-60420000D03*
X175260000Y-56420000D03*
X220345000Y-39275000D03*
X220345000Y-43275000D03*
D23*
X149955000Y-72390000D03*
X145955000Y-72390000D03*
X147225000Y-63500000D03*
X151225000Y-63500000D03*
X106775000Y-48260000D03*
X102775000Y-48260000D03*
X101505000Y-66040000D03*
X105505000Y-66040000D03*
D24*
X71425000Y-56110000D03*
X71425000Y-53110000D03*
D25*
X73185000Y-56860000D03*
X73185000Y-53860000D03*
X73185000Y-52360000D03*
D26*
X70325000Y-58260000D03*
X70325000Y-50960000D03*
X72535000Y-50960000D03*
X72535000Y-58260000D03*
D27*
X177165000Y-40640000D03*
X170815000Y-40640000D03*
X177165000Y-37465000D03*
X170815000Y-37465000D03*
X170815000Y-46355000D03*
X177165000Y-46355000D03*
X170815000Y-49530000D03*
X177165000Y-49530000D03*
D24*
X222834000Y-53062000D03*
X222834000Y-50062000D03*
D28*
X113455000Y-35780000D03*
X113455000Y-36430000D03*
X113455000Y-37080000D03*
X113455000Y-37730000D03*
X113455000Y-38380000D03*
X113455000Y-39030000D03*
X113455000Y-39680000D03*
X113455000Y-40330000D03*
X113455000Y-40980000D03*
X113455000Y-41630000D03*
X113455000Y-42280000D03*
X113455000Y-42930000D03*
X113455000Y-43580000D03*
X113455000Y-44230000D03*
X106255000Y-44230000D03*
X106255000Y-43580000D03*
X106255000Y-42930000D03*
X106255000Y-42280000D03*
X106255000Y-41630000D03*
X106255000Y-40980000D03*
X106255000Y-40330000D03*
X106255000Y-39680000D03*
X106255000Y-39030000D03*
X106255000Y-38380000D03*
X106255000Y-37730000D03*
X106255000Y-37080000D03*
X106255000Y-36430000D03*
X106255000Y-35780000D03*
D29*
X81200000Y-54925000D03*
X81200000Y-53975000D03*
X81200000Y-53025000D03*
X83900000Y-53025000D03*
X83900000Y-54925000D03*
D30*
X138320000Y-40470000D03*
X138320000Y-41740000D03*
X138320000Y-43010000D03*
X138320000Y-44280000D03*
X138320000Y-45550000D03*
X138320000Y-46820000D03*
X138320000Y-48090000D03*
X138320000Y-49360000D03*
X138320000Y-50630000D03*
X138320000Y-51900000D03*
X138320000Y-53170000D03*
X138320000Y-54440000D03*
X138320000Y-55710000D03*
X138320000Y-56980000D03*
D31*
X141605000Y-58470000D03*
X142875000Y-58470000D03*
X144145000Y-58470000D03*
X145415000Y-58470000D03*
X146685000Y-58470000D03*
X147955000Y-58470000D03*
X149225000Y-58470000D03*
X150495000Y-58470000D03*
X151765000Y-58470000D03*
X153035000Y-58470000D03*
D30*
X156320000Y-56980000D03*
X156320000Y-55710000D03*
X156320000Y-54440000D03*
X156320000Y-53170000D03*
X156320000Y-51900000D03*
X156320000Y-50630000D03*
X156320000Y-49360000D03*
X156320000Y-48090000D03*
X156320000Y-46820000D03*
X156320000Y-45550000D03*
X156320000Y-44280000D03*
X156320000Y-43010000D03*
X156320000Y-41740000D03*
X156320000Y-40470000D03*
D32*
X147620000Y-48170000D03*
D33*
X74930000Y-42385000D03*
X76200000Y-42385000D03*
X77470000Y-42385000D03*
X78740000Y-42385000D03*
X78740000Y-47785000D03*
X77470000Y-47785000D03*
X76200000Y-47785000D03*
X74930000Y-47785000D03*
D34*
X92300000Y-53680000D03*
X92300000Y-53030000D03*
X92300000Y-52380000D03*
X92300000Y-51730000D03*
X98200000Y-51730000D03*
X98200000Y-52380000D03*
X98200000Y-53030000D03*
X98200000Y-53680000D03*
D29*
X107235000Y-53655000D03*
X107235000Y-52705000D03*
X107235000Y-51755000D03*
X109935000Y-51755000D03*
X109935000Y-53655000D03*
X109935000Y-52705000D03*
M02*
