G04 #@! TF.FileFunction,Profile,NP*
%FSLAX46Y46*%
G04 Gerber Fmt 4.6, Leading zero omitted, Abs format (unit mm)*
G04 Created by KiCad (PCBNEW 4.0.5) date 09/08/18 16:47:01*
%MOMM*%
%LPD*%
G01*
G04 APERTURE LIST*
%ADD10C,0.100000*%
%ADD11C,0.150000*%
G04 APERTURE END LIST*
D10*
D11*
X88900000Y-114300000D02*
G75*
G03X88900000Y-114300000I-2540000J0D01*
G01*
X109220000Y-68580000D02*
G75*
G03X109220000Y-68580000I-2540000J0D01*
G01*
X50800000Y-40640000D02*
G75*
G03X50800000Y-40640000I-2540000J0D01*
G01*
X39370000Y-32385000D02*
X39370000Y-119380000D01*
X113665000Y-32385000D02*
X113665000Y-119380000D01*
X39370000Y-32385000D02*
X113665000Y-32385000D01*
X40005000Y-119380000D02*
X39370000Y-119380000D01*
X113665000Y-119380000D02*
X40005000Y-119380000D01*
M02*
