G04 #@! TF.FileFunction,Legend,Bot*
%FSLAX46Y46*%
G04 Gerber Fmt 4.6, Leading zero omitted, Abs format (unit mm)*
G04 Created by KiCad (PCBNEW 4.0.5) date 09/08/18 16:47:01*
%MOMM*%
%LPD*%
G01*
G04 APERTURE LIST*
%ADD10C,0.100000*%
%ADD11C,0.300000*%
%ADD12C,0.120000*%
%ADD13C,0.150000*%
G04 APERTURE END LIST*
D10*
D11*
X97054999Y-88303571D02*
X97054999Y-86803571D01*
X96483571Y-86803571D01*
X96340713Y-86875000D01*
X96269285Y-86946429D01*
X96197856Y-87089286D01*
X96197856Y-87303571D01*
X96269285Y-87446429D01*
X96340713Y-87517857D01*
X96483571Y-87589286D01*
X97054999Y-87589286D01*
X95554999Y-88303571D02*
X95554999Y-87303571D01*
X95554999Y-87589286D02*
X95483571Y-87446429D01*
X95412142Y-87375000D01*
X95269285Y-87303571D01*
X95126428Y-87303571D01*
X94412142Y-88303571D02*
X94555000Y-88232143D01*
X94626428Y-88160714D01*
X94697857Y-88017857D01*
X94697857Y-87589286D01*
X94626428Y-87446429D01*
X94555000Y-87375000D01*
X94412142Y-87303571D01*
X94197857Y-87303571D01*
X94055000Y-87375000D01*
X93983571Y-87446429D01*
X93912142Y-87589286D01*
X93912142Y-88017857D01*
X93983571Y-88160714D01*
X94055000Y-88232143D01*
X94197857Y-88303571D01*
X94412142Y-88303571D01*
X93483571Y-87303571D02*
X92912142Y-87303571D01*
X93269285Y-86803571D02*
X93269285Y-88089286D01*
X93197857Y-88232143D01*
X93054999Y-88303571D01*
X92912142Y-88303571D01*
X92197856Y-88303571D02*
X92340714Y-88232143D01*
X92412142Y-88160714D01*
X92483571Y-88017857D01*
X92483571Y-87589286D01*
X92412142Y-87446429D01*
X92340714Y-87375000D01*
X92197856Y-87303571D01*
X91983571Y-87303571D01*
X91840714Y-87375000D01*
X91769285Y-87446429D01*
X91697856Y-87589286D01*
X91697856Y-88017857D01*
X91769285Y-88160714D01*
X91840714Y-88232143D01*
X91983571Y-88303571D01*
X92197856Y-88303571D01*
X91269285Y-87303571D02*
X90697856Y-87303571D01*
X91054999Y-86803571D02*
X91054999Y-88089286D01*
X90983571Y-88232143D01*
X90840713Y-88303571D01*
X90697856Y-88303571D01*
X90340713Y-87303571D02*
X89983570Y-88303571D01*
X89626428Y-87303571D02*
X89983570Y-88303571D01*
X90126428Y-88660714D01*
X90197856Y-88732143D01*
X90340713Y-88803571D01*
X89054999Y-87303571D02*
X89054999Y-88803571D01*
X89054999Y-87375000D02*
X88912142Y-87303571D01*
X88626428Y-87303571D01*
X88483571Y-87375000D01*
X88412142Y-87446429D01*
X88340713Y-87589286D01*
X88340713Y-88017857D01*
X88412142Y-88160714D01*
X88483571Y-88232143D01*
X88626428Y-88303571D01*
X88912142Y-88303571D01*
X89054999Y-88232143D01*
X87126428Y-88232143D02*
X87269285Y-88303571D01*
X87554999Y-88303571D01*
X87697856Y-88232143D01*
X87769285Y-88089286D01*
X87769285Y-87517857D01*
X87697856Y-87375000D01*
X87554999Y-87303571D01*
X87269285Y-87303571D01*
X87126428Y-87375000D01*
X87054999Y-87517857D01*
X87054999Y-87660714D01*
X87769285Y-87803571D01*
X84483571Y-88303571D02*
X85340714Y-88303571D01*
X84912142Y-88303571D02*
X84912142Y-86803571D01*
X85054999Y-87017857D01*
X85197857Y-87160714D01*
X85340714Y-87232143D01*
X104412143Y-90710714D02*
X104483572Y-90782143D01*
X104697858Y-90853571D01*
X104840715Y-90853571D01*
X105055000Y-90782143D01*
X105197858Y-90639286D01*
X105269286Y-90496429D01*
X105340715Y-90210714D01*
X105340715Y-89996429D01*
X105269286Y-89710714D01*
X105197858Y-89567857D01*
X105055000Y-89425000D01*
X104840715Y-89353571D01*
X104697858Y-89353571D01*
X104483572Y-89425000D01*
X104412143Y-89496429D01*
X103769286Y-90853571D02*
X103769286Y-89853571D01*
X103769286Y-89353571D02*
X103840715Y-89425000D01*
X103769286Y-89496429D01*
X103697858Y-89425000D01*
X103769286Y-89353571D01*
X103769286Y-89496429D01*
X103055000Y-90853571D02*
X103055000Y-89853571D01*
X103055000Y-90139286D02*
X102983572Y-89996429D01*
X102912143Y-89925000D01*
X102769286Y-89853571D01*
X102626429Y-89853571D01*
X101483572Y-90782143D02*
X101626429Y-90853571D01*
X101912143Y-90853571D01*
X102055001Y-90782143D01*
X102126429Y-90710714D01*
X102197858Y-90567857D01*
X102197858Y-90139286D01*
X102126429Y-89996429D01*
X102055001Y-89925000D01*
X101912143Y-89853571D01*
X101626429Y-89853571D01*
X101483572Y-89925000D01*
X100197858Y-89853571D02*
X100197858Y-90853571D01*
X100840715Y-89853571D02*
X100840715Y-90639286D01*
X100769287Y-90782143D01*
X100626429Y-90853571D01*
X100412144Y-90853571D01*
X100269287Y-90782143D01*
X100197858Y-90710714D01*
X99483572Y-90853571D02*
X99483572Y-89853571D01*
X99483572Y-89353571D02*
X99555001Y-89425000D01*
X99483572Y-89496429D01*
X99412144Y-89425000D01*
X99483572Y-89353571D01*
X99483572Y-89496429D01*
X98983572Y-89853571D02*
X98412143Y-89853571D01*
X98769286Y-89353571D02*
X98769286Y-90639286D01*
X98697858Y-90782143D01*
X98555000Y-90853571D01*
X98412143Y-90853571D01*
X96769286Y-89853571D02*
X96769286Y-91353571D01*
X96769286Y-89925000D02*
X96626429Y-89853571D01*
X96340715Y-89853571D01*
X96197858Y-89925000D01*
X96126429Y-89996429D01*
X96055000Y-90139286D01*
X96055000Y-90567857D01*
X96126429Y-90710714D01*
X96197858Y-90782143D01*
X96340715Y-90853571D01*
X96626429Y-90853571D01*
X96769286Y-90782143D01*
X94769286Y-90853571D02*
X94769286Y-90067857D01*
X94840715Y-89925000D01*
X94983572Y-89853571D01*
X95269286Y-89853571D01*
X95412143Y-89925000D01*
X94769286Y-90782143D02*
X94912143Y-90853571D01*
X95269286Y-90853571D01*
X95412143Y-90782143D01*
X95483572Y-90639286D01*
X95483572Y-90496429D01*
X95412143Y-90353571D01*
X95269286Y-90282143D01*
X94912143Y-90282143D01*
X94769286Y-90210714D01*
X94055000Y-90853571D02*
X94055000Y-89853571D01*
X94055000Y-90139286D02*
X93983572Y-89996429D01*
X93912143Y-89925000D01*
X93769286Y-89853571D01*
X93626429Y-89853571D01*
X91983572Y-90853571D02*
X91983572Y-89353571D01*
X91483572Y-90425000D01*
X90983572Y-89353571D01*
X90983572Y-90853571D01*
X89626429Y-90853571D02*
X89626429Y-90067857D01*
X89697858Y-89925000D01*
X89840715Y-89853571D01*
X90126429Y-89853571D01*
X90269286Y-89925000D01*
X89626429Y-90782143D02*
X89769286Y-90853571D01*
X90126429Y-90853571D01*
X90269286Y-90782143D01*
X90340715Y-90639286D01*
X90340715Y-90496429D01*
X90269286Y-90353571D01*
X90126429Y-90282143D01*
X89769286Y-90282143D01*
X89626429Y-90210714D01*
X89126429Y-89853571D02*
X88555000Y-89853571D01*
X88912143Y-89353571D02*
X88912143Y-90639286D01*
X88840715Y-90782143D01*
X88697857Y-90853571D01*
X88555000Y-90853571D01*
X88269286Y-89853571D02*
X87697857Y-89853571D01*
X88055000Y-89353571D02*
X88055000Y-90639286D01*
X87983572Y-90782143D01*
X87840714Y-90853571D01*
X87697857Y-90853571D01*
X87197857Y-90853571D02*
X87197857Y-89853571D01*
X87197857Y-89353571D02*
X87269286Y-89425000D01*
X87197857Y-89496429D01*
X87126429Y-89425000D01*
X87197857Y-89353571D01*
X87197857Y-89496429D01*
X86555000Y-90782143D02*
X86412143Y-90853571D01*
X86126428Y-90853571D01*
X85983571Y-90782143D01*
X85912143Y-90639286D01*
X85912143Y-90567857D01*
X85983571Y-90425000D01*
X86126428Y-90353571D01*
X86340714Y-90353571D01*
X86483571Y-90282143D01*
X86555000Y-90139286D01*
X86555000Y-90067857D01*
X86483571Y-89925000D01*
X86340714Y-89853571D01*
X86126428Y-89853571D01*
X85983571Y-89925000D01*
X84126428Y-90067857D02*
X83626428Y-90067857D01*
X83412142Y-90853571D02*
X84126428Y-90853571D01*
X84126428Y-89353571D01*
X83412142Y-89353571D01*
X82483571Y-90139286D02*
X82483571Y-90853571D01*
X82983571Y-89353571D02*
X82483571Y-90139286D01*
X81983571Y-89353571D01*
X81483571Y-90853571D02*
X81483571Y-89353571D01*
X80626428Y-90853571D01*
X80626428Y-89353571D01*
X79983571Y-90425000D02*
X79269285Y-90425000D01*
X80126428Y-90853571D02*
X79626428Y-89353571D01*
X79126428Y-90853571D01*
X77769285Y-90853571D02*
X78269285Y-90139286D01*
X78626428Y-90853571D02*
X78626428Y-89353571D01*
X78055000Y-89353571D01*
X77912142Y-89425000D01*
X77840714Y-89496429D01*
X77769285Y-89639286D01*
X77769285Y-89853571D01*
X77840714Y-89996429D01*
X77912142Y-90067857D01*
X78055000Y-90139286D01*
X78626428Y-90139286D01*
X77126428Y-90853571D02*
X77126428Y-89353571D01*
X76769285Y-89353571D01*
X76555000Y-89425000D01*
X76412142Y-89567857D01*
X76340714Y-89710714D01*
X76269285Y-89996429D01*
X76269285Y-90210714D01*
X76340714Y-90496429D01*
X76412142Y-90639286D01*
X76555000Y-90782143D01*
X76769285Y-90853571D01*
X77126428Y-90853571D01*
D12*
X89285000Y-45355000D02*
X89285000Y-47355000D01*
X87245000Y-47355000D02*
X87245000Y-45355000D01*
X79125000Y-44720000D02*
X79125000Y-46720000D01*
X77085000Y-46720000D02*
X77085000Y-44720000D01*
D13*
X85335000Y-42935000D02*
X84810000Y-42935000D01*
X81035000Y-47235000D02*
X81560000Y-47235000D01*
X81035000Y-42935000D02*
X81560000Y-42935000D01*
X85335000Y-47235000D02*
X85335000Y-46710000D01*
X81035000Y-47235000D02*
X81035000Y-46710000D01*
X81035000Y-42935000D02*
X81035000Y-43460000D01*
X85335000Y-42935000D02*
X85335000Y-43460000D01*
X90372143Y-46188334D02*
X90419762Y-46140715D01*
X90467381Y-45997858D01*
X90467381Y-45902620D01*
X90419762Y-45759762D01*
X90324524Y-45664524D01*
X90229286Y-45616905D01*
X90038810Y-45569286D01*
X89895952Y-45569286D01*
X89705476Y-45616905D01*
X89610238Y-45664524D01*
X89515000Y-45759762D01*
X89467381Y-45902620D01*
X89467381Y-45997858D01*
X89515000Y-46140715D01*
X89562619Y-46188334D01*
X89562619Y-46569286D02*
X89515000Y-46616905D01*
X89467381Y-46712143D01*
X89467381Y-46950239D01*
X89515000Y-47045477D01*
X89562619Y-47093096D01*
X89657857Y-47140715D01*
X89753095Y-47140715D01*
X89895952Y-47093096D01*
X90467381Y-46521667D01*
X90467381Y-47140715D01*
X80212143Y-45553334D02*
X80259762Y-45505715D01*
X80307381Y-45362858D01*
X80307381Y-45267620D01*
X80259762Y-45124762D01*
X80164524Y-45029524D01*
X80069286Y-44981905D01*
X79878810Y-44934286D01*
X79735952Y-44934286D01*
X79545476Y-44981905D01*
X79450238Y-45029524D01*
X79355000Y-45124762D01*
X79307381Y-45267620D01*
X79307381Y-45362858D01*
X79355000Y-45505715D01*
X79402619Y-45553334D01*
X79307381Y-45886667D02*
X79307381Y-46505715D01*
X79688333Y-46172381D01*
X79688333Y-46315239D01*
X79735952Y-46410477D01*
X79783571Y-46458096D01*
X79878810Y-46505715D01*
X80116905Y-46505715D01*
X80212143Y-46458096D01*
X80259762Y-46410477D01*
X80307381Y-46315239D01*
X80307381Y-46029524D01*
X80259762Y-45934286D01*
X80212143Y-45886667D01*
X86012381Y-44323095D02*
X86821905Y-44323095D01*
X86917143Y-44370714D01*
X86964762Y-44418333D01*
X87012381Y-44513571D01*
X87012381Y-44704048D01*
X86964762Y-44799286D01*
X86917143Y-44846905D01*
X86821905Y-44894524D01*
X86012381Y-44894524D01*
X86107619Y-45323095D02*
X86060000Y-45370714D01*
X86012381Y-45465952D01*
X86012381Y-45704048D01*
X86060000Y-45799286D01*
X86107619Y-45846905D01*
X86202857Y-45894524D01*
X86298095Y-45894524D01*
X86440952Y-45846905D01*
X87012381Y-45275476D01*
X87012381Y-45894524D01*
M02*
