EESchema Schematic File Version 2
LIBS:power
LIBS:device
LIBS:transistors
LIBS:conn
LIBS:linear
LIBS:regul
LIBS:74xx
LIBS:cmos4000
LIBS:adc-dac
LIBS:memory
LIBS:xilinx
LIBS:microcontrollers
LIBS:dsp
LIBS:microchip
LIBS:analog_switches
LIBS:motorola
LIBS:texas
LIBS:intel
LIBS:audio
LIBS:interface
LIBS:digital-audio
LIBS:philips
LIBS:display
LIBS:cypress
LIBS:siliconi
LIBS:opto
LIBS:atmel
LIBS:contrib
LIBS:valves
LIBS:ESP32-footprints-Shem-Lib
LIBS:tp4056
LIBS:tft_14pin
LIBS:dc_motor
LIBS:touch
LIBS:8205
LIBS:dw01
LIBS:switches
LIBS:74HC165
LIBS:tps73633dbv
LIBS:switch
LIBS:ft232rl
LIBS:maug-cache
EELAYER 25 0
EELAYER END
$Descr A3 16535 11693
encoding utf-8
Sheet 1 1
Title ""
Date ""
Rev ""
Comp ""
Comment1 ""
Comment2 ""
Comment3 ""
Comment4 ""
$EndDescr
$Comp
L ESP-32S U3
U 1 1 59F495F1
P 6900 2150
F 0 "U3" H 6200 3400 60  0000 C CNN
F 1 "ESP-32S" H 7400 3400 60  0000 C CNN
F 2 "ESP32-footprints-Lib:ESP32-WROOM" H 7250 3500 60  0001 C CNN
F 3 "" H 6450 2600 60  0001 C CNN
	1    6900 2150
	1    0    0    -1  
$EndComp
$Comp
L GND #PWR01
U 1 1 59F4966F
P 7800 1400
F 0 "#PWR01" H 7800 1150 50  0001 C CNN
F 1 "GND" H 7800 1250 50  0000 C CNN
F 2 "" H 7800 1400 50  0000 C CNN
F 3 "" H 7800 1400 50  0000 C CNN
	1    7800 1400
	-1   0    0    1   
$EndComp
$Comp
L GND #PWR02
U 1 1 59F49685
P 7800 1500
F 0 "#PWR02" H 7800 1250 50  0001 C CNN
F 1 "GND" H 7800 1350 50  0000 C CNN
F 2 "" H 7800 1500 50  0000 C CNN
F 3 "" H 7800 1500 50  0000 C CNN
	1    7800 1500
	0    -1   -1   0   
$EndComp
$Comp
L GND #PWR03
U 1 1 59F4969B
P 5700 1300
F 0 "#PWR03" H 5700 1050 50  0001 C CNN
F 1 "GND" H 5700 1150 50  0000 C CNN
F 2 "" H 5700 1300 50  0000 C CNN
F 3 "" H 5700 1300 50  0000 C CNN
	1    5700 1300
	0    1    1    0   
$EndComp
$Comp
L +3.3V #PWR04
U 1 1 59F496B1
P 5600 1500
F 0 "#PWR04" H 5600 1350 50  0001 C CNN
F 1 "+3.3V" H 5600 1640 50  0000 C CNN
F 2 "" H 5600 1500 50  0000 C CNN
F 3 "" H 5600 1500 50  0000 C CNN
	1    5600 1500
	0    -1   -1   0   
$EndComp
$Comp
L GND #PWR05
U 1 1 59F496DC
P 6450 3200
F 0 "#PWR05" H 6450 2950 50  0001 C CNN
F 1 "GND" H 6450 3050 50  0000 C CNN
F 2 "" H 6450 3200 50  0000 C CNN
F 3 "" H 6450 3200 50  0000 C CNN
	1    6450 3200
	0    1    1    0   
$EndComp
$Comp
L tft_display U7
U 1 1 59FB0963
P 14300 1250
F 0 "U7" H 14600 1350 60  0000 C CNN
F 1 "tft_display" H 14100 1300 60  0000 C CNN
F 2 "tft:tft_14" H 14300 1250 60  0001 C CNN
F 3 "" H 14300 1250 60  0001 C CNN
	1    14300 1250
	1    0    0    -1  
$EndComp
$Comp
L +3.3V #PWR06
U 1 1 59FB0A02
P 14700 1850
F 0 "#PWR06" H 14700 1700 50  0001 C CNN
F 1 "+3.3V" H 14700 1990 50  0000 C CNN
F 2 "" H 14700 1850 50  0000 C CNN
F 3 "" H 14700 1850 50  0000 C CNN
	1    14700 1850
	-1   0    0    1   
$EndComp
$Comp
L GND #PWR07
U 1 1 59FB0B3D
P 15200 1850
F 0 "#PWR07" H 15200 1600 50  0001 C CNN
F 1 "GND" H 15200 1700 50  0000 C CNN
F 2 "" H 15200 1850 50  0000 C CNN
F 3 "" H 15200 1850 50  0000 C CNN
	1    15200 1850
	1    0    0    -1  
$EndComp
$Comp
L GND #PWR08
U 1 1 59FB0BDC
P 13900 1750
F 0 "#PWR08" H 13900 1500 50  0001 C CNN
F 1 "GND" H 13900 1600 50  0000 C CNN
F 2 "" H 13900 1750 50  0000 C CNN
F 3 "" H 13900 1750 50  0000 C CNN
	1    13900 1750
	0    1    1    0   
$EndComp
Text GLabel 14400 2050 3    60   Input ~ 0
MOSI
Text GLabel 14550 2050 3    60   Output ~ 0
MISO
Text GLabel 14250 2050 3    60   Input ~ 0
SS
Text GLabel 13950 2050 3    60   Input ~ 0
SCK
Text GLabel 14100 2050 3    60   Input ~ 0
D/C
Text GLabel 13800 2050 3    60   Input ~ 0
RESETtft
Text GLabel 8000 1600 2    60   Output ~ 0
MOSI
Text GLabel 7950 2200 2    60   Input ~ 0
MISO
Text GLabel 8350 2300 2    60   Output ~ 0
SCK
Text GLabel 7950 2400 2    60   Output ~ 0
SS
Text GLabel 8350 2500 2    60   Output ~ 0
D/C
Text GLabel 7950 2600 2    60   Output ~ 0
RESETtft
Text GLabel 8250 1800 2    60   Output Italic 0
ESP_TX
Text GLabel 7800 1900 2    60   Input Italic 0
ESP_RX
$Comp
L GND #PWR09
U 1 1 59FBF781
P 1550 8350
F 0 "#PWR09" H 1550 8100 50  0001 C CNN
F 1 "GND" H 1550 8200 50  0000 C CNN
F 2 "" H 1550 8350 50  0000 C CNN
F 3 "" H 1550 8350 50  0000 C CNN
	1    1550 8350
	-1   0    0    1   
$EndComp
Text GLabel 1100 8450 0    60   Input Italic 0
ESP_TX
Text GLabel 1550 8550 0    60   Output Italic 0
ESP_RX
$Comp
L SW_Push SW2
U 1 1 59FBFDB7
P 4900 1650
F 0 "SW2" H 4950 1750 50  0000 L CNN
F 1 "RESET" H 4900 1590 50  0000 C CNN
F 2 "push_smd:smd_4x4_push" H 4900 1850 50  0001 C CNN
F 3 "" H 4900 1850 50  0000 C CNN
	1    4900 1650
	1    0    0    -1  
$EndComp
$Comp
L GND #PWR010
U 1 1 59FC024E
P 4700 1650
F 0 "#PWR010" H 4700 1400 50  0001 C CNN
F 1 "GND" H 4700 1500 50  0000 C CNN
F 2 "" H 4700 1650 50  0000 C CNN
F 3 "" H 4700 1650 50  0000 C CNN
	1    4700 1650
	0    1    1    0   
$EndComp
$Comp
L R R3
U 1 1 59FC0302
P 5200 1500
F 0 "R3" V 5280 1500 50  0000 C CNN
F 1 "10k" V 5200 1500 50  0000 C CNN
F 2 "Resistors_SMD:R_1206_HandSoldering" V 5130 1500 50  0001 C CNN
F 3 "" H 5200 1500 50  0000 C CNN
	1    5200 1500
	1    0    0    -1  
$EndComp
$Comp
L SW_Push SW3
U 1 1 59FC09E0
P 8000 3600
F 0 "SW3" H 8050 3700 50  0000 L CNN
F 1 "BOOT" H 8000 3540 50  0000 C CNN
F 2 "push_smd:smd_4x4_push" H 8000 3800 50  0001 C CNN
F 3 "" H 8000 3800 50  0000 C CNN
	1    8000 3600
	0    1    1    0   
$EndComp
$Comp
L GND #PWR011
U 1 1 59FC0A7B
P 8000 3800
F 0 "#PWR011" H 8000 3550 50  0001 C CNN
F 1 "GND" H 8000 3650 50  0000 C CNN
F 2 "" H 8000 3800 50  0000 C CNN
F 3 "" H 8000 3800 50  0000 C CNN
	1    8000 3800
	1    0    0    -1  
$EndComp
$Comp
L +3.3V #PWR012
U 1 1 59FC0DDC
P 5200 1350
F 0 "#PWR012" H 5200 1200 50  0001 C CNN
F 1 "+3.3V" H 5200 1490 50  0000 C CNN
F 2 "" H 5200 1350 50  0000 C CNN
F 3 "" H 5200 1350 50  0000 C CNN
	1    5200 1350
	1    0    0    -1  
$EndComp
$Comp
L CONN_01X02 P2
U 1 1 5A2DBE9A
P 8200 9850
F 0 "P2" H 8200 10000 50  0000 C CNN
F 1 "CONN_01X02" V 8300 9850 50  0000 C CNN
F 2 "Pin_Headers:Pin_Header_Straight_1x02_Pitch2.54mm" H 8200 9850 50  0001 C CNN
F 3 "" H 8200 9850 50  0000 C CNN
	1    8200 9850
	0    -1   -1   0   
$EndComp
$Comp
L GND #PWR013
U 1 1 5A2DC07F
P 8250 10050
F 0 "#PWR013" H 8250 9800 50  0001 C CNN
F 1 "GND" H 8250 9900 50  0000 C CNN
F 2 "" H 8250 10050 50  0000 C CNN
F 3 "" H 8250 10050 50  0000 C CNN
	1    8250 10050
	0    -1   -1   0   
$EndComp
$Comp
L +3.3V #PWR014
U 1 1 5A2DC848
P 8150 10050
F 0 "#PWR014" H 8150 9900 50  0001 C CNN
F 1 "+3.3V" H 8150 10190 50  0000 C CNN
F 2 "" H 8150 10050 50  0000 C CNN
F 3 "" H 8150 10050 50  0000 C CNN
	1    8150 10050
	-1   0    0    1   
$EndComp
$Comp
L R R2
U 1 1 5A2DFE38
P 7850 3250
F 0 "R2" V 7930 3250 50  0000 C CNN
F 1 "1k" V 7850 3250 50  0000 C CNN
F 2 "Resistors_SMD:R_1206_HandSoldering" V 7780 3250 50  0001 C CNN
F 3 "" H 7850 3250 50  0000 C CNN
	1    7850 3250
	0    1    1    0   
$EndComp
$Comp
L +3.3V #PWR015
U 1 1 5A2DFF91
P 7700 3250
F 0 "#PWR015" H 7700 3100 50  0001 C CNN
F 1 "+3.3V" H 7700 3390 50  0000 C CNN
F 2 "" H 7700 3250 50  0000 C CNN
F 3 "" H 7700 3250 50  0000 C CNN
	1    7700 3250
	0    -1   -1   0   
$EndComp
NoConn ~ 6650 3200
NoConn ~ 6750 3200
NoConn ~ 6850 3200
NoConn ~ 6950 3200
NoConn ~ 7050 3200
NoConn ~ 7150 3200
$Comp
L USB_OTG P4
U 1 1 5A4EA3BC
P 12000 4650
F 0 "P4" H 12325 4525 50  0000 C CNN
F 1 "USB_OTG" H 12000 4850 50  0000 C CNN
F 2 "USB-MICRO-MK5P-2:USB-MICRO-B" V 11950 4550 50  0001 C CNN
F 3 "" V 11950 4550 50  0000 C CNN
	1    12000 4650
	0    -1   -1   0   
$EndComp
$Comp
L FT232RL U1
U 1 1 5ACF9092
P 14200 5050
F 0 "U1" H 13450 6250 60  0000 C CNN
F 1 "FT232RL" H 14200 5050 60  0000 C CNN
F 2 "Housings_SSOP:SSOP-28_5.3x10.2mm_Pitch0.65mm" H 14200 5050 60  0001 C CNN
F 3 "" H 14200 5050 60  0001 C CNN
	1    14200 5050
	1    0    0    -1  
$EndComp
$Comp
L GND #PWR016
U 1 1 5ACF95D3
P 14500 6450
F 0 "#PWR016" H 14500 6200 50  0001 C CNN
F 1 "GND" H 14500 6300 50  0000 C CNN
F 2 "" H 14500 6450 50  0000 C CNN
F 3 "" H 14500 6450 50  0000 C CNN
	1    14500 6450
	1    0    0    -1  
$EndComp
Text GLabel 15300 4150 2    60   Output ~ 0
ESP_RX
Text GLabel 15300 4300 2    60   Input ~ 0
ESP_TX
$Comp
L +5V #PWR017
U 1 1 5ACF96F1
P 13100 4300
F 0 "#PWR017" H 13100 4150 50  0001 C CNN
F 1 "+5V" H 13100 4440 50  0000 C CNN
F 2 "" H 13100 4300 50  0000 C CNN
F 3 "" H 13100 4300 50  0000 C CNN
	1    13100 4300
	0    -1   -1   0   
$EndComp
$Comp
L +5V #PWR018
U 1 1 5ACF9747
P 12750 4800
F 0 "#PWR018" H 12750 4650 50  0001 C CNN
F 1 "+5V" H 12750 4940 50  0000 C CNN
F 2 "" H 12750 4800 50  0000 C CNN
F 3 "" H 12750 4800 50  0000 C CNN
	1    12750 4800
	-1   0    0    1   
$EndComp
$Comp
L GND #PWR019
U 1 1 5ACF98CD
P 14350 6450
F 0 "#PWR019" H 14350 6200 50  0001 C CNN
F 1 "GND" H 14350 6300 50  0000 C CNN
F 2 "" H 14350 6450 50  0000 C CNN
F 3 "" H 14350 6450 50  0000 C CNN
	1    14350 6450
	1    0    0    -1  
$EndComp
$Comp
L GND #PWR020
U 1 1 5ACF9990
P 14200 6450
F 0 "#PWR020" H 14200 6200 50  0001 C CNN
F 1 "GND" H 14200 6300 50  0000 C CNN
F 2 "" H 14200 6450 50  0000 C CNN
F 3 "" H 14200 6450 50  0000 C CNN
	1    14200 6450
	1    0    0    -1  
$EndComp
$Comp
L GND #PWR021
U 1 1 5ACF99E6
P 14050 6450
F 0 "#PWR021" H 14050 6200 50  0001 C CNN
F 1 "GND" H 14050 6300 50  0000 C CNN
F 2 "" H 14050 6450 50  0000 C CNN
F 3 "" H 14050 6450 50  0000 C CNN
	1    14050 6450
	1    0    0    -1  
$EndComp
$Comp
L GND #PWR022
U 1 1 5ACF9A3C
P 13900 6450
F 0 "#PWR022" H 13900 6200 50  0001 C CNN
F 1 "GND" H 13900 6300 50  0000 C CNN
F 2 "" H 13900 6450 50  0000 C CNN
F 3 "" H 13900 6450 50  0000 C CNN
	1    13900 6450
	1    0    0    -1  
$EndComp
$Comp
L C C4
U 1 1 5ACF9A92
P 13100 6100
F 0 "C4" H 13125 6200 50  0000 L CNN
F 1 "100nF" H 13125 6000 50  0000 L CNN
F 2 "Capacitors_SMD:C_1206_HandSoldering" H 13138 5950 50  0001 C CNN
F 3 "" H 13100 6100 50  0000 C CNN
	1    13100 6100
	1    0    0    -1  
$EndComp
$Comp
L GND #PWR023
U 1 1 5ACF9AF5
P 13100 6250
F 0 "#PWR023" H 13100 6000 50  0001 C CNN
F 1 "GND" H 13100 6100 50  0000 C CNN
F 2 "" H 13100 6250 50  0000 C CNN
F 3 "" H 13100 6250 50  0000 C CNN
	1    13100 6250
	1    0    0    -1  
$EndComp
NoConn ~ 12300 4550
$Comp
L dc_motor M1
U 1 1 5AD06504
P 10450 1850
F 0 "M1" H 10450 1850 60  0000 C CNN
F 1 "dc_motor" H 10450 1650 60  0000 C CNN
F 2 "Capacitors_SMD:C_2220_HandSoldering" H 10450 1850 60  0001 C CNN
F 3 "" H 10450 1850 60  0001 C CNN
	1    10450 1850
	1    0    0    -1  
$EndComp
$Comp
L Touch T1
U 1 1 5AD06597
P 3950 2950
F 0 "T1" H 4150 3200 60  0000 C CNN
F 1 "Touch" H 4150 2650 60  0000 C CNN
F 2 "Lib:touch_panel" H 3950 2950 60  0001 C CNN
F 3 "" H 3950 2950 60  0001 C CNN
	1    3950 2950
	-1   0    0    -1  
$EndComp
$Comp
L CONN_01X03 P3
U 1 1 5AD0D25D
P 1750 8450
F 0 "P3" H 1750 8650 50  0000 C CNN
F 1 "CONN_01X03" V 1850 8450 50  0000 C CNN
F 2 "Pin_Headers:Pin_Header_Straight_1x03_Pitch2.54mm" H 1750 8450 50  0001 C CNN
F 3 "" H 1750 8450 50  0000 C CNN
	1    1750 8450
	1    0    0    -1  
$EndComp
Text Notes 950  8850 0    60   ~ 0
Bypass du Ft232rl
$Comp
L SW_Push SW7
U 1 1 5AD0E2B3
P 3000 1650
F 0 "SW7" H 3050 1750 50  0000 L CNN
F 1 "SW_Push" H 3000 1590 50  0000 C CNN
F 2 "push_smd:smd_4x4_push" H 3000 1850 50  0001 C CNN
F 3 "" H 3000 1850 50  0000 C CNN
	1    3000 1650
	1    0    0    -1  
$EndComp
Text Notes 6450 3800 0    60   ~ 0
Pin 17-22 used \nby internal flash \n\nDo not use for \nother application
$Comp
L R R7
U 1 1 5AD0EBF0
P 3300 1500
F 0 "R7" V 3380 1500 50  0000 C CNN
F 1 "1k" V 3300 1500 50  0000 C CNN
F 2 "Resistors_SMD:R_1206_HandSoldering" V 3230 1500 50  0001 C CNN
F 3 "" H 3300 1500 50  0000 C CNN
	1    3300 1500
	1    0    0    -1  
$EndComp
$Comp
L GND #PWR024
U 1 1 5AD0ECA8
P 3300 1350
F 0 "#PWR024" H 3300 1100 50  0001 C CNN
F 1 "GND" H 3300 1200 50  0000 C CNN
F 2 "" H 3300 1350 50  0000 C CNN
F 3 "" H 3300 1350 50  0000 C CNN
	1    3300 1350
	-1   0    0    1   
$EndComp
$Comp
L SW_SPST SW8
U 1 1 5AD11421
P 3950 1600
F 0 "SW8" H 3950 1725 50  0000 C CNN
F 1 "SW_SPST" H 3950 1500 50  0000 C CNN
F 2 "Buttons_Switches_SMD:SW_SPDT_PCM12" H 3950 1600 50  0001 C CNN
F 3 "" H 3950 1600 50  0000 C CNN
	1    3950 1600
	1    0    0    -1  
$EndComp
$Comp
L R R8
U 1 1 5AD114CC
P 4300 1450
F 0 "R8" V 4380 1450 50  0000 C CNN
F 1 "R" V 4300 1450 50  0000 C CNN
F 2 "Resistors_SMD:R_1206_HandSoldering" V 4230 1450 50  0001 C CNN
F 3 "" H 4300 1450 50  0000 C CNN
	1    4300 1450
	1    0    0    -1  
$EndComp
$Comp
L +3.3V #PWR025
U 1 1 5AD1163C
P 3750 1600
F 0 "#PWR025" H 3750 1450 50  0001 C CNN
F 1 "+3.3V" H 3750 1740 50  0000 C CNN
F 2 "" H 3750 1600 50  0000 C CNN
F 3 "" H 3750 1600 50  0000 C CNN
	1    3750 1600
	0    -1   -1   0   
$EndComp
$Comp
L GND #PWR026
U 1 1 5AD116AE
P 4300 1300
F 0 "#PWR026" H 4300 1050 50  0001 C CNN
F 1 "GND" H 4300 1150 50  0000 C CNN
F 2 "" H 4300 1300 50  0000 C CNN
F 3 "" H 4300 1300 50  0000 C CNN
	1    4300 1300
	-1   0    0    1   
$EndComp
Text Label 15050 2300 0    60   ~ 0
tft_led+
Text Label 8900 1900 0    60   ~ 0
tft_led+
$Comp
L BSS138 Q2
U 1 1 5AD1481E
P 8800 1650
F 0 "Q2" H 9000 1725 50  0000 L CNN
F 1 "BSS138" H 9000 1650 50  0000 L CNN
F 2 "TO_SOT_Packages_SMD:SOT-23" H 9000 1575 50  0001 L CIN
F 3 "" H 8800 1650 50  0000 L CNN
	1    8800 1650
	1    0    0    -1  
$EndComp
$Comp
L +3.3V #PWR027
U 1 1 5AD14EB9
P 8900 1450
F 0 "#PWR027" H 8900 1300 50  0001 C CNN
F 1 "+3.3V" H 8900 1590 50  0000 C CNN
F 2 "" H 8900 1450 50  0000 C CNN
F 3 "" H 8900 1450 50  0000 C CNN
	1    8900 1450
	1    0    0    -1  
$EndComp
$Comp
L BSS138 Q3
U 1 1 5AD1C7A3
P 9550 2050
F 0 "Q3" H 9750 2125 50  0000 L CNN
F 1 "BSS138" H 9750 2050 50  0000 L CNN
F 2 "TO_SOT_Packages_SMD:SOT-23" H 9750 1975 50  0001 L CIN
F 3 "" H 9550 2050 50  0000 L CNN
	1    9550 2050
	1    0    0    -1  
$EndComp
$Comp
L R R13
U 1 1 5AD1C9B6
P 8500 1550
F 0 "R13" V 8580 1550 50  0000 C CNN
F 1 "1k" V 8500 1550 50  0000 C CNN
F 2 "Resistors_SMD:R_1206_HandSoldering" V 8430 1550 50  0001 C CNN
F 3 "" H 8500 1550 50  0000 C CNN
	1    8500 1550
	1    0    0    -1  
$EndComp
$Comp
L GND #PWR028
U 1 1 5AD1CA17
P 8500 1400
F 0 "#PWR028" H 8500 1150 50  0001 C CNN
F 1 "GND" H 8500 1250 50  0000 C CNN
F 2 "" H 8500 1400 50  0000 C CNN
F 3 "" H 8500 1400 50  0000 C CNN
	1    8500 1400
	-1   0    0    1   
$EndComp
$Comp
L C C3
U 1 1 5AD1CB8B
P 10500 1350
F 0 "C3" H 10525 1450 50  0000 L CNN
F 1 "0.1uF" H 10525 1250 50  0000 L CNN
F 2 "Capacitors_SMD:C_1206_HandSoldering" H 10538 1200 50  0001 C CNN
F 3 "" H 10500 1350 50  0000 C CNN
	1    10500 1350
	0    -1   -1   0   
$EndComp
$Comp
L +3.3V #PWR029
U 1 1 5AD1CBEE
P 11050 1850
F 0 "#PWR029" H 11050 1700 50  0001 C CNN
F 1 "+3.3V" H 11050 1990 50  0000 C CNN
F 2 "" H 11050 1850 50  0000 C CNN
F 3 "" H 11050 1850 50  0000 C CNN
	1    11050 1850
	1    0    0    -1  
$EndComp
$Comp
L D_Schottky D4
U 1 1 5AD1CC4A
P 10450 2400
F 0 "D4" H 10450 2500 50  0000 C CNN
F 1 "1N5822" H 10450 2300 50  0000 C CNN
F 2 "Diodes_SMD:D_SMA_Handsoldering" H 10450 2400 50  0001 C CNN
F 3 "" H 10450 2400 50  0000 C CNN
	1    10450 2400
	-1   0    0    1   
$EndComp
$Comp
L GND #PWR030
U 1 1 5AD1D28E
P 9650 2250
F 0 "#PWR030" H 9650 2000 50  0001 C CNN
F 1 "GND" H 9650 2100 50  0000 C CNN
F 2 "" H 9650 2250 50  0000 C CNN
F 3 "" H 9650 2250 50  0000 C CNN
	1    9650 2250
	1    0    0    -1  
$EndComp
$Comp
L R R14
U 1 1 5AD21D38
P 8900 2250
F 0 "R14" V 8980 2250 50  0000 C CNN
F 1 "1k" V 8900 2250 50  0000 C CNN
F 2 "Resistors_SMD:R_1206_HandSoldering" V 8830 2250 50  0001 C CNN
F 3 "" H 8900 2250 50  0000 C CNN
	1    8900 2250
	1    0    0    -1  
$EndComp
$Comp
L GND #PWR031
U 1 1 5AD21DAB
P 8900 2400
F 0 "#PWR031" H 8900 2150 50  0001 C CNN
F 1 "GND" H 8900 2250 50  0000 C CNN
F 2 "" H 8900 2400 50  0000 C CNN
F 3 "" H 8900 2400 50  0000 C CNN
	1    8900 2400
	1    0    0    -1  
$EndComp
$Comp
L +3.3V #PWR032
U 1 1 5AD24384
P 2800 1650
F 0 "#PWR032" H 2800 1500 50  0001 C CNN
F 1 "+3.3V" H 2800 1790 50  0000 C CNN
F 2 "" H 2800 1650 50  0000 C CNN
F 3 "" H 2800 1650 50  0000 C CNN
	1    2800 1650
	1    0    0    -1  
$EndComp
NoConn ~ 15300 4450
NoConn ~ 15300 4600
NoConn ~ 15300 4750
NoConn ~ 15300 4900
NoConn ~ 15300 5050
NoConn ~ 15300 5200
NoConn ~ 15300 5350
NoConn ~ 15300 5500
NoConn ~ 15300 5650
NoConn ~ 15300 5800
NoConn ~ 15300 5950
NoConn ~ 13100 5050
NoConn ~ 13100 5350
NoConn ~ 13100 5500
$Comp
L CONN_01X10 P1
U 1 1 5AD27DD4
P 14600 2950
F 0 "P1" H 14600 3500 50  0000 C CNN
F 1 "CONN_01X10" V 14700 2950 50  0000 C CNN
F 2 "Pin_Headers:Pin_Header_Straight_1x10_Pitch2.54mm" H 14600 2950 50  0001 C CNN
F 3 "" H 14600 2950 50  0000 C CNN
	1    14600 2950
	0    -1   1    0   
$EndComp
$Comp
L GND #PWR033
U 1 1 5AD27F40
P 14750 2400
F 0 "#PWR033" H 14750 2150 50  0001 C CNN
F 1 "GND" H 14750 2250 50  0000 C CNN
F 2 "" H 14750 2400 50  0000 C CNN
F 3 "" H 14750 2400 50  0000 C CNN
	1    14750 2400
	-1   0    0    1   
$EndComp
$Comp
L C C1
U 1 1 5AD12084
P 5750 1450
F 0 "C1" H 5775 1550 50  0000 L CNN
F 1 "10uF" H 5775 1350 50  0000 L CNN
F 2 "Capacitors_SMD:C_1210_HandSoldering" H 5788 1300 50  0001 C CNN
F 3 "" H 5750 1450 50  0000 C CNN
	1    5750 1450
	1    0    0    -1  
$EndComp
$Comp
L Touch T2
U 1 1 5B2BA076
P 8050 4800
F 0 "T2" H 8250 5050 60  0000 C CNN
F 1 "Touch" H 8250 4500 60  0000 C CNN
F 2 "Lib:touch_panel" H 8050 4800 60  0001 C CNN
F 3 "" H 8050 4800 60  0001 C CNN
	1    8050 4800
	0    1    1    0   
$EndComp
Text Label 5950 2050 2    60   ~ 0
batt_level
$Comp
L LED D1
U 1 1 5B2BD433
P 4150 2100
F 0 "D1" H 4150 2200 50  0000 C CNN
F 1 "LED" H 4150 2000 50  0000 C CNN
F 2 "LEDs:LED_0805_HandSoldering" H 4150 2100 50  0001 C CNN
F 3 "" H 4150 2100 50  0000 C CNN
	1    4150 2100
	1    0    0    -1  
$EndComp
$Comp
L LED D2
U 1 1 5B2BD494
P 3800 2300
F 0 "D2" H 3800 2400 50  0000 C CNN
F 1 "LED" H 3800 2200 50  0000 C CNN
F 2 "LEDs:LED_0805_HandSoldering" H 3800 2300 50  0001 C CNN
F 3 "" H 3800 2300 50  0000 C CNN
	1    3800 2300
	1    0    0    -1  
$EndComp
$Comp
L LED D3
U 1 1 5B2BD50B
P 3300 2500
F 0 "D3" H 3300 2600 50  0000 C CNN
F 1 "LED" H 3300 2400 50  0000 C CNN
F 2 "LEDs:LED_0805_HandSoldering" H 3300 2500 50  0001 C CNN
F 3 "" H 3300 2500 50  0000 C CNN
	1    3300 2500
	1    0    0    -1  
$EndComp
$Comp
L GND #PWR034
U 1 1 5B2BD8A1
P 3150 2500
F 0 "#PWR034" H 3150 2250 50  0001 C CNN
F 1 "GND" H 3150 2350 50  0000 C CNN
F 2 "" H 3150 2500 50  0000 C CNN
F 3 "" H 3150 2500 50  0000 C CNN
	1    3150 2500
	0    1    1    0   
$EndComp
$Comp
L GND #PWR035
U 1 1 5B2BD905
P 3650 2300
F 0 "#PWR035" H 3650 2050 50  0001 C CNN
F 1 "GND" H 3650 2150 50  0000 C CNN
F 2 "" H 3650 2300 50  0000 C CNN
F 3 "" H 3650 2300 50  0000 C CNN
	1    3650 2300
	0    1    1    0   
$EndComp
$Comp
L GND #PWR036
U 1 1 5B2BD969
P 4000 2100
F 0 "#PWR036" H 4000 1850 50  0001 C CNN
F 1 "GND" H 4000 1950 50  0000 C CNN
F 2 "" H 4000 2100 50  0000 C CNN
F 3 "" H 4000 2100 50  0000 C CNN
	1    4000 2100
	0    1    1    0   
$EndComp
$Comp
L +BATT #PWR037
U 1 1 5B2BE05D
P 1550 6200
F 0 "#PWR037" H 1550 6050 50  0001 C CNN
F 1 "+BATT" H 1550 6340 50  0000 C CNN
F 2 "" H 1550 6200 50  0000 C CNN
F 3 "" H 1550 6200 50  0000 C CNN
	1    1550 6200
	1    0    0    -1  
$EndComp
$Comp
L Switch S1
U 1 1 5B2BE0C1
P 1900 6200
F 0 "S1" H 2000 6400 60  0000 C CNN
F 1 "Switch" H 2000 6100 60  0000 C CNN
F 2 "Buttons_Switches_SMD:SW_SPDT_PCM12" H 1900 6200 60  0001 C CNN
F 3 "" H 1900 6200 60  0001 C CNN
	1    1900 6200
	1    0    0    -1  
$EndComp
$Comp
L TPS73633DBV U2
U 1 1 5B2BE136
P 3250 6350
F 0 "U2" H 3250 6550 60  0000 C CNN
F 1 "TPS73633DBV" H 3350 6100 60  0000 C CNN
F 2 "TO_SOT_Packages_SMD:SOT-23-5_HandSoldering" H 3250 6350 60  0001 C CNN
F 3 "" H 3250 6350 60  0001 C CNN
	1    3250 6350
	1    0    0    -1  
$EndComp
$Comp
L C C7
U 1 1 5B2BE2FE
P 3800 6500
F 0 "C7" H 3825 6600 50  0000 L CNN
F 1 "0.1uF" H 3825 6400 50  0000 L CNN
F 2 "Capacitors_SMD:C_1206_HandSoldering" H 3838 6350 50  0001 C CNN
F 3 "" H 3800 6500 50  0000 C CNN
	1    3800 6500
	1    0    0    -1  
$EndComp
$Comp
L GND #PWR038
U 1 1 5B2BE391
P 3800 6650
F 0 "#PWR038" H 3800 6400 50  0001 C CNN
F 1 "GND" H 3800 6500 50  0000 C CNN
F 2 "" H 3800 6650 50  0000 C CNN
F 3 "" H 3800 6650 50  0000 C CNN
	1    3800 6650
	1    0    0    -1  
$EndComp
$Comp
L +3.3V #PWR039
U 1 1 5B2BE81F
P 3800 5950
F 0 "#PWR039" H 3800 5800 50  0001 C CNN
F 1 "+3.3V" H 3800 6090 50  0000 C CNN
F 2 "" H 3800 5950 50  0000 C CNN
F 3 "" H 3800 5950 50  0000 C CNN
	1    3800 5950
	1    0    0    -1  
$EndComp
$Comp
L GND #PWR040
U 1 1 5B2BEDFF
P 2850 6300
F 0 "#PWR040" H 2850 6050 50  0001 C CNN
F 1 "GND" H 2850 6150 50  0000 C CNN
F 2 "" H 2850 6300 50  0000 C CNN
F 3 "" H 2850 6300 50  0000 C CNN
	1    2850 6300
	0    1    1    0   
$EndComp
$Comp
L R R4
U 1 1 5B2BF240
P 2550 5750
F 0 "R4" V 2630 5750 50  0000 C CNN
F 1 "1k" V 2550 5750 50  0000 C CNN
F 2 "Resistors_SMD:R_1206_HandSoldering" V 2480 5750 50  0001 C CNN
F 3 "" H 2550 5750 50  0000 C CNN
	1    2550 5750
	1    0    0    -1  
$EndComp
$Comp
L R R1
U 1 1 5B2BF2B1
P 2550 5300
F 0 "R1" V 2630 5300 50  0000 C CNN
F 1 "1333" V 2550 5300 50  0000 C CNN
F 2 "Resistors_SMD:R_1206_HandSoldering" V 2480 5300 50  0001 C CNN
F 3 "" H 2550 5300 50  0000 C CNN
	1    2550 5300
	1    0    0    -1  
$EndComp
$Comp
L GND #PWR041
U 1 1 5B2BF458
P 2550 5150
F 0 "#PWR041" H 2550 4900 50  0001 C CNN
F 1 "GND" H 2550 5000 50  0000 C CNN
F 2 "" H 2550 5150 50  0000 C CNN
F 3 "" H 2550 5150 50  0000 C CNN
	1    2550 5150
	-1   0    0    1   
$EndComp
Text Label 2700 5550 0    60   ~ 0
batt_level
Wire Wire Line
	14900 1750 15200 1750
Wire Wire Line
	15200 1750 15200 1850
Wire Wire Line
	14500 1750 14500 2000
Wire Wire Line
	14500 2000 14550 2000
Wire Wire Line
	14550 2000 14550 2450
Wire Wire Line
	14400 1750 14400 2050
Wire Wire Line
	14300 1750 14300 2550
Wire Wire Line
	14300 2000 14250 2000
Wire Wire Line
	14250 2000 14250 2050
Wire Wire Line
	14200 1750 14200 2000
Wire Wire Line
	14200 2000 14100 2000
Wire Wire Line
	14100 2000 14100 2600
Wire Wire Line
	14100 1950 14100 1750
Wire Wire Line
	13900 1950 14100 1950
Wire Wire Line
	13950 1950 13950 2050
Wire Wire Line
	14000 1900 14000 1750
Wire Wire Line
	13550 1900 14000 1900
Wire Wire Line
	13800 1900 13800 2050
Wire Wire Line
	7800 2800 7800 3050
Wire Wire Line
	7800 1600 8000 1600
Wire Wire Line
	7800 2300 8350 2300
Wire Wire Line
	7800 2500 8350 2500
Wire Wire Line
	7950 2400 7800 2400
Wire Wire Line
	7800 2600 7950 2600
Wire Wire Line
	7800 2200 7950 2200
Wire Wire Line
	7800 1800 8250 1800
Wire Wire Line
	5950 1550 5900 1550
Wire Wire Line
	8000 3050 8000 3400
Wire Wire Line
	7800 3050 8000 3050
Connection ~ 7800 2850
Wire Wire Line
	13250 2750 14150 2750
Wire Wire Line
	13250 2750 13250 1750
Wire Wire Line
	13250 1750 13900 1750
Wire Wire Line
	13550 1900 13550 2700
Wire Wire Line
	13550 2700 14250 2700
Wire Wire Line
	14250 2700 14250 2750
Connection ~ 13800 1900
Wire Wire Line
	13900 1950 13900 2650
Wire Wire Line
	13900 2650 14350 2650
Wire Wire Line
	14350 2650 14350 2750
Connection ~ 13950 1950
Wire Wire Line
	14100 2600 14450 2600
Wire Wire Line
	14450 2600 14450 2750
Wire Wire Line
	14300 2550 14550 2550
Wire Wire Line
	14550 2550 14550 2750
Connection ~ 14300 2000
Wire Wire Line
	14400 2000 14400 2500
Wire Wire Line
	14400 2500 14650 2500
Wire Wire Line
	14650 2500 14650 2750
Connection ~ 14400 2000
Wire Wire Line
	14550 2450 14750 2450
Wire Wire Line
	14750 2450 14750 2750
Wire Wire Line
	14600 1750 14600 2400
Wire Wire Line
	14600 2400 14850 2400
Wire Wire Line
	14950 2350 14950 2750
Wire Wire Line
	15200 1800 15350 1800
Wire Wire Line
	15350 3200 13850 3200
Wire Wire Line
	13850 3200 13850 2750
Connection ~ 13850 2750
Connection ~ 15200 1800
Connection ~ 14100 2050
Connection ~ 14550 2050
Connection ~ 13900 1750
Connection ~ 8000 3250
Connection ~ 5200 1650
Connection ~ 15000 1750
Connection ~ 15100 1750
Wire Wire Line
	5100 1650 5950 1650
Wire Wire Line
	14850 1850 14850 2350
Wire Wire Line
	14850 1850 14700 1850
Wire Wire Line
	14700 1850 14700 1750
Wire Wire Line
	13100 4600 12700 4600
Wire Wire Line
	12700 4600 12700 4750
Wire Wire Line
	12700 4750 12300 4750
Wire Wire Line
	12300 4650 13100 4650
Wire Wire Line
	13100 4650 13100 4750
Wire Wire Line
	13100 4150 11500 4150
Wire Wire Line
	11500 4150 11500 5950
Wire Wire Line
	11500 5950 13100 5950
Wire Wire Line
	1100 8450 1550 8450
Wire Wire Line
	5900 3300 6550 3300
Wire Wire Line
	6550 3300 6550 3200
Wire Wire Line
	4500 2800 4500 2550
Wire Wire Line
	4500 2550 5950 2550
Wire Wire Line
	4500 2900 4600 2900
Wire Wire Line
	4600 2900 4600 2650
Wire Wire Line
	4600 2650 5950 2650
Wire Wire Line
	4500 3000 5950 3000
Wire Wire Line
	5950 3000 5950 2750
Wire Wire Line
	4500 3100 5900 3100
Wire Wire Line
	5900 3100 5900 3300
Wire Wire Line
	5900 1550 5900 1600
Wire Wire Line
	5900 1600 5600 1600
Wire Wire Line
	5700 1300 5950 1300
Wire Wire Line
	5950 1300 5950 1450
Connection ~ 5750 1300
Wire Wire Line
	5600 1600 5600 1500
Connection ~ 5750 1600
Wire Wire Line
	14800 1750 14800 1800
Wire Wire Line
	14800 1800 15050 1800
Wire Wire Line
	15050 1800 15050 2750
Wire Wire Line
	7800 1700 8600 1700
Wire Wire Line
	8900 1900 8900 1850
Wire Wire Line
	8900 1450 8900 1450
Connection ~ 10800 1850
Wire Wire Line
	10100 1850 9650 1850
Connection ~ 10100 1850
Wire Wire Line
	10800 1850 11050 1850
Wire Wire Line
	7800 2000 7900 2000
Wire Wire Line
	7900 2000 7900 2100
Wire Wire Line
	5950 1750 4300 1750
Wire Wire Line
	3450 1850 5950 1850
Wire Wire Line
	4300 1750 4300 1600
Wire Wire Line
	4300 1600 4150 1600
Connection ~ 4300 1600
Wire Wire Line
	3200 1650 3450 1650
Wire Wire Line
	3450 1650 3450 1850
Connection ~ 3300 1650
Wire Wire Line
	7800 2700 8650 2700
Wire Wire Line
	8650 2700 8650 4250
Wire Wire Line
	7250 3200 7250 4000
Wire Wire Line
	7350 3200 7350 3900
Wire Wire Line
	7350 3900 7900 3900
Connection ~ 8900 2100
Connection ~ 8500 1700
Wire Wire Line
	14850 2400 14850 2750
Connection ~ 14850 2750
Connection ~ 14750 2400
Connection ~ 14850 2350
Connection ~ 14850 2050
Wire Wire Line
	14850 2350 14950 2350
Wire Wire Line
	10650 1350 10800 1350
Wire Wire Line
	10800 1350 10800 2400
Wire Wire Line
	10350 1350 10100 1350
Wire Wire Line
	10100 1350 10100 2400
Wire Wire Line
	10100 2400 10300 2400
Wire Wire Line
	10800 2400 10600 2400
Wire Wire Line
	7900 2100 9350 2100
Wire Wire Line
	15350 1800 15350 3200
Wire Wire Line
	8000 3150 8250 3150
Wire Wire Line
	8250 3150 8250 4100
Wire Wire Line
	8250 4100 8100 4100
Wire Wire Line
	8100 4100 8100 4250
Connection ~ 8000 3150
Wire Wire Line
	8650 4250 8200 4250
Wire Wire Line
	7900 3900 7900 4150
Wire Wire Line
	7900 4150 8000 4150
Wire Wire Line
	8000 4150 8000 4250
Wire Wire Line
	7250 4000 7750 4000
Wire Wire Line
	7750 4000 7750 4250
Wire Wire Line
	7750 4250 7900 4250
Wire Wire Line
	4300 2100 5950 2100
Wire Wire Line
	5950 2100 5950 2150
Wire Wire Line
	5950 2250 3950 2250
Wire Wire Line
	3950 2250 3950 2300
Wire Wire Line
	3450 2500 5950 2500
Wire Wire Line
	5950 2500 5950 2450
Wire Wire Line
	3800 5950 3800 6250
Wire Wire Line
	2400 6200 2850 6200
Wire Wire Line
	2450 6200 2450 6400
Wire Wire Line
	2450 6400 2850 6400
Connection ~ 2450 6200
Connection ~ 2550 6200
Wire Wire Line
	2550 5450 2550 5600
Wire Wire Line
	2550 5550 2700 5550
Connection ~ 2550 5550
Wire Wire Line
	2550 6200 2550 5900
Text Label 11900 4250 0    60   ~ 0
-BATT
Text Label 12600 4450 0    60   ~ 0
-BATT
$Comp
L C C5
U 1 1 5B2C1A55
P 12550 4650
F 0 "C5" H 12575 4750 50  0000 L CNN
F 1 "10uF" H 12575 4550 50  0000 L CNN
F 2 "Capacitors_SMD:C_1210_HandSoldering" H 12588 4500 50  0001 C CNN
F 3 "" H 12550 4650 50  0000 C CNN
	1    12550 4650
	1    0    0    -1  
$EndComp
Wire Wire Line
	12300 4450 12600 4450
Wire Wire Line
	12550 4450 12550 4500
Connection ~ 12550 4450
Wire Wire Line
	12300 4850 12550 4850
Wire Wire Line
	12550 4850 12550 4800
Wire Wire Line
	12550 4800 12750 4800
$Comp
L TP4056 U4
U 1 1 5B2C2163
P 6250 7100
F 0 "U4" H 6200 6800 60  0000 C CNN
F 1 "TP4056" H 6200 7400 60  0000 C CNN
F 2 "Housings_SOIC:SOIC-8_3.9x4.9mm_Pitch1.27mm" H 6200 7400 60  0001 C CNN
F 3 "" H 6200 7400 60  0001 C CNN
	1    6250 7100
	1    0    0    -1  
$EndComp
$Comp
L R R6
U 1 1 5B2C229C
P 5500 7050
F 0 "R6" V 5580 7050 50  0000 C CNN
F 1 "1333" V 5500 7050 50  0000 C CNN
F 2 "Resistors_SMD:R_1206_HandSoldering" V 5430 7050 50  0001 C CNN
F 3 "" H 5500 7050 50  0000 C CNN
	1    5500 7050
	0    1    1    0   
$EndComp
$Comp
L R R5
U 1 1 5B2C2319
P 7350 6950
F 0 "R5" V 7430 6950 50  0000 C CNN
F 1 "220" V 7350 6950 50  0000 C CNN
F 2 "Resistors_SMD:R_1206_HandSoldering" V 7280 6950 50  0001 C CNN
F 3 "" H 7350 6950 50  0000 C CNN
	1    7350 6950
	0    1    1    0   
$EndComp
$Comp
L R R15
U 1 1 5B2C238C
P 7350 7250
F 0 "R15" V 7430 7250 50  0000 C CNN
F 1 "220" V 7350 7250 50  0000 C CNN
F 2 "Resistors_SMD:R_1206_HandSoldering" V 7280 7250 50  0001 C CNN
F 3 "" H 7350 7250 50  0000 C CNN
	1    7350 7250
	0    1    1    0   
$EndComp
$Comp
L +5V #PWR042
U 1 1 5B2C2466
P 5650 7250
F 0 "#PWR042" H 5650 7100 50  0001 C CNN
F 1 "+5V" H 5650 7390 50  0000 C CNN
F 2 "" H 5650 7250 50  0000 C CNN
F 3 "" H 5650 7250 50  0000 C CNN
	1    5650 7250
	-1   0    0    1   
$EndComp
$Comp
L +5V #PWR043
U 1 1 5B2C24DA
P 6700 6950
F 0 "#PWR043" H 6700 6800 50  0001 C CNN
F 1 "+5V" H 6700 7090 50  0000 C CNN
F 2 "" H 6700 6950 50  0000 C CNN
F 3 "" H 6700 6950 50  0000 C CNN
	1    6700 6950
	1    0    0    -1  
$EndComp
$Comp
L LED D5
U 1 1 5B2C27CD
P 7050 6950
F 0 "D5" H 7050 7050 50  0000 C CNN
F 1 "LED" H 7050 6850 50  0000 C CNN
F 2 "LEDs:LED_0805_HandSoldering" H 7050 6950 50  0001 C CNN
F 3 "" H 7050 6950 50  0000 C CNN
	1    7050 6950
	1    0    0    -1  
$EndComp
$Comp
L LED D6
U 1 1 5B2C291B
P 7050 7250
F 0 "D6" H 7050 7350 50  0000 C CNN
F 1 "LED" H 7050 7150 50  0000 C CNN
F 2 "LEDs:LED_0805_HandSoldering" H 7050 7250 50  0001 C CNN
F 3 "" H 7050 7250 50  0000 C CNN
	1    7050 7250
	1    0    0    -1  
$EndComp
$Comp
L +5V #PWR044
U 1 1 5B2C2A4E
P 7500 7250
F 0 "#PWR044" H 7500 7100 50  0001 C CNN
F 1 "+5V" H 7500 7390 50  0000 C CNN
F 2 "" H 7500 7250 50  0000 C CNN
F 3 "" H 7500 7250 50  0000 C CNN
	1    7500 7250
	0    1    1    0   
$EndComp
$Comp
L +5V #PWR045
U 1 1 5B2C2AC6
P 7500 6950
F 0 "#PWR045" H 7500 6800 50  0001 C CNN
F 1 "+5V" H 7500 7090 50  0000 C CNN
F 2 "" H 7500 6950 50  0000 C CNN
F 3 "" H 7500 6950 50  0000 C CNN
	1    7500 6950
	0    1    1    0   
$EndComp
Wire Wire Line
	6900 6950 6750 6950
Wire Wire Line
	6750 6950 6750 7050
Wire Wire Line
	6750 7050 6700 7050
Wire Wire Line
	6700 7150 6750 7150
Wire Wire Line
	6750 7150 6750 7250
Wire Wire Line
	6750 7250 6900 7250
$Comp
L +BATT #PWR046
U 1 1 5B2C2D2B
P 6700 7300
F 0 "#PWR046" H 6700 7150 50  0001 C CNN
F 1 "+BATT" H 6700 7440 50  0000 C CNN
F 2 "" H 6700 7300 50  0000 C CNN
F 3 "" H 6700 7300 50  0000 C CNN
	1    6700 7300
	-1   0    0    1   
$EndComp
Wire Wire Line
	6700 7250 6700 7300
Text Label 5650 6950 2    60   ~ 0
-BATT
Text Label 5350 7050 2    60   ~ 0
-BATT
Text Label 5400 7250 2    60   ~ 0
-BATT
Wire Wire Line
	5400 7250 5600 7250
Wire Wire Line
	5600 7250 5600 7150
Wire Wire Line
	5600 7150 5650 7150
$Comp
L +BATT #PWR047
U 1 1 5B2C33E8
P 9900 8100
F 0 "#PWR047" H 9900 7950 50  0001 C CNN
F 1 "+BATT" H 9900 8240 50  0000 C CNN
F 2 "" H 9900 8100 50  0000 C CNN
F 3 "" H 9900 8100 50  0000 C CNN
	1    9900 8100
	1    0    0    -1  
$EndComp
$Comp
L Battery_Cell BT1
U 1 1 5B2C3460
P 10250 8100
F 0 "BT1" H 10350 8200 50  0000 L CNN
F 1 "Battery_Cell" H 10350 8100 50  0000 L CNN
F 2 "Resistors_SMD:R_2010_HandSoldering" V 10250 8160 50  0001 C CNN
F 3 "" V 10250 8160 50  0000 C CNN
	1    10250 8100
	0    -1   -1   0   
$EndComp
Text Label 10500 8150 3    60   ~ 0
-BATT
$Comp
L 8205 U5
U 1 1 5B2C3589
P 11300 8100
F 0 "U5" H 11300 8100 60  0000 C CNN
F 1 "8205" H 11300 8400 60  0000 C CNN
F 2 "Housings_SSOP:TSSOP-8_4.4x3mm_Pitch0.65mm" H 11300 8100 60  0001 C CNN
F 3 "" H 11300 8100 60  0001 C CNN
	1    11300 8100
	1    0    0    -1  
$EndComp
Wire Wire Line
	11750 7950 11750 7750
Wire Wire Line
	11750 7750 10850 7750
Wire Wire Line
	10850 7750 10850 7950
Wire Wire Line
	9900 8100 10050 8100
Wire Wire Line
	10350 8100 10850 8100
Wire Wire Line
	10850 8050 10850 8150
Connection ~ 10850 8100
Wire Wire Line
	10500 8150 10500 8100
Connection ~ 10500 8100
$Comp
L R R16
U 1 1 5B2C3B79
P 12150 8100
F 0 "R16" V 12230 8100 50  0000 C CNN
F 1 "1k" V 12150 8100 50  0000 C CNN
F 2 "Resistors_SMD:R_1206_HandSoldering" V 12080 8100 50  0001 C CNN
F 3 "" H 12150 8100 50  0000 C CNN
	1    12150 8100
	0    1    1    0   
$EndComp
$Comp
L dw01 U6
U 1 1 5B2C3BFA
P 12900 8150
F 0 "U6" H 12900 8400 60  0000 C CNN
F 1 "dw01" H 12900 8000 60  0000 C CNN
F 2 "TO_SOT_Packages_SMD:SOT-23-6_Handsoldering" H 12900 8150 60  0001 C CNN
F 3 "" H 12900 8150 60  0001 C CNN
	1    12900 8150
	1    0    0    -1  
$EndComp
Wire Wire Line
	11750 8250 12500 8250
Wire Wire Line
	12500 8250 12500 8200
Wire Wire Line
	11750 8050 11750 8150
Wire Wire Line
	11750 8100 12000 8100
Connection ~ 11750 8100
Wire Wire Line
	12300 8100 12500 8100
$Comp
L GND #PWR048
U 1 1 5B2C40FC
P 11900 8100
F 0 "#PWR048" H 11900 7850 50  0001 C CNN
F 1 "GND" H 11900 7950 50  0000 C CNN
F 2 "" H 11900 8100 50  0000 C CNN
F 3 "" H 11900 8100 50  0000 C CNN
	1    11900 8100
	-1   0    0    1   
$EndComp
Connection ~ 11900 8100
Wire Wire Line
	10350 8100 10350 7650
Wire Wire Line
	10350 7650 13300 7650
Wire Wire Line
	13300 7650 13300 8000
$Comp
L C C8
U 1 1 5B2C4291
P 13550 7950
F 0 "C8" H 13575 8050 50  0000 L CNN
F 1 "0.1uF" H 13575 7850 50  0000 L CNN
F 2 "Capacitors_SMD:C_1206_HandSoldering" H 13588 7800 50  0001 C CNN
F 3 "" H 13550 7950 50  0000 C CNN
	1    13550 7950
	1    0    0    -1  
$EndComp
$Comp
L R R17
U 1 1 5B2C4392
P 13850 8100
F 0 "R17" V 13930 8100 50  0000 C CNN
F 1 "100" V 13850 8100 50  0000 C CNN
F 2 "Resistors_SMD:R_1206_HandSoldering" V 13780 8100 50  0001 C CNN
F 3 "" H 13850 8100 50  0000 C CNN
	1    13850 8100
	0    1    1    0   
$EndComp
$Comp
L +BATT #PWR049
U 1 1 5B2C441D
P 14100 8100
F 0 "#PWR049" H 14100 7950 50  0001 C CNN
F 1 "+BATT" H 14100 8240 50  0000 C CNN
F 2 "" H 14100 8100 50  0000 C CNN
F 3 "" H 14100 8100 50  0000 C CNN
	1    14100 8100
	1    0    0    -1  
$EndComp
Wire Wire Line
	13300 8100 13700 8100
Wire Wire Line
	13550 7800 13300 7800
Connection ~ 13300 7800
Wire Wire Line
	14000 8100 14100 8100
Connection ~ 13550 8100
Wire Wire Line
	12500 8000 12300 8000
Wire Wire Line
	12300 8000 12300 8350
Wire Wire Line
	12300 8350 10850 8350
Wire Wire Line
	10850 8350 10850 8250
NoConn ~ 13300 8200
$Comp
L LED D7
U 1 1 5B2C7610
P 4900 4950
F 0 "D7" H 4900 5050 50  0000 C CNN
F 1 "LED" H 4900 4850 50  0000 C CNN
F 2 "LEDs:LED_0805_HandSoldering" H 4900 4950 50  0001 C CNN
F 3 "" H 4900 4950 50  0000 C CNN
	1    4900 4950
	-1   0    0    1   
$EndComp
$Comp
L GND #PWR050
U 1 1 5B2C76A7
P 5150 4950
F 0 "#PWR050" H 5150 4700 50  0001 C CNN
F 1 "GND" H 5150 4800 50  0000 C CNN
F 2 "" H 5150 4950 50  0000 C CNN
F 3 "" H 5150 4950 50  0000 C CNN
	1    5150 4950
	1    0    0    -1  
$EndComp
$Comp
L +3.3V #PWR051
U 1 1 5B2C79B8
P 4650 4950
F 0 "#PWR051" H 4650 4800 50  0001 C CNN
F 1 "+3.3V" H 4650 5090 50  0000 C CNN
F 2 "" H 4650 4950 50  0000 C CNN
F 3 "" H 4650 4950 50  0000 C CNN
	1    4650 4950
	1    0    0    -1  
$EndComp
Wire Wire Line
	5150 4950 5050 4950
Wire Wire Line
	4750 4950 4650 4950
NoConn ~ 5950 2350
Connection ~ 5600 1500
NoConn ~ 5950 1950
$EndSCHEMATC
