EESchema Schematic File Version 2
LIBS:power
LIBS:device
LIBS:transistors
LIBS:conn
LIBS:linear
LIBS:regul
LIBS:74xx
LIBS:cmos4000
LIBS:adc-dac
LIBS:memory
LIBS:xilinx
LIBS:microcontrollers
LIBS:dsp
LIBS:microchip
LIBS:analog_switches
LIBS:motorola
LIBS:texas
LIBS:intel
LIBS:audio
LIBS:interface
LIBS:digital-audio
LIBS:philips
LIBS:display
LIBS:cypress
LIBS:siliconi
LIBS:opto
LIBS:atmel
LIBS:contrib
LIBS:valves
LIBS:switches
LIBS:8205
LIBS:dw01
LIBS:tp4056
LIBS:tps73633dbv
LIBS:maug-cache
EELAYER 25 0
EELAYER END
$Descr A3 16535 11693
encoding utf-8
Sheet 1 1
Title ""
Date ""
Rev ""
Comp ""
Comment1 ""
Comment2 ""
Comment3 ""
Comment4 ""
$EndDescr
$Comp
L ESP-32S U3
U 1 1 59F495F1
P 2950 5650
F 0 "U3" H 2250 6900 60  0000 C CNN
F 1 "ESP-32S" H 3450 6900 60  0000 C CNN
F 2 "ESP32-footprints-Lib:ESP32-WROOM" H 3300 7000 60  0001 C CNN
F 3 "" H 2500 6100 60  0001 C CNN
	1    2950 5650
	1    0    0    -1  
$EndComp
$Comp
L GND #PWR01
U 1 1 59F4966F
P 3850 4900
F 0 "#PWR01" H 3850 4650 50  0001 C CNN
F 1 "GND" H 3850 4750 50  0000 C CNN
F 2 "" H 3850 4900 50  0000 C CNN
F 3 "" H 3850 4900 50  0000 C CNN
	1    3850 4900
	-1   0    0    1   
$EndComp
$Comp
L GND #PWR02
U 1 1 59F49685
P 3850 5000
F 0 "#PWR02" H 3850 4750 50  0001 C CNN
F 1 "GND" H 3850 4850 50  0000 C CNN
F 2 "" H 3850 5000 50  0000 C CNN
F 3 "" H 3850 5000 50  0000 C CNN
	1    3850 5000
	0    -1   -1   0   
$EndComp
$Comp
L GND #PWR03
U 1 1 59F4969B
P 1950 4950
F 0 "#PWR03" H 1950 4700 50  0001 C CNN
F 1 "GND" H 1950 4800 50  0000 C CNN
F 2 "" H 1950 4950 50  0000 C CNN
F 3 "" H 1950 4950 50  0000 C CNN
	1    1950 4950
	-1   0    0    1   
$EndComp
$Comp
L +3.3V #PWR04
U 1 1 59F496B1
P 1950 5050
F 0 "#PWR04" H 1950 4900 50  0001 C CNN
F 1 "+3.3V" H 1950 5190 50  0000 C CNN
F 2 "" H 1950 5050 50  0000 C CNN
F 3 "" H 1950 5050 50  0000 C CNN
	1    1950 5050
	0    -1   -1   0   
$EndComp
$Comp
L GND #PWR05
U 1 1 59F496DC
P 2500 6700
F 0 "#PWR05" H 2500 6450 50  0001 C CNN
F 1 "GND" H 2500 6550 50  0000 C CNN
F 2 "" H 2500 6700 50  0000 C CNN
F 3 "" H 2500 6700 50  0000 C CNN
	1    2500 6700
	0    1    1    0   
$EndComp
$Comp
L tft_display U7
U 1 1 59FB0963
P 1950 800
F 0 "U7" H 2250 900 60  0000 C CNN
F 1 "tft_display" H 1750 850 60  0000 C CNN
F 2 "tft:tft_14" H 1950 800 60  0001 C CNN
F 3 "" H 1950 800 60  0001 C CNN
	1    1950 800 
	1    0    0    -1  
$EndComp
$Comp
L +3.3V #PWR06
U 1 1 59FB0A02
P 2400 1400
F 0 "#PWR06" H 2400 1250 50  0001 C CNN
F 1 "+3.3V" H 2400 1540 50  0000 C CNN
F 2 "" H 2400 1400 50  0000 C CNN
F 3 "" H 2400 1400 50  0000 C CNN
	1    2400 1400
	-1   0    0    1   
$EndComp
$Comp
L GND #PWR07
U 1 1 59FB0B01
P 2250 1300
F 0 "#PWR07" H 2250 1050 50  0001 C CNN
F 1 "GND" H 2250 1150 50  0000 C CNN
F 2 "" H 2250 1300 50  0000 C CNN
F 3 "" H 2250 1300 50  0000 C CNN
	1    2250 1300
	1    0    0    -1  
$EndComp
$Comp
L GND #PWR08
U 1 1 59FB0B3D
P 2850 1400
F 0 "#PWR08" H 2850 1150 50  0001 C CNN
F 1 "GND" H 2850 1250 50  0000 C CNN
F 2 "" H 2850 1400 50  0000 C CNN
F 3 "" H 2850 1400 50  0000 C CNN
	1    2850 1400
	1    0    0    -1  
$EndComp
$Comp
L GND #PWR09
U 1 1 59FB0BDC
P 1550 1300
F 0 "#PWR09" H 1550 1050 50  0001 C CNN
F 1 "GND" H 1550 1150 50  0000 C CNN
F 2 "" H 1550 1300 50  0000 C CNN
F 3 "" H 1550 1300 50  0000 C CNN
	1    1550 1300
	0    1    1    0   
$EndComp
Text GLabel 2050 1600 3    60   Input ~ 0
MOSI
Text GLabel 2200 1600 3    60   Output ~ 0
MISO
Text GLabel 1900 1600 3    60   Input ~ 0
SS
Text GLabel 1600 1600 3    60   Input ~ 0
SCK
Text GLabel 1750 1600 3    60   Input ~ 0
D/C
Text GLabel 1450 1600 3    60   Input ~ 0
RESET
Text GLabel 4050 5100 2    60   Output ~ 0
MOSI
Text GLabel 4000 5700 2    60   Input ~ 0
MISO
Text GLabel 4400 5800 2    60   Output ~ 0
SCK
Text GLabel 4000 5900 2    60   Output ~ 0
SS
Text GLabel 4400 6000 2    60   Output ~ 0
D/C
Text GLabel 4000 6100 2    60   Output ~ 0
RESET
$Comp
L LED D3
U 1 1 59FB515D
P 4850 5500
F 0 "D3" H 4850 5600 50  0000 C CNN
F 1 "LED" H 4850 5400 50  0000 C CNN
F 2 "LEDs:LED_0805_HandSoldering" H 4850 5500 50  0001 C CNN
F 3 "" H 4850 5500 50  0000 C CNN
	1    4850 5500
	-1   0    0    1   
$EndComp
$Comp
L GND #PWR010
U 1 1 59FB5257
P 5000 5500
F 0 "#PWR010" H 5000 5250 50  0001 C CNN
F 1 "GND" H 5000 5350 50  0000 C CNN
F 2 "" H 5000 5500 50  0000 C CNN
F 3 "" H 5000 5500 50  0000 C CNN
	1    5000 5500
	1    0    0    -1  
$EndComp
Text Notes 5100 5550 0    60   Italic 0
P2P detected
Text GLabel 4300 5300 2    60   Output Italic 0
ESP_TX
Text GLabel 3850 5400 2    60   Input Italic 0
ESP_RX
$Comp
L +3.3V #PWR011
U 1 1 59FBF71F
P 3500 3450
F 0 "#PWR011" H 3500 3300 50  0001 C CNN
F 1 "+3.3V" H 3500 3590 50  0000 C CNN
F 2 "" H 3500 3450 50  0000 C CNN
F 3 "" H 3500 3450 50  0000 C CNN
	1    3500 3450
	1    0    0    -1  
$EndComp
$Comp
L GND #PWR012
U 1 1 59FBF781
P 3700 3350
F 0 "#PWR012" H 3700 3100 50  0001 C CNN
F 1 "GND" H 3700 3200 50  0000 C CNN
F 2 "" H 3700 3350 50  0000 C CNN
F 3 "" H 3700 3350 50  0000 C CNN
	1    3700 3350
	-1   0    0    1   
$EndComp
Text GLabel 3700 3550 0    60   Input Italic 0
ESP_TX
Text GLabel 3300 3650 0    60   Output Italic 0
ESP_RX
$Comp
L SW_Push SW2
U 1 1 59FBFDB7
P 1200 5150
F 0 "SW2" H 1250 5250 50  0000 L CNN
F 1 "SW_Push" H 1200 5090 50  0000 C CNN
F 2 "Buttons_Switches_THT:SW_PUSH_6mm" H 1200 5350 50  0001 C CNN
F 3 "" H 1200 5350 50  0000 C CNN
	1    1200 5150
	-1   0    0    1   
$EndComp
$Comp
L GND #PWR013
U 1 1 59FC024E
P 1000 5150
F 0 "#PWR013" H 1000 4900 50  0001 C CNN
F 1 "GND" H 1000 5000 50  0000 C CNN
F 2 "" H 1000 5150 50  0000 C CNN
F 3 "" H 1000 5150 50  0000 C CNN
	1    1000 5150
	0    1    1    0   
$EndComp
$Comp
L R R3
U 1 1 59FC0302
P 1600 5000
F 0 "R3" V 1680 5000 50  0000 C CNN
F 1 "10k" V 1600 5000 50  0000 C CNN
F 2 "Resistors_SMD:R_1206_HandSoldering" V 1530 5000 50  0001 C CNN
F 3 "" H 1600 5000 50  0000 C CNN
	1    1600 5000
	1    0    0    -1  
$EndComp
$Comp
L SW_Push SW3
U 1 1 59FC09E0
P 4050 7100
F 0 "SW3" H 4100 7200 50  0000 L CNN
F 1 "SW_Push" H 4050 7040 50  0000 C CNN
F 2 "Buttons_Switches_THT:SW_PUSH_6mm" H 4050 7300 50  0001 C CNN
F 3 "" H 4050 7300 50  0000 C CNN
	1    4050 7100
	0    1    1    0   
$EndComp
$Comp
L GND #PWR014
U 1 1 59FC0A7B
P 4050 7300
F 0 "#PWR014" H 4050 7050 50  0001 C CNN
F 1 "GND" H 4050 7150 50  0000 C CNN
F 2 "" H 4050 7300 50  0000 C CNN
F 3 "" H 4050 7300 50  0000 C CNN
	1    4050 7300
	1    0    0    -1  
$EndComp
$Comp
L +3.3V #PWR015
U 1 1 59FC0DDC
P 1600 4850
F 0 "#PWR015" H 1600 4700 50  0001 C CNN
F 1 "+3.3V" H 1600 4990 50  0000 C CNN
F 2 "" H 1600 4850 50  0000 C CNN
F 3 "" H 1600 4850 50  0000 C CNN
	1    1600 4850
	1    0    0    -1  
$EndComp
$Comp
L CONN_01X04 P3
U 1 1 59FC11F1
P 3900 3500
F 0 "P3" H 3900 3750 50  0000 C CNN
F 1 "CONN_01X04" V 4000 3500 50  0000 C CNN
F 2 "Pin_Headers:Pin_Header_Straight_1x04_Pitch2.54mm" H 3900 3500 50  0001 C CNN
F 3 "" H 3900 3500 50  0000 C CNN
	1    3900 3500
	1    0    0    -1  
$EndComp
$Comp
L SW_Push SW5
U 1 1 5A2D62E3
P 7550 2300
F 0 "SW5" H 7600 2400 50  0000 L CNN
F 1 "SW_Push" H 7550 2240 50  0000 C CNN
F 2 "Buttons_Switches_THT:SW_PUSH_6mm" H 7550 2500 50  0001 C CNN
F 3 "" H 7550 2500 50  0000 C CNN
	1    7550 2300
	1    0    0    -1  
$EndComp
$Comp
L 74HC165 U6
U 1 1 5A2D6D71
P 5600 2450
F 0 "U6" H 5550 2650 50  0000 L BNN
F 1 "74HC165" H 5450 3200 50  0000 L BNN
F 2 "SMD_Packages:SO-16-L" H 5600 2450 60  0001 C CNN
F 3 "74HC165" H 5600 2450 50  0001 L BNN
F 4 "Unavailable" H 5600 2450 50  0001 L BNN "Availability"
F 5 "VFQFN-16 STMicroelectronics" H 5600 2450 50  0001 L BNN "Package"
F 6 "" H 5600 2450 50  0001 L BNN "Description"
F 7 "None" H 5600 2450 50  0001 L BNN "Price"
F 8 "STMicroelectronics" H 5600 2450 50  0001 L BNN "MF"
	1    5600 2450
	1    0    0    -1  
$EndComp
$Comp
L R R11
U 1 1 5A2D7786
P 7350 2150
F 0 "R11" V 7430 2150 50  0000 C CNN
F 1 "1K" V 7350 2150 50  0000 C CNN
F 2 "Resistors_SMD:R_1206_HandSoldering" V 7280 2150 50  0001 C CNN
F 3 "" H 7350 2150 50  0000 C CNN
	1    7350 2150
	-1   0    0    1   
$EndComp
$Comp
L +3.3V #PWR016
U 1 1 5A2D7F60
P 5200 1850
F 0 "#PWR016" H 5200 1700 50  0001 C CNN
F 1 "+3.3V" H 5200 1990 50  0000 C CNN
F 2 "" H 5200 1850 50  0000 C CNN
F 3 "" H 5200 1850 50  0000 C CNN
	1    5200 1850
	1    0    0    -1  
$EndComp
$Comp
L GND #PWR017
U 1 1 5A2D7FD2
P 5200 2650
F 0 "#PWR017" H 5200 2400 50  0001 C CNN
F 1 "GND" H 5200 2500 50  0000 C CNN
F 2 "" H 5200 2650 50  0000 C CNN
F 3 "" H 5200 2650 50  0000 C CNN
	1    5200 2650
	1    0    0    -1  
$EndComp
Text GLabel 5200 2150 0    60   Output ~ 0
DATA_165
NoConn ~ 5200 2250
Text GLabel 5200 2450 0    60   Input ~ 0
CLOCK_165
Text GLabel 5900 3000 0    60   Input ~ 0
LATCH_165
$Comp
L GND #PWR018
U 1 1 5A2D846C
P 5200 2600
F 0 "#PWR018" H 5200 2350 50  0001 C CNN
F 1 "GND" H 5200 2450 50  0000 C CNN
F 2 "" H 5200 2600 50  0000 C CNN
F 3 "" H 5200 2600 50  0000 C CNN
	1    5200 2600
	0    1    1    0   
$EndComp
NoConn ~ 5200 1950
$Comp
L CONN_01X02 P2
U 1 1 5A2DBE9A
P 1300 3450
F 0 "P2" H 1300 3600 50  0000 C CNN
F 1 "CONN_01X02" V 1400 3450 50  0000 C CNN
F 2 "Pin_Headers:Pin_Header_Straight_1x02_Pitch2.54mm" H 1300 3450 50  0001 C CNN
F 3 "" H 1300 3450 50  0000 C CNN
	1    1300 3450
	0    -1   -1   0   
$EndComp
$Comp
L GND #PWR019
U 1 1 5A2DC07F
P 1350 3650
F 0 "#PWR019" H 1350 3400 50  0001 C CNN
F 1 "GND" H 1350 3500 50  0000 C CNN
F 2 "" H 1350 3650 50  0000 C CNN
F 3 "" H 1350 3650 50  0000 C CNN
	1    1350 3650
	0    -1   -1   0   
$EndComp
$Comp
L +3.3V #PWR020
U 1 1 5A2DC848
P 1250 3650
F 0 "#PWR020" H 1250 3500 50  0001 C CNN
F 1 "+3.3V" H 1250 3790 50  0000 C CNN
F 2 "" H 1250 3650 50  0000 C CNN
F 3 "" H 1250 3650 50  0000 C CNN
	1    1250 3650
	-1   0    0    1   
$EndComp
Text GLabel 1250 5650 0    60   Output ~ 0
CLOCK_165
Text GLabel 1850 5550 0    60   Output ~ 0
LATCH_165
Text GLabel 1250 5450 0    60   Input ~ 0
DATA_165
$Comp
L R R2
U 1 1 5A2DFE38
P 3900 6750
F 0 "R2" V 3980 6750 50  0000 C CNN
F 1 "1k" V 3900 6750 50  0000 C CNN
F 2 "Resistors_SMD:R_1206_HandSoldering" V 3830 6750 50  0001 C CNN
F 3 "" H 3900 6750 50  0000 C CNN
	1    3900 6750
	0    1    1    0   
$EndComp
$Comp
L +3.3V #PWR021
U 1 1 5A2DFF91
P 3750 6750
F 0 "#PWR021" H 3750 6600 50  0001 C CNN
F 1 "+3.3V" H 3750 6890 50  0000 C CNN
F 2 "" H 3750 6750 50  0000 C CNN
F 3 "" H 3750 6750 50  0000 C CNN
	1    3750 6750
	0    -1   -1   0   
$EndComp
$Comp
L LED D2
U 1 1 5A2D8EE2
P 1750 6550
F 0 "D2" H 1750 6650 50  0000 C CNN
F 1 "LED" H 1750 6450 50  0000 C CNN
F 2 "LEDs:LED_0805_HandSoldering" H 1750 6550 50  0001 C CNN
F 3 "" H 1750 6550 50  0000 C CNN
	1    1750 6550
	1    0    0    -1  
$EndComp
$Comp
L LED D1
U 1 1 5A2D8F51
P 1750 6250
F 0 "D1" H 1750 6350 50  0000 C CNN
F 1 "LED" H 1750 6150 50  0000 C CNN
F 2 "LEDs:LED_0805_HandSoldering" H 1750 6250 50  0001 C CNN
F 3 "" H 1750 6250 50  0000 C CNN
	1    1750 6250
	1    0    0    -1  
$EndComp
$Comp
L GND #PWR022
U 1 1 5A2D90AA
P 1550 6550
F 0 "#PWR022" H 1550 6300 50  0001 C CNN
F 1 "GND" H 1550 6400 50  0000 C CNN
F 2 "" H 1550 6550 50  0000 C CNN
F 3 "" H 1550 6550 50  0000 C CNN
	1    1550 6550
	0    1    1    0   
$EndComp
$Comp
L GND #PWR023
U 1 1 5A2D9172
P 1550 6250
F 0 "#PWR023" H 1550 6000 50  0001 C CNN
F 1 "GND" H 1550 6100 50  0000 C CNN
F 2 "" H 1550 6250 50  0000 C CNN
F 3 "" H 1550 6250 50  0000 C CNN
	1    1550 6250
	0    1    1    0   
$EndComp
$Comp
L CONN_01X09 P1
U 1 1 5A358AFA
P 2200 2500
F 0 "P1" H 2200 3000 50  0000 C CNN
F 1 "CONN_01X09" V 2300 2500 50  0000 C CNN
F 2 "Pin_Headers:Pin_Header_Angled_1x09_Pitch2.54mm" H 2200 2500 50  0001 C CNN
F 3 "" H 2200 2500 50  0000 C CNN
	1    2200 2500
	0    -1   1    0   
$EndComp
$Comp
L GND #PWR024
U 1 1 5A35A453
P 7350 2000
F 0 "#PWR024" H 7350 1750 50  0001 C CNN
F 1 "GND" H 7350 1850 50  0000 C CNN
F 2 "" H 7350 2000 50  0000 C CNN
F 3 "" H 7350 2000 50  0000 C CNN
	1    7350 2000
	-1   0    0    1   
$EndComp
$Comp
L SW_Push SW4
U 1 1 5A35A886
P 8250 2300
F 0 "SW4" H 8300 2400 50  0000 L CNN
F 1 "SW_Push" H 8250 2240 50  0000 C CNN
F 2 "Buttons_Switches_THT:SW_PUSH_6mm" H 8250 2500 50  0001 C CNN
F 3 "" H 8250 2500 50  0000 C CNN
	1    8250 2300
	1    0    0    -1  
$EndComp
$Comp
L R R4
U 1 1 5A35A88C
P 8050 2150
F 0 "R4" V 8130 2150 50  0000 C CNN
F 1 "1K" V 8050 2150 50  0000 C CNN
F 2 "Resistors_SMD:R_1206_HandSoldering" V 7980 2150 50  0001 C CNN
F 3 "" H 8050 2150 50  0000 C CNN
	1    8050 2150
	-1   0    0    1   
$EndComp
$Comp
L GND #PWR025
U 1 1 5A35A892
P 8050 2000
F 0 "#PWR025" H 8050 1750 50  0001 C CNN
F 1 "GND" H 8050 1850 50  0000 C CNN
F 2 "" H 8050 2000 50  0000 C CNN
F 3 "" H 8050 2000 50  0000 C CNN
	1    8050 2000
	-1   0    0    1   
$EndComp
$Comp
L SW_Push SW7
U 1 1 5A35A900
P 8850 2300
F 0 "SW7" H 8900 2400 50  0000 L CNN
F 1 "SW_Push" H 8850 2240 50  0000 C CNN
F 2 "Buttons_Switches_THT:SW_PUSH_6mm" H 8850 2500 50  0001 C CNN
F 3 "" H 8850 2500 50  0000 C CNN
	1    8850 2300
	1    0    0    -1  
$EndComp
$Comp
L R R6
U 1 1 5A35A906
P 8650 2150
F 0 "R6" V 8730 2150 50  0000 C CNN
F 1 "1K" V 8650 2150 50  0000 C CNN
F 2 "Resistors_SMD:R_1206_HandSoldering" V 8580 2150 50  0001 C CNN
F 3 "" H 8650 2150 50  0000 C CNN
	1    8650 2150
	-1   0    0    1   
$EndComp
$Comp
L GND #PWR026
U 1 1 5A35A90C
P 8650 2000
F 0 "#PWR026" H 8650 1750 50  0001 C CNN
F 1 "GND" H 8650 1850 50  0000 C CNN
F 2 "" H 8650 2000 50  0000 C CNN
F 3 "" H 8650 2000 50  0000 C CNN
	1    8650 2000
	-1   0    0    1   
$EndComp
$Comp
L SW_Push SW9
U 1 1 5A35AA3B
P 9500 2300
F 0 "SW9" H 9550 2400 50  0000 L CNN
F 1 "SW_Push" H 9500 2240 50  0000 C CNN
F 2 "Buttons_Switches_THT:SW_PUSH_6mm" H 9500 2500 50  0001 C CNN
F 3 "" H 9500 2500 50  0000 C CNN
	1    9500 2300
	1    0    0    -1  
$EndComp
$Comp
L R R8
U 1 1 5A35AA41
P 9300 2150
F 0 "R8" V 9380 2150 50  0000 C CNN
F 1 "1K" V 9300 2150 50  0000 C CNN
F 2 "Resistors_SMD:R_1206_HandSoldering" V 9230 2150 50  0001 C CNN
F 3 "" H 9300 2150 50  0000 C CNN
	1    9300 2150
	-1   0    0    1   
$EndComp
$Comp
L GND #PWR027
U 1 1 5A35AA47
P 9300 2000
F 0 "#PWR027" H 9300 1750 50  0001 C CNN
F 1 "GND" H 9300 1850 50  0000 C CNN
F 2 "" H 9300 2000 50  0000 C CNN
F 3 "" H 9300 2000 50  0000 C CNN
	1    9300 2000
	-1   0    0    1   
$EndComp
$Comp
L SW_Push SW1
U 1 1 5A35AAEB
P 7750 3100
F 0 "SW1" H 7800 3200 50  0000 L CNN
F 1 "SW_Push" H 7750 3040 50  0000 C CNN
F 2 "Buttons_Switches_THT:SW_PUSH_6mm" H 7750 3300 50  0001 C CNN
F 3 "" H 7750 3300 50  0000 C CNN
	1    7750 3100
	1    0    0    -1  
$EndComp
$Comp
L R R1
U 1 1 5A35AAF1
P 7550 2950
F 0 "R1" V 7630 2950 50  0000 C CNN
F 1 "1K" V 7550 2950 50  0000 C CNN
F 2 "Resistors_SMD:R_1206_HandSoldering" V 7480 2950 50  0001 C CNN
F 3 "" H 7550 2950 50  0000 C CNN
	1    7550 2950
	-1   0    0    1   
$EndComp
$Comp
L GND #PWR028
U 1 1 5A35AAF7
P 7550 2800
F 0 "#PWR028" H 7550 2550 50  0001 C CNN
F 1 "GND" H 7550 2650 50  0000 C CNN
F 2 "" H 7550 2800 50  0000 C CNN
F 3 "" H 7550 2800 50  0000 C CNN
	1    7550 2800
	-1   0    0    1   
$EndComp
$Comp
L SW_Push SW6
U 1 1 5A35AAFD
P 8450 3200
F 0 "SW6" H 8500 3300 50  0000 L CNN
F 1 "SW_Push" H 8450 3140 50  0000 C CNN
F 2 "Buttons_Switches_THT:SW_PUSH_6mm" H 8450 3400 50  0001 C CNN
F 3 "" H 8450 3400 50  0000 C CNN
	1    8450 3200
	1    0    0    -1  
$EndComp
$Comp
L R R5
U 1 1 5A35AB03
P 8250 3050
F 0 "R5" V 8330 3050 50  0000 C CNN
F 1 "1K" V 8250 3050 50  0000 C CNN
F 2 "Resistors_SMD:R_1206_HandSoldering" V 8180 3050 50  0001 C CNN
F 3 "" H 8250 3050 50  0000 C CNN
	1    8250 3050
	-1   0    0    1   
$EndComp
$Comp
L GND #PWR029
U 1 1 5A35AB09
P 8250 2900
F 0 "#PWR029" H 8250 2650 50  0001 C CNN
F 1 "GND" H 8250 2750 50  0000 C CNN
F 2 "" H 8250 2900 50  0000 C CNN
F 3 "" H 8250 2900 50  0000 C CNN
	1    8250 2900
	-1   0    0    1   
$EndComp
$Comp
L SW_Push SW8
U 1 1 5A35AB0F
P 9150 3250
F 0 "SW8" H 9200 3350 50  0000 L CNN
F 1 "SW_Push" H 9150 3190 50  0000 C CNN
F 2 "Buttons_Switches_THT:SW_PUSH_6mm" H 9150 3450 50  0001 C CNN
F 3 "" H 9150 3450 50  0000 C CNN
	1    9150 3250
	1    0    0    -1  
$EndComp
$Comp
L R R7
U 1 1 5A35AB15
P 8950 3100
F 0 "R7" V 9030 3100 50  0000 C CNN
F 1 "1K" V 8950 3100 50  0000 C CNN
F 2 "Resistors_SMD:R_1206_HandSoldering" V 8880 3100 50  0001 C CNN
F 3 "" H 8950 3100 50  0000 C CNN
	1    8950 3100
	-1   0    0    1   
$EndComp
$Comp
L GND #PWR030
U 1 1 5A35AB1B
P 8950 2950
F 0 "#PWR030" H 8950 2700 50  0001 C CNN
F 1 "GND" H 8950 2800 50  0000 C CNN
F 2 "" H 8950 2950 50  0000 C CNN
F 3 "" H 8950 2950 50  0000 C CNN
	1    8950 2950
	-1   0    0    1   
$EndComp
$Comp
L SW_Push SW10
U 1 1 5A35AB21
P 9850 3350
F 0 "SW10" H 9900 3450 50  0000 L CNN
F 1 "SW_Push" H 9850 3290 50  0000 C CNN
F 2 "Buttons_Switches_THT:SW_PUSH_6mm" H 9850 3550 50  0001 C CNN
F 3 "" H 9850 3550 50  0000 C CNN
	1    9850 3350
	1    0    0    -1  
$EndComp
$Comp
L R R9
U 1 1 5A35AB27
P 9650 3200
F 0 "R9" V 9730 3200 50  0000 C CNN
F 1 "1K" V 9650 3200 50  0000 C CNN
F 2 "Resistors_SMD:R_1206_HandSoldering" V 9580 3200 50  0001 C CNN
F 3 "" H 9650 3200 50  0000 C CNN
	1    9650 3200
	-1   0    0    1   
$EndComp
$Comp
L GND #PWR031
U 1 1 5A35AB2D
P 9650 3050
F 0 "#PWR031" H 9650 2800 50  0001 C CNN
F 1 "GND" H 9650 2900 50  0000 C CNN
F 2 "" H 9650 3050 50  0000 C CNN
F 3 "" H 9650 3050 50  0000 C CNN
	1    9650 3050
	-1   0    0    1   
$EndComp
$Comp
L +3.3V #PWR032
U 1 1 5A35BBA5
P 10150 2550
F 0 "#PWR032" H 10150 2400 50  0001 C CNN
F 1 "+3.3V" H 10150 2690 50  0000 C CNN
F 2 "" H 10150 2550 50  0000 C CNN
F 3 "" H 10150 2550 50  0000 C CNN
	1    10150 2550
	0    1    1    0   
$EndComp
NoConn ~ 2000 5350
NoConn ~ 2000 5250
NoConn ~ 3850 5200
NoConn ~ 3850 6200
NoConn ~ 2600 6700
NoConn ~ 2700 6700
NoConn ~ 2800 6700
NoConn ~ 2900 6700
NoConn ~ 3000 6700
NoConn ~ 3100 6700
NoConn ~ 3200 6700
NoConn ~ 3300 6700
NoConn ~ 3400 6700
$Comp
L USB_OTG P4
U 1 1 5A4EA3BC
P 12200 5400
F 0 "P4" H 12525 5275 50  0000 C CNN
F 1 "USB_OTG" H 12200 5600 50  0000 C CNN
F 2 "Connectors:USB_Micro-B" V 12150 5300 50  0001 C CNN
F 3 "" V 12150 5300 50  0000 C CNN
	1    12200 5400
	1    0    0    -1  
$EndComp
Text Label 12400 5850 0    60   ~ 0
-BATT
$Comp
L +5V #PWR033
U 1 1 5A4EA646
P 12000 5850
F 0 "#PWR033" H 12000 5700 50  0001 C CNN
F 1 "+5V" H 12000 5990 50  0000 C CNN
F 2 "" H 12000 5850 50  0000 C CNN
F 3 "" H 12000 5850 50  0000 C CNN
	1    12000 5850
	-1   0    0    1   
$EndComp
$Comp
L C C3
U 1 1 5A4EA85F
P 12200 5800
F 0 "C3" H 12225 5900 50  0000 L CNN
F 1 "C" H 12225 5700 50  0000 L CNN
F 2 "Capacitors_SMD:C_0603_HandSoldering" H 12238 5650 50  0001 C CNN
F 3 "" H 12200 5800 50  0000 C CNN
	1    12200 5800
	0    1    1    0   
$EndComp
Text Label 12600 5300 0    60   ~ 0
-BATT
NoConn ~ 12100 5700
NoConn ~ 12200 5700
NoConn ~ 12300 5700
$Comp
L TP4056 U5
U 1 1 5A4EAB71
P 13900 6200
F 0 "U5" H 13850 5900 60  0000 C CNN
F 1 "TP4056" H 13850 6500 60  0000 C CNN
F 2 "Housings_SOIC:SOIC-8_3.9x4.9mm_Pitch1.27mm" H 13850 6500 60  0001 C CNN
F 3 "" H 13850 6500 60  0001 C CNN
	1    13900 6200
	1    0    0    -1  
$EndComp
Text Label 13300 5950 2    60   ~ 0
-BATT
Text Label 12900 6200 2    60   ~ 0
-BATT
$Comp
L R R12
U 1 1 5A4EAD28
P 13150 6100
F 0 "R12" V 13230 6100 50  0000 C CNN
F 1 "1333" V 13150 6100 50  0000 C CNN
F 2 "Resistors_SMD:R_1206_HandSoldering" V 13080 6100 50  0001 C CNN
F 3 "" H 13150 6100 50  0000 C CNN
	1    13150 6100
	0    1    1    0   
$EndComp
$Comp
L +5V #PWR034
U 1 1 5A4EB3C4
P 13300 6350
F 0 "#PWR034" H 13300 6200 50  0001 C CNN
F 1 "+5V" H 13300 6490 50  0000 C CNN
F 2 "" H 13300 6350 50  0000 C CNN
F 3 "" H 13300 6350 50  0000 C CNN
	1    13300 6350
	-1   0    0    1   
$EndComp
$Comp
L +5V #PWR035
U 1 1 5A4EB41A
P 14350 6050
F 0 "#PWR035" H 14350 5900 50  0001 C CNN
F 1 "+5V" H 14350 6190 50  0000 C CNN
F 2 "" H 14350 6050 50  0000 C CNN
F 3 "" H 14350 6050 50  0000 C CNN
	1    14350 6050
	1    0    0    -1  
$EndComp
$Comp
L LED D4
U 1 1 5A4EB4EB
P 14650 6050
F 0 "D4" H 14650 6150 50  0000 C CNN
F 1 "LED" H 14650 5950 50  0000 C CNN
F 2 "LEDs:LED_0805_HandSoldering" H 14650 6050 50  0001 C CNN
F 3 "" H 14650 6050 50  0000 C CNN
	1    14650 6050
	1    0    0    -1  
$EndComp
$Comp
L LED D5
U 1 1 5A4EB54C
P 14650 6350
F 0 "D5" H 14650 6450 50  0000 C CNN
F 1 "LED" H 14650 6250 50  0000 C CNN
F 2 "LEDs:LED_0805_HandSoldering" H 14650 6350 50  0001 C CNN
F 3 "" H 14650 6350 50  0000 C CNN
	1    14650 6350
	1    0    0    -1  
$EndComp
$Comp
L R R14
U 1 1 5A4EB5AD
P 14950 6050
F 0 "R14" V 15030 6050 50  0000 C CNN
F 1 "220" V 14950 6050 50  0000 C CNN
F 2 "Resistors_SMD:R_1206_HandSoldering" V 14880 6050 50  0001 C CNN
F 3 "" H 14950 6050 50  0000 C CNN
	1    14950 6050
	0    1    1    0   
$EndComp
$Comp
L R R15
U 1 1 5A4EB612
P 14950 6350
F 0 "R15" V 15030 6350 50  0000 C CNN
F 1 "220" V 14950 6350 50  0000 C CNN
F 2 "Resistors_SMD:R_1206_HandSoldering" V 14880 6350 50  0001 C CNN
F 3 "" H 14950 6350 50  0000 C CNN
	1    14950 6350
	0    1    1    0   
$EndComp
$Comp
L +BATT #PWR036
U 1 1 5A4EB675
P 14350 6350
F 0 "#PWR036" H 14350 6200 50  0001 C CNN
F 1 "+BATT" H 14350 6490 50  0000 C CNN
F 2 "" H 14350 6350 50  0000 C CNN
F 3 "" H 14350 6350 50  0000 C CNN
	1    14350 6350
	-1   0    0    1   
$EndComp
$Comp
L +5V #PWR037
U 1 1 5A4EB93C
P 15200 6200
F 0 "#PWR037" H 15200 6050 50  0001 C CNN
F 1 "+5V" H 15200 6340 50  0000 C CNN
F 2 "" H 15200 6200 50  0000 C CNN
F 3 "" H 15200 6200 50  0000 C CNN
	1    15200 6200
	0    1    1    0   
$EndComp
Text Notes 12100 6450 0    60   ~ 0
Circuit de charge
$Comp
L TPS73633DBV U1
U 1 1 5A4EBECE
P 10400 6250
F 0 "U1" H 10400 6450 60  0000 C CNN
F 1 "TPS73633DBV" H 10500 6000 60  0000 C CNN
F 2 "TO_SOT_Packages_SMD:SOT-23-5_HandSoldering" H 10400 6250 60  0001 C CNN
F 3 "" H 10400 6250 60  0001 C CNN
	1    10400 6250
	1    0    0    -1  
$EndComp
$Comp
L GND #PWR038
U 1 1 5A4EC0A1
P 10000 6200
F 0 "#PWR038" H 10000 5950 50  0001 C CNN
F 1 "GND" H 10000 6050 50  0000 C CNN
F 2 "" H 10000 6200 50  0000 C CNN
F 3 "" H 10000 6200 50  0000 C CNN
	1    10000 6200
	0    1    1    0   
$EndComp
$Comp
L +BATT #PWR039
U 1 1 5A4EC101
P 9200 6200
F 0 "#PWR039" H 9200 6050 50  0001 C CNN
F 1 "+BATT" H 9200 6340 50  0000 C CNN
F 2 "" H 9200 6200 50  0000 C CNN
F 3 "" H 9200 6200 50  0000 C CNN
	1    9200 6200
	0    -1   -1   0   
$EndComp
$Comp
L SW_SPST SW11
U 1 1 5A4EC271
P 9400 6200
F 0 "SW11" H 9400 6325 50  0000 C CNN
F 1 "SW_SPST" H 9400 6100 50  0000 C CNN
F 2 "Buttons_Switches_SMD:SW_SPDT_PCM12" H 9400 6200 50  0001 C CNN
F 3 "" H 9400 6200 50  0000 C CNN
	1    9400 6200
	1    0    0    -1  
$EndComp
$Comp
L C C2
U 1 1 5A4EC4B0
P 10950 6400
F 0 "C2" H 10975 6500 50  0000 L CNN
F 1 "C" H 10975 6300 50  0000 L CNN
F 2 "Capacitors_SMD:C_0603_HandSoldering" H 10988 6250 50  0001 C CNN
F 3 "" H 10950 6400 50  0000 C CNN
	1    10950 6400
	1    0    0    -1  
$EndComp
$Comp
L C C1
U 1 1 5A4EC52F
P 10800 5850
F 0 "C1" H 10825 5950 50  0000 L CNN
F 1 "C" H 10825 5750 50  0000 L CNN
F 2 "Capacitors_SMD:C_0603_HandSoldering" H 10838 5700 50  0001 C CNN
F 3 "" H 10800 5850 50  0000 C CNN
	1    10800 5850
	0    -1   -1   0   
$EndComp
$Comp
L GND #PWR040
U 1 1 5A4EC5A2
P 10650 5850
F 0 "#PWR040" H 10650 5600 50  0001 C CNN
F 1 "GND" H 10650 5700 50  0000 C CNN
F 2 "" H 10650 5850 50  0000 C CNN
F 3 "" H 10650 5850 50  0000 C CNN
	1    10650 5850
	0    1    1    0   
$EndComp
$Comp
L GND #PWR041
U 1 1 5A4EC608
P 10950 6550
F 0 "#PWR041" H 10950 6300 50  0001 C CNN
F 1 "GND" H 10950 6400 50  0000 C CNN
F 2 "" H 10950 6550 50  0000 C CNN
F 3 "" H 10950 6550 50  0000 C CNN
	1    10950 6550
	1    0    0    -1  
$EndComp
$Comp
L +3.3V #PWR042
U 1 1 5A4EC66E
P 10950 5650
F 0 "#PWR042" H 10950 5500 50  0001 C CNN
F 1 "+3.3V" H 10950 5790 50  0000 C CNN
F 2 "" H 10950 5650 50  0000 C CNN
F 3 "" H 10950 5650 50  0000 C CNN
	1    10950 5650
	1    0    0    -1  
$EndComp
Text Notes 9950 6750 0    60   ~ 0
UBatt -> 3.3V
$Comp
L Battery_Cell BT1
U 1 1 5A4EC9D0
P 14500 5150
F 0 "BT1" H 14600 5250 50  0000 L CNN
F 1 "Battery_Cell" H 14600 5150 50  0000 L CNN
F 2 "Capacitors_SMD:C_2225_HandSoldering" V 14500 5210 50  0001 C CNN
F 3 "" V 14500 5210 50  0000 C CNN
	1    14500 5150
	0    1    1    0   
$EndComp
$Comp
L +BATT #PWR043
U 1 1 5A4ECB77
P 14700 5150
F 0 "#PWR043" H 14700 5000 50  0001 C CNN
F 1 "+BATT" H 14700 5290 50  0000 C CNN
F 2 "" H 14700 5150 50  0000 C CNN
F 3 "" H 14700 5150 50  0000 C CNN
	1    14700 5150
	1    0    0    -1  
$EndComp
Text Label 14400 5150 2    60   ~ 0
-BATT
$Comp
L 8205 U2
U 1 1 5A4ECD30
P 11800 8100
F 0 "U2" H 11800 8100 60  0000 C CNN
F 1 "8205" H 11800 8400 60  0000 C CNN
F 2 "Housings_SSOP:TSSOP-8_4.4x3mm_Pitch0.65mm" H 11800 8100 60  0001 C CNN
F 3 "" H 11800 8100 60  0001 C CNN
	1    11800 8100
	1    0    0    -1  
$EndComp
Text Label 11200 8100 2    60   ~ 0
-BATT
$Comp
L GND #PWR044
U 1 1 5A4ED38F
P 12400 7900
F 0 "#PWR044" H 12400 7650 50  0001 C CNN
F 1 "GND" H 12400 7750 50  0000 C CNN
F 2 "" H 12400 7900 50  0000 C CNN
F 3 "" H 12400 7900 50  0000 C CNN
	1    12400 7900
	-1   0    0    1   
$EndComp
$Comp
L dw01 U4
U 1 1 5A4ED3F9
P 13350 8200
F 0 "U4" H 13350 8450 60  0000 C CNN
F 1 "dw01" H 13350 8050 60  0000 C CNN
F 2 "TO_SOT_Packages_SMD:SOT-23-6_Handsoldering" H 13350 8200 60  0001 C CNN
F 3 "" H 13350 8200 60  0001 C CNN
	1    13350 8200
	1    0    0    -1  
$EndComp
$Comp
L R R10
U 1 1 5A4ED553
P 12750 8150
F 0 "R10" V 12830 8150 50  0000 C CNN
F 1 "1k" V 12750 8150 50  0000 C CNN
F 2 "Resistors_SMD:R_1206_HandSoldering" V 12680 8150 50  0001 C CNN
F 3 "" H 12750 8150 50  0000 C CNN
	1    12750 8150
	0    -1   -1   0   
$EndComp
Text Label 13750 7800 2    60   ~ 0
-BATT
$Comp
L +BATT #PWR045
U 1 1 5A4ED97C
P 14500 8150
F 0 "#PWR045" H 14500 8000 50  0001 C CNN
F 1 "+BATT" H 14500 8290 50  0000 C CNN
F 2 "" H 14500 8150 50  0000 C CNN
F 3 "" H 14500 8150 50  0000 C CNN
	1    14500 8150
	0    1    1    0   
$EndComp
$Comp
L R R13
U 1 1 5A4EDA17
P 14350 8150
F 0 "R13" V 14430 8150 50  0000 C CNN
F 1 "100" V 14350 8150 50  0000 C CNN
F 2 "Resistors_SMD:R_1206_HandSoldering" V 14280 8150 50  0001 C CNN
F 3 "" H 14350 8150 50  0000 C CNN
	1    14350 8150
	0    1    1    0   
$EndComp
$Comp
L C C4
U 1 1 5A4EDA90
P 14050 8000
F 0 "C4" H 14075 8100 50  0000 L CNN
F 1 "C" H 14075 7900 50  0000 L CNN
F 2 "Capacitors_SMD:C_0603_HandSoldering" H 14088 7850 50  0001 C CNN
F 3 "" H 14050 8000 50  0000 C CNN
	1    14050 8000
	1    0    0    -1  
$EndComp
NoConn ~ 13750 8250
Text Notes 13000 8600 0    60   ~ 0
Circuit de protection
Text Notes 600  4000 0    60   ~ 0
Pour éviter de passer par le circuit de\n puissance ou pour le tester
Text Notes 3100 3900 0    60   ~ 0
Pour flasher l'esp
Text Notes 1500 2950 0    60   ~ 0
Permet de tester l'écran seul
Text Notes 7000 3900 0    60   ~ 0
Boutons poussoirs d'action et de direction
Text Notes 1500 6800 0    60   ~ 0
Leds de test
$Comp
L CONN_01X04 P5
U 1 1 5A4FA2D9
P 800 6050
F 0 "P5" H 800 6300 50  0000 C CNN
F 1 "CONN_01X04" V 900 6050 50  0000 C CNN
F 2 "Pin_Headers:Pin_Header_Straight_1x04_Pitch2.54mm" H 800 6050 50  0001 C CNN
F 3 "" H 800 6050 50  0000 C CNN
	1    800  6050
	-1   0    0    -1  
$EndComp
Wire Wire Line
	2350 1300 2450 1300
Connection ~ 2400 1300
Wire Wire Line
	2550 1300 2850 1300
Wire Wire Line
	2850 1300 2850 1400
Wire Wire Line
	2150 1300 2150 1550
Wire Wire Line
	2150 1550 2200 1550
Wire Wire Line
	2200 1550 2200 2000
Wire Wire Line
	2050 1300 2050 1600
Wire Wire Line
	1950 1300 1950 2100
Wire Wire Line
	1950 1550 1900 1550
Wire Wire Line
	1900 1550 1900 1600
Wire Wire Line
	1850 1300 1850 1550
Wire Wire Line
	1850 1550 1750 1550
Wire Wire Line
	1750 1550 1750 2150
Wire Wire Line
	1750 1500 1750 1300
Wire Wire Line
	1550 1500 1750 1500
Wire Wire Line
	1600 1500 1600 1600
Wire Wire Line
	1650 1450 1650 1300
Wire Wire Line
	1200 1450 1650 1450
Wire Wire Line
	1450 1450 1450 1600
Wire Wire Line
	3850 6300 3850 6550
Wire Wire Line
	3850 5100 4050 5100
Wire Wire Line
	3850 5800 4400 5800
Wire Wire Line
	3850 6000 4400 6000
Wire Wire Line
	4000 5900 3850 5900
Wire Wire Line
	3850 6100 4000 6100
Wire Wire Line
	3850 5700 4000 5700
Wire Wire Line
	2000 5450 1250 5450
Wire Wire Line
	1850 5550 2000 5550
Wire Wire Line
	3850 5500 4700 5500
Wire Wire Line
	3850 5300 4300 5300
Wire Wire Line
	2000 5050 1950 5050
Wire Wire Line
	4050 6550 4050 6900
Wire Wire Line
	3850 6550 4050 6550
Connection ~ 3850 6350
Wire Wire Line
	3500 3450 3700 3450
Wire Wire Line
	3700 3650 3300 3650
Wire Wire Line
	5200 2600 5200 2550
Wire Wire Line
	5900 3000 6000 3000
Wire Wire Line
	6000 3000 6000 2650
Wire Wire Line
	1900 6400 2000 6400
Wire Wire Line
	2000 6400 2000 6250
Wire Wire Line
	1550 6250 1600 6250
Wire Wire Line
	1550 6550 1600 6550
Wire Wire Line
	900  2300 1800 2300
Wire Wire Line
	900  2300 900  1300
Wire Wire Line
	900  1300 1550 1300
Wire Wire Line
	1200 1450 1200 2250
Wire Wire Line
	1200 2250 1900 2250
Wire Wire Line
	1900 2250 1900 2300
Connection ~ 1450 1450
Wire Wire Line
	1550 1500 1550 2200
Wire Wire Line
	1550 2200 2000 2200
Wire Wire Line
	2000 2200 2000 2300
Connection ~ 1600 1500
Wire Wire Line
	1750 2150 2100 2150
Wire Wire Line
	2100 2150 2100 2300
Wire Wire Line
	1950 2100 2200 2100
Wire Wire Line
	2200 2100 2200 2300
Connection ~ 1950 1550
Wire Wire Line
	2050 1550 2050 2050
Wire Wire Line
	2050 2050 2300 2050
Wire Wire Line
	2300 2050 2300 2300
Connection ~ 2050 1550
Wire Wire Line
	2200 2000 2400 2000
Wire Wire Line
	2400 2000 2400 2300
Wire Wire Line
	2250 1350 2250 1950
Wire Wire Line
	2250 1950 2500 1950
Wire Wire Line
	2400 1900 2600 1900
Wire Wire Line
	2600 1900 2600 2300
Wire Wire Line
	2850 1350 3000 1350
Wire Wire Line
	3000 1350 3000 2750
Wire Wire Line
	3000 2750 1500 2750
Wire Wire Line
	1500 2750 1500 2300
Connection ~ 1500 2300
Connection ~ 2850 1350
Connection ~ 1750 1600
Connection ~ 2200 1600
Connection ~ 2250 1350
Connection ~ 1550 1300
Wire Wire Line
	7350 2300 7150 2300
Wire Wire Line
	7150 2300 7150 2150
Wire Wire Line
	7150 2150 6000 2150
Wire Wire Line
	7550 3100 7100 3000
Wire Wire Line
	7100 3000 7100 2250
Wire Wire Line
	7100 2250 6000 2250
Wire Wire Line
	6000 2350 7000 2350
Wire Wire Line
	7000 2350 7000 3250
Wire Wire Line
	7000 3250 8050 3250
Wire Wire Line
	8050 3250 8250 3200
Wire Wire Line
	8950 3250 8650 3350
Wire Wire Line
	8650 3350 6900 3350
Wire Wire Line
	6900 3350 6900 2450
Wire Wire Line
	6900 2450 6000 2450
Wire Wire Line
	6000 2550 6800 2550
Wire Wire Line
	6800 2550 6800 3450
Wire Wire Line
	6800 3450 9300 3450
Wire Wire Line
	9300 3450 9650 3350
Wire Wire Line
	8050 2300 7850 2300
Wire Wire Line
	7850 2300 7850 1700
Wire Wire Line
	7850 1700 7100 1700
Wire Wire Line
	7100 1700 7100 2050
Wire Wire Line
	7100 2050 6000 2050
Wire Wire Line
	9300 2300 9150 2300
Wire Wire Line
	9150 2300 9150 1500
Wire Wire Line
	9150 1500 6000 1500
Wire Wire Line
	6000 1500 6000 1850
Wire Wire Line
	6000 1950 7000 1950
Wire Wire Line
	7000 1950 7000 1600
Wire Wire Line
	7000 1600 8500 1600
Wire Wire Line
	8500 1600 8500 2300
Wire Wire Line
	8500 2300 8650 2300
Connection ~ 9650 3050
Wire Wire Line
	7750 2550 10150 2550
Wire Wire Line
	9700 2550 9700 2300
Wire Wire Line
	9050 2550 9050 2300
Connection ~ 9700 2550
Wire Wire Line
	8450 2550 8450 2300
Connection ~ 9050 2550
Wire Wire Line
	7750 2550 7750 2300
Connection ~ 8450 2550
Wire Wire Line
	8650 3200 8650 2550
Wire Wire Line
	8650 2550 8750 2550
Connection ~ 8750 2550
Wire Wire Line
	9350 3250 9400 3250
Wire Wire Line
	9400 3250 9400 2550
Connection ~ 9400 2550
Wire Wire Line
	10050 3350 10100 3350
Wire Wire Line
	10100 3350 10100 2550
Connection ~ 10100 2550
Wire Wire Line
	7950 3100 8000 3100
Wire Wire Line
	8000 3100 8000 2550
Connection ~ 8000 2550
Connection ~ 4050 6750
Connection ~ 1600 5150
Connection ~ 2650 1300
Connection ~ 2750 1300
Wire Wire Line
	2000 5650 1250 5650
Wire Wire Line
	1400 5150 2000 5150
Wire Wire Line
	1950 4950 2000 4950
Wire Wire Line
	2500 1950 2500 2300
Wire Wire Line
	2400 1600 2600 1600
Wire Wire Line
	2600 1600 2600 1350
Wire Wire Line
	2600 1350 2400 1350
Connection ~ 2400 1350
Connection ~ 2400 1600
Wire Wire Line
	2400 1300 2400 1400
Wire Wire Line
	2400 1900 2400 1600
Wire Wire Line
	12400 5700 12400 5850
Wire Wire Line
	12000 5700 12000 5850
Wire Wire Line
	12350 5800 12400 5800
Connection ~ 12400 5800
Wire Wire Line
	12000 5800 12050 5800
Connection ~ 12000 5800
Wire Wire Line
	13300 6250 12900 6250
Wire Wire Line
	12900 6250 12900 6200
Wire Wire Line
	12900 6200 13000 6200
Wire Wire Line
	13000 6200 13000 6100
Connection ~ 12900 6200
Wire Wire Line
	13300 5950 13300 6050
Wire Wire Line
	13300 6100 13300 6150
Wire Wire Line
	14350 6250 14500 6250
Wire Wire Line
	14500 6250 14500 6350
Wire Wire Line
	14350 6150 14450 6150
Wire Wire Line
	14450 6150 14450 6050
Wire Wire Line
	14450 6050 14500 6050
Wire Wire Line
	15100 6050 15200 6050
Wire Wire Line
	15200 6050 15200 6350
Wire Wire Line
	15200 6350 15100 6350
Connection ~ 15200 6200
Wire Wire Line
	10000 6100 9600 6100
Wire Wire Line
	9600 6100 9600 6300
Wire Wire Line
	9600 6300 10000 6300
Connection ~ 9600 6200
Wire Wire Line
	10950 5650 10950 6150
Connection ~ 10950 5850
Wire Wire Line
	11350 8050 11350 8150
Wire Wire Line
	11200 8100 11350 8100
Connection ~ 11350 8100
Wire Wire Line
	11350 7950 11350 7700
Wire Wire Line
	11350 7700 12250 7700
Wire Wire Line
	12250 7700 12250 7950
Wire Wire Line
	12250 8050 12250 8150
Wire Wire Line
	12250 8050 12400 8050
Wire Wire Line
	12400 8050 12400 7900
Wire Wire Line
	12250 8250 12950 8250
Wire Wire Line
	12900 8150 12950 8150
Wire Wire Line
	12250 8150 12600 8150
Connection ~ 12250 8150
Wire Wire Line
	12950 8050 12900 8050
Wire Wire Line
	12900 8050 12900 8400
Wire Wire Line
	12900 8400 11350 8400
Wire Wire Line
	11350 8400 11350 8250
Wire Wire Line
	13750 8150 14200 8150
Wire Wire Line
	13750 7800 13750 8050
Wire Wire Line
	13750 7850 14050 7850
Connection ~ 13750 7850
Wire Wire Line
	2000 5750 1000 5750
Wire Wire Line
	1000 5750 1000 5900
Wire Wire Line
	1000 6000 1050 6000
Wire Wire Line
	1050 6000 1050 5850
Wire Wire Line
	1050 5850 2000 5850
Wire Wire Line
	1000 6100 1100 6100
Wire Wire Line
	1100 6100 1100 5950
Wire Wire Line
	1100 5950 2000 5950
Wire Wire Line
	1000 6200 1150 6200
Wire Wire Line
	1150 6200 1150 6050
Wire Wire Line
	1150 6050 2000 6050
Wire Wire Line
	1900 6400 1900 6550
Wire Wire Line
	2000 6150 1900 6150
Wire Wire Line
	1900 6150 1900 6250
Text Notes 600  6400 0    60   ~ 0
4 I/O pour test
Connection ~ 2500 2300
$EndSCHEMATC
