PCBNEW-LibModule-V1  
# encoding utf-8
Units mm
$INDEX
SO-16
TTSOP-16
$EndINDEX
$MODULE SO-16
Po 0 0 0 15 00000000 00000000 ~~
Li SO-16
Cd 
Sc 00000000
At SMD
Op 0 0 0
.SolderMask 0
.SolderPaste 0
T0 -3.38145 -5.41769 0.641336 0.641336 0 0.05 N V 21 "SO-16"
T1 0 0 1 0.9 0 0.05 N H 21 "VAL**"
DS -5 -4.5 -5 -1 0.127 21
DS -5 -1 -5 1 0.127 21
DS -5 1 -5 4.5 0.127 21
DS -5 4.5 5 4.5 0.127 21
DS 5 4.5 5 -4.5 0.127 21
DS 5 -4.5 -5 -4.5 0.127 21
DS -5 -1 -4 -1 0.127 21
DS -4 -1 -4 1 0.127 21
DS -4 1 -5 1 0.127 21
$PAD
Sh "4" R 0.5 2 0 0 0
At SMD N 00888000
.SolderMask 0
.SolderPaste 0
Ne 0 ""
Po -0.635 3.1
$EndPAD
$PAD
Sh "5" R 0.5 2 0 0 0
At SMD N 00888000
.SolderMask 0
.SolderPaste 0
Ne 0 ""
Po 0.635 3.1
$EndPAD
$PAD
Sh "3" R 0.5 2 0 0 0
At SMD N 00888000
.SolderMask 0
.SolderPaste 0
Ne 0 ""
Po -1.905 3.1
$EndPAD
$PAD
Sh "2" R 0.5 2 0 0 0
At SMD N 00888000
.SolderMask 0
.SolderPaste 0
Ne 0 ""
Po -3.175 3.1
$EndPAD
$PAD
Sh "1" R 0.5 2 0 0 0
At SMD N 00888000
.SolderMask 0
.SolderPaste 0
Ne 0 ""
Po -4.445 3.1
$EndPAD
$PAD
Sh "6" R 0.5 2 0 0 0
At SMD N 00888000
.SolderMask 0
.SolderPaste 0
Ne 0 ""
Po 1.905 3.1
$EndPAD
$PAD
Sh "7" R 0.5 2 0 0 0
At SMD N 00888000
.SolderMask 0
.SolderPaste 0
Ne 0 ""
Po 3.175 3.1
$EndPAD
$PAD
Sh "8" R 0.5 2 0 0 0
At SMD N 00888000
.SolderMask 0
.SolderPaste 0
Ne 0 ""
Po 4.445 3.1
$EndPAD
$PAD
Sh "13" R 0.5 2 0 0 0
At SMD N 00888000
.SolderMask 0
.SolderPaste 0
Ne 0 ""
Po -0.635 -3.1
$EndPAD
$PAD
Sh "12" R 0.5 2 0 0 0
At SMD N 00888000
.SolderMask 0
.SolderPaste 0
Ne 0 ""
Po 0.635 -3.1
$EndPAD
$PAD
Sh "14" R 0.5 2 0 0 0
At SMD N 00888000
.SolderMask 0
.SolderPaste 0
Ne 0 ""
Po -1.905 -3.1
$EndPAD
$PAD
Sh "15" R 0.5 2 0 0 0
At SMD N 00888000
.SolderMask 0
.SolderPaste 0
Ne 0 ""
Po -3.175 -3.1
$EndPAD
$PAD
Sh "16" R 0.5 2 0 0 0
At SMD N 00888000
.SolderMask 0
.SolderPaste 0
Ne 0 ""
Po -4.445 -3.1
$EndPAD
$PAD
Sh "11" R 0.5 2 0 0 0
At SMD N 00888000
.SolderMask 0
.SolderPaste 0
Ne 0 ""
Po 1.905 -3.1
$EndPAD
$PAD
Sh "10" R 0.5 2 0 0 0
At SMD N 00888000
.SolderMask 0
.SolderPaste 0
Ne 0 ""
Po 3.175 -3.1
$EndPAD
$PAD
Sh "9" R 0.5 2 0 0 0
At SMD N 00888000
.SolderMask 0
.SolderPaste 0
Ne 0 ""
Po 4.445 -3.1
$EndPAD
$EndMODULE SO-16
$MODULE TTSOP-16
Po 0 0 0 15 00000000 00000000 ~~
Li TTSOP-16
Cd 
Sc 00000000
At SMD
Op 0 0 0
.SolderMask 0
.SolderPaste 0
T0 -1.12668 -4.66586 0.6413 0.6413 0 0.05 N V 21 "TTSOP-16"
T1 0 0 1 0.9 0 0.05 N H 21 "VAL**"
DS -2.75 -4 2.75 -4 0.127 21
DS 2.75 -4 2.75 4 0.127 21
DS 2.75 4 -2.75 4 0.127 21
DS -2.75 4 -2.75 0.75 0.127 21
DS -2.75 0.75 -2.75 -0.75 0.127 21
DS -2.75 -0.75 -2.75 -4 0.127 21
DS -2.75 -0.75 -2 -0.75 0.127 21
DS -2 -0.75 -2 0.75 0.127 21
DS -2 0.75 -2.75 0.75 0.127 21
$PAD
Sh "4" R 0.35 2 0 0 0
At SMD N 00888000
.SolderMask 0
.SolderPaste 0
Ne 0 ""
Po -0.325 2.8
$EndPAD
$PAD
Sh "5" R 0.35 2 0 0 0
At SMD N 00888000
.SolderMask 0
.SolderPaste 0
Ne 0 ""
Po 0.325 2.8
$EndPAD
$PAD
Sh "3" R 0.35 2 0 0 0
At SMD N 00888000
.SolderMask 0
.SolderPaste 0
Ne 0 ""
Po -0.975 2.8
$EndPAD
$PAD
Sh "2" R 0.35 2 0 0 0
At SMD N 00888000
.SolderMask 0
.SolderPaste 0
Ne 0 ""
Po -1.625 2.8
$EndPAD
$PAD
Sh "6" R 0.35 2 0 0 0
At SMD N 00888000
.SolderMask 0
.SolderPaste 0
Ne 0 ""
Po 0.975 2.8
$EndPAD
$PAD
Sh "7" R 0.35 2 0 0 0
At SMD N 00888000
.SolderMask 0
.SolderPaste 0
Ne 0 ""
Po 1.625 2.8
$EndPAD
$PAD
Sh "8" R 0.35 2 0 0 0
At SMD N 00888000
.SolderMask 0
.SolderPaste 0
Ne 0 ""
Po 2.275 2.8
$EndPAD
$PAD
Sh "1" R 0.35 2 0 0 0
At SMD N 00888000
.SolderMask 0
.SolderPaste 0
Ne 0 ""
Po -2.275 2.8
$EndPAD
$PAD
Sh "13" R 0.35 2 0 0 0
At SMD N 00888000
.SolderMask 0
.SolderPaste 0
Ne 0 ""
Po -0.325 -2.8
$EndPAD
$PAD
Sh "12" R 0.35 2 0 0 0
At SMD N 00888000
.SolderMask 0
.SolderPaste 0
Ne 0 ""
Po 0.325 -2.8
$EndPAD
$PAD
Sh "14" R 0.35 2 0 0 0
At SMD N 00888000
.SolderMask 0
.SolderPaste 0
Ne 0 ""
Po -0.975 -2.8
$EndPAD
$PAD
Sh "15" R 0.35 2 0 0 0
At SMD N 00888000
.SolderMask 0
.SolderPaste 0
Ne 0 ""
Po -1.625 -2.8
$EndPAD
$PAD
Sh "11" R 0.35 2 0 0 0
At SMD N 00888000
.SolderMask 0
.SolderPaste 0
Ne 0 ""
Po 0.975 -2.8
$EndPAD
$PAD
Sh "10" R 0.35 2 0 0 0
At SMD N 00888000
.SolderMask 0
.SolderPaste 0
Ne 0 ""
Po 1.625 -2.8
$EndPAD
$PAD
Sh "9" R 0.35 2 0 0 0
At SMD N 00888000
.SolderMask 0
.SolderPaste 0
Ne 0 ""
Po 2.275 -2.8
$EndPAD
$PAD
Sh "16" R 0.35 2 0 0 0
At SMD N 00888000
.SolderMask 0
.SolderPaste 0
Ne 0 ""
Po -2.275 -2.8
$EndPAD
$EndMODULE TTSOP-16
