(module touch (layer F.Cu) (tedit 5A2D1DE1)
  (fp_text reference REF** (at 0 12.7) (layer F.SilkS)
    (effects (font (size 1 1) (thickness 0.15)))
  )
  (fp_text value touch (at 0 -12.7) (layer F.Fab)
    (effects (font (size 1 1) (thickness 0.15)))
  )
  (pad 1 smd circle (at 0 -6.35) (size 7 7) (layers F.Cu F.Paste F.Mask))
  (pad 2 smd circle (at -6.35 0) (size 7 7) (layers F.Cu F.Paste F.Mask))
  (pad 3 smd circle (at 0 6.35) (size 7 7) (layers F.Cu F.Paste F.Mask))
  (pad 4 smd circle (at 2.54 6.35) (size 7 7) (layers F.Cu F.Paste F.Mask))
)
