G04 #@! TF.FileFunction,Soldermask,Top*
%FSLAX46Y46*%
G04 Gerber Fmt 4.6, Leading zero omitted, Abs format (unit mm)*
G04 Created by KiCad (PCBNEW 4.0.5) date 02/10/18 14:54:07*
%MOMM*%
%LPD*%
G01*
G04 APERTURE LIST*
%ADD10C,0.100000*%
%ADD11R,2.100000X2.100000*%
%ADD12O,2.100000X2.100000*%
%ADD13R,1.200000X1.150000*%
%ADD14R,1.150000X1.200000*%
%ADD15R,1.600000X1.300000*%
%ADD16R,0.800000X1.750000*%
%ADD17O,1.650000X1.350000*%
%ADD18O,1.400000X1.950000*%
%ADD19R,2.400000X2.100000*%
%ADD20R,2.100000X1.300000*%
%ADD21R,1.300000X2.100000*%
%ADD22R,1.460000X1.050000*%
%ADD23R,1.850000X0.850000*%
%ADD24R,1.950000X1.000000*%
G04 APERTURE END LIST*
D10*
D11*
X160655000Y-104140000D03*
D12*
X163195000Y-104140000D03*
D13*
X123710000Y-88265000D03*
X125210000Y-88265000D03*
D14*
X129540000Y-93230000D03*
X129540000Y-94730000D03*
X167005000Y-122035000D03*
X167005000Y-120535000D03*
D13*
X147435000Y-97790000D03*
X145935000Y-97790000D03*
D15*
X140505000Y-103505000D03*
X142705000Y-103505000D03*
X140505000Y-106680000D03*
X142705000Y-106680000D03*
D16*
X148620000Y-94695000D03*
X147970000Y-94695000D03*
X147320000Y-94695000D03*
X146670000Y-94695000D03*
X146020000Y-94695000D03*
D17*
X149820000Y-94695000D03*
X144820000Y-94695000D03*
D18*
X150820000Y-91995000D03*
X143820000Y-91995000D03*
D19*
X149955000Y-121920000D03*
X145955000Y-121920000D03*
X175990000Y-121920000D03*
X171990000Y-121920000D03*
D20*
X126365000Y-103685000D03*
X126365000Y-100785000D03*
D21*
X148135000Y-103505000D03*
X145235000Y-103505000D03*
X148135000Y-106680000D03*
X145235000Y-106680000D03*
D11*
X117475000Y-94615000D03*
D12*
X117475000Y-92075000D03*
D22*
X123360000Y-93030000D03*
X123360000Y-93980000D03*
X123360000Y-94930000D03*
X125560000Y-94930000D03*
X125560000Y-93030000D03*
D23*
X131035000Y-120945000D03*
X131035000Y-121595000D03*
X131035000Y-122245000D03*
X131035000Y-122895000D03*
X136935000Y-122895000D03*
X136935000Y-122245000D03*
X136935000Y-121595000D03*
X136935000Y-120945000D03*
D22*
X160190000Y-120970000D03*
X160190000Y-121920000D03*
X160190000Y-122870000D03*
X162390000Y-122870000D03*
X162390000Y-120970000D03*
X162390000Y-121920000D03*
D24*
X131285000Y-102235000D03*
X131285000Y-103505000D03*
X131285000Y-104775000D03*
X131285000Y-106045000D03*
X136685000Y-106045000D03*
X136685000Y-104775000D03*
X136685000Y-103505000D03*
X136685000Y-102235000D03*
M02*
