G04 #@! TF.FileFunction,Profile,NP*
%FSLAX46Y46*%
G04 Gerber Fmt 4.6, Leading zero omitted, Abs format (unit mm)*
G04 Created by KiCad (PCBNEW 4.0.5) date 02/10/18 14:54:07*
%MOMM*%
%LPD*%
G01*
G04 APERTURE LIST*
%ADD10C,0.100000*%
%ADD11C,0.150000*%
G04 APERTURE END LIST*
D10*
D11*
X104140000Y-83820000D02*
X182880000Y-83820000D01*
X104140000Y-128905000D02*
X104140000Y-83820000D01*
X182880000Y-128905000D02*
X104140000Y-128905000D01*
X182880000Y-83820000D02*
X182880000Y-128905000D01*
M02*
