PCBNEW-LibModule-V1  
# encoding utf-8
Units mm
$INDEX
QFN50P400X400X95-24N
$EndINDEX
$MODULE QFN50P400X400X95-24N
Po 0 0 0 15 00000000 00000000 ~~
Li QFN50P400X400X95-24N
Cd 
Sc 00000000
At SMD
Op 0 0 0
.SolderMask 0
.SolderPaste 0
T0 0.541217 -3.64329 1.00228 1.00228 0 0.05 N V 21 "QFN50P400X400X95-24N"
T1 1.17902 3.37653 1.00342 1.00342 0 0.05 N V 21 "VAL**"
DS 1.56 -2.05 2.05 -2.05 0.127 21
DS 2.05 -2.05 2.05 -1.56 0.127 21
DS -1.56 2.05 -2.05 2.05 0.127 21
DS -2.05 2.05 -2.05 1.56 0.127 21
DS 2.05 1.56 2.05 2.05 0.127 21
DS 2.05 2.05 1.56 2.05 0.127 21
DS -2.62 -2.62 2.62 -2.62 0.05 26
DS 2.62 -2.62 2.62 2.62 0.05 26
DS 2.62 2.62 -2.62 2.62 0.05 26
DS -2.62 2.62 -2.62 -2.62 0.05 26
DC -3 -1.3 -2.9 -1.3 0.2 21
DS -2.05 -1.56 -2.05 -2.05 0.127 21
DS -1.56 -2.05 -2.05 -2.05 0.127 21
DS 2.05 -2.05 -2.05 -2.05 0.127 24
DS 2.05 2.05 -2.05 2.05 0.127 24
DS 2.05 -2.05 2.05 2.05 0.127 24
DS -2.05 -2.05 -2.05 2.05 0.127 24
$PAD
Sh "1" R 0.79 0.26 0 0 0
At SMD N 00888000
.SolderMask 0
.SolderPaste 0
Ne 0 ""
Po -1.97 -1.25
$EndPAD
$PAD
Sh "2" R 0.79 0.26 0 0 0
At SMD N 00888000
.SolderMask 0
.SolderPaste 0
Ne 0 ""
Po -1.97 -0.75
$EndPAD
$PAD
Sh "3" R 0.79 0.26 0 0 0
At SMD N 00888000
.SolderMask 0
.SolderPaste 0
Ne 0 ""
Po -1.97 -0.25
$EndPAD
$PAD
Sh "4" R 0.79 0.26 0 0 0
At SMD N 00888000
.SolderMask 0
.SolderPaste 0
Ne 0 ""
Po -1.97 0.25
$EndPAD
$PAD
Sh "5" R 0.79 0.26 0 0 0
At SMD N 00888000
.SolderMask 0
.SolderPaste 0
Ne 0 ""
Po -1.97 0.75
$EndPAD
$PAD
Sh "6" R 0.79 0.26 0 0 0
At SMD N 00888000
.SolderMask 0
.SolderPaste 0
Ne 0 ""
Po -1.97 1.25
$EndPAD
$PAD
Sh "7" R 0.79 0.26 0 0 900
At SMD N 00888000
.SolderMask 0
.SolderPaste 0
Ne 0 ""
Po -1.25 1.97
$EndPAD
$PAD
Sh "8" R 0.79 0.26 0 0 900
At SMD N 00888000
.SolderMask 0
.SolderPaste 0
Ne 0 ""
Po -0.75 1.97
$EndPAD
$PAD
Sh "9" R 0.79 0.26 0 0 900
At SMD N 00888000
.SolderMask 0
.SolderPaste 0
Ne 0 ""
Po -0.25 1.97
$EndPAD
$PAD
Sh "10" R 0.79 0.26 0 0 900
At SMD N 00888000
.SolderMask 0
.SolderPaste 0
Ne 0 ""
Po 0.25 1.97
$EndPAD
$PAD
Sh "11" R 0.79 0.26 0 0 900
At SMD N 00888000
.SolderMask 0
.SolderPaste 0
Ne 0 ""
Po 0.75 1.97
$EndPAD
$PAD
Sh "12" R 0.79 0.26 0 0 900
At SMD N 00888000
.SolderMask 0
.SolderPaste 0
Ne 0 ""
Po 1.25 1.97
$EndPAD
$PAD
Sh "13" R 0.79 0.26 0 0 1800
At SMD N 00888000
.SolderMask 0
.SolderPaste 0
Ne 0 ""
Po 1.97 1.25
$EndPAD
$PAD
Sh "14" R 0.79 0.26 0 0 1800
At SMD N 00888000
.SolderMask 0
.SolderPaste 0
Ne 0 ""
Po 1.97 0.75
$EndPAD
$PAD
Sh "15" R 0.79 0.26 0 0 1800
At SMD N 00888000
.SolderMask 0
.SolderPaste 0
Ne 0 ""
Po 1.97 0.25
$EndPAD
$PAD
Sh "16" R 0.79 0.26 0 0 1800
At SMD N 00888000
.SolderMask 0
.SolderPaste 0
Ne 0 ""
Po 1.97 -0.25
$EndPAD
$PAD
Sh "17" R 0.79 0.26 0 0 1800
At SMD N 00888000
.SolderMask 0
.SolderPaste 0
Ne 0 ""
Po 1.97 -0.75
$EndPAD
$PAD
Sh "18" R 0.79 0.26 0 0 1800
At SMD N 00888000
.SolderMask 0
.SolderPaste 0
Ne 0 ""
Po 1.97 -1.25
$EndPAD
$PAD
Sh "19" R 0.79 0.26 0 0 2700
At SMD N 00888000
.SolderMask 0
.SolderPaste 0
Ne 0 ""
Po 1.25 -1.97
$EndPAD
$PAD
Sh "20" R 0.79 0.26 0 0 2700
At SMD N 00888000
.SolderMask 0
.SolderPaste 0
Ne 0 ""
Po 0.75 -1.97
$EndPAD
$PAD
Sh "21" R 0.79 0.26 0 0 2700
At SMD N 00888000
.SolderMask 0
.SolderPaste 0
Ne 0 ""
Po 0.25 -1.97
$EndPAD
$PAD
Sh "22" R 0.79 0.26 0 0 2700
At SMD N 00888000
.SolderMask 0
.SolderPaste 0
Ne 0 ""
Po -0.25 -1.97
$EndPAD
$PAD
Sh "23" R 0.79 0.26 0 0 2700
At SMD N 00888000
.SolderMask 0
.SolderPaste 0
Ne 0 ""
Po -0.75 -1.97
$EndPAD
$PAD
Sh "24" R 0.79 0.26 0 0 2700
At SMD N 00888000
.SolderMask 0
.SolderPaste 0
Ne 0 ""
Po -1.25 -1.97
$EndPAD
$EndMODULE QFN50P400X400X95-24N
